_description,_OUTPUT,averageAgeDiff,shotTotalDiff,shotOnGoalDiff,passTotalDiff,passLongDiff,passSuccessDiff,passForwardDiff,passBackwardDiff,passTargetFinalThirdDiff,passTargetMiddleThirdDiff,passTargetDefensiveThirdDiff,cornerFavourDiff,cornerAgainstDiff,foulReceivedDiff,foulCommitedDiff,assistShotDiff,assistShotIntentionalDiff,assistShotIntentionalGoalDiff,crossFavourTotalDiff,crossFavourSuccessDiff,crossAgainstTotalDiff,offsideCommittedDiff,offsideReceivedDiff,possessionAttackDiff,possessionTotalDiff,possessionDefenceDiff,interceptionDiff,cardYellowDiff,cardRedDiff,tackleTotalDiff,tackleSuccessDiff,dribbleTotalDiff,dribbleSuccessDiff,goalDiff
Arles-Avignon v Auxerre,2,1.5,-3,-1,3,-2,-11,11,-13,-16,18,-4,1,-1,-1,1,-3,-3,-1,-4,-2,0,0,0,-20,-9,11,-1,0,0,0,2,3,2,-2
Arles-Avignon v Bordeaux,2,2.8000000000000007,-10,-3,-128,-15,-137,-83,-68,-67,-60,-24,-3,3,-5,5,-5,-5,0,-18,-5,0,0,0,-112,-152,-40,-4,1,1,8,6,-1,-2,-1
Arles-Avignon v Brest,1,0.8999999999999986,-1,-4,-51,10,-60,-21,-27,18,-27,-40,-1,1,1,-1,-3,-1,1,-2,2,0,2,0,1,-57,-58,-4,1,0,12,6,-10,-6,1
Arles-Avignon v Caen,0,1.9000000000000021,3,0,-13,-2,-8,6,-25,-14,-3,-3,-2,2,-2,2,3,4,1,0,4,0,-1,0,-13,-4,9,-1,-1,0,0,0,-2,0,1
Arles-Avignon v Lens,2,-0.4000000000000057,-1,0,85,2,76,48,27,9,59,6,-2,2,2,-2,-1,-1,0,-2,0,0,-2,0,26,89,63,5,0,0,11,7,-5,-4,0
Arles-Avignon v Lille,2,1.0,3,-1,-35,-10,-42,-18,-10,18,-27,-20,0,0,-2,2,1,-2,0,1,0,0,-1,0,22,-31,-53,3,-1,0,-8,-3,8,5,0
Arles-Avignon v Lorient,1,0.9000000000000021,2,1,-59,-13,-66,-29,-39,-26,-40,0,-1,1,-6,6,2,4,1,-6,1,0,-1,0,-57,-64,-7,5,1,0,3,2,1,-1,-1
Arles-Avignon v Lyon,1,2.599999999999998,4,1,-117,-4,-114,-83,-44,-16,-79,-33,0,0,0,0,0,-1,0,-4,0,0,-3,0,-28,-112,-84,3,-2,0,-3,0,9,3,1
Arles-Avignon v Marseille,2,0.5,3,4,-61,-17,-51,-43,-14,-17,-33,-7,5,-5,-1,1,1,3,-1,3,2,0,0,0,-39,-58,-19,3,2,0,7,3,-10,-4,-2
Arles-Avignon v Monaco,2,1.1000000000000014,-3,-2,-21,2,-25,-15,-12,0,-25,-3,-1,1,2,-2,0,0,0,-7,0,0,0,0,-17,-14,3,9,0,1,-2,-2,5,0,-1
Arles-Avignon v Montpellier,1,2.0000000000000036,-6,-3,-48,-1,-57,-37,-26,-20,-30,-15,-1,1,0,0,-1,0,0,-12,-3,0,-1,0,-50,-57,-7,3,1,0,2,4,1,2,0
Arles-Avignon v Nancy,1,0.3999999999999986,1,0,6,-8,1,9,3,35,-8,-13,-4,4,0,0,0,-1,0,1,0,0,2,0,24,6,-18,-2,0,0,1,-1,3,-2,0
Arles-Avignon v Nice,1,0.20000000000000284,-2,-2,-54,1,-63,-30,-28,6,-33,-30,-2,2,1,-1,-3,-3,0,1,-1,0,-2,0,-37,-74,-37,3,0,0,11,7,-10,-4,0
Arles-Avignon v PSG,2,-0.3999999999999986,-5,-3,5,8,5,9,1,38,-10,-20,0,0,-1,1,-4,-3,-1,4,0,0,-2,0,52,13,-39,17,-1,0,6,4,-2,-2,-1
Arles-Avignon v Rennes,2,2.400000000000002,1,3,87,2,72,70,23,7,60,25,1,-1,-1,1,3,2,0,4,2,0,-1,0,10,78,68,2,0,0,3,-2,-7,-5,-1
Arles-Avignon v Saint-Etienne,2,1.6000000000000014,-8,-6,-59,-6,-64,-45,-16,-22,-7,-31,-3,3,-2,2,-5,-6,0,-7,-4,0,0,0,-39,-75,-36,-2,1,0,-1,-2,1,-1,-1
Arles-Avignon v Sochaux,2,2.799999999999997,5,2,-139,-11,-144,-69,-72,-27,-74,-43,0,0,0,0,3,1,0,-5,0,0,0,0,-40,-142,-102,1,0,0,2,-1,1,-3,0
Arles-Avignon v Toulouse,0,4.400000000000002,-1,0,-18,4,-15,-9,-10,-4,-15,-2,-1,1,5,-5,0,-1,1,1,2,0,1,0,-35,-4,31,4,0,0,5,3,-3,-2,1
Arles-Avignon v Valenciennes,2,2.0,-3,1,-16,-3,-24,4,-11,26,-9,-24,-4,4,-5,5,-1,-1,0,-5,0,0,1,0,16,-16,-32,8,-1,0,-8,-8,6,0,0
Auxerre v Arles-Avignon,1,-2.3999999999999986,2,1,74,2,69,36,54,31,29,32,1,-1,-1,1,0,0,0,12,3,0,0,0,52,69,17,-9,-3,0,0,-1,-1,-1,0
Auxerre v Bordeaux,2,0.10000000000000142,-1,-1,-49,-5,-57,-30,-17,1,-53,2,-3,3,-2,2,-2,-2,-1,-7,-2,0,1,0,-48,-53,-5,-4,-1,0,1,1,0,0,-1
Auxerre v Brest,2,-0.09999999999999787,2,2,23,0,38,12,24,26,26,-16,2,-2,0,0,-1,0,0,5,0,0,2,0,45,26,-19,-1,1,0,-1,-2,1,-1,0
Auxerre v Caen,1,1.3999999999999986,3,3,-29,0,-29,-13,-16,-15,-1,-17,-1,1,0,0,2,2,1,-2,1,0,-1,0,-25,-32,-7,-2,-2,0,-5,-4,4,1,1
Auxerre v Lens,1,-1.7000000000000028,-8,-7,-100,-16,-100,-79,-44,-52,-74,4,0,0,1,-1,-4,-3,1,-14,-7,0,1,0,-126,-103,23,-6,0,0,13,9,-7,-4,1
Auxerre v Lille,1,0.10000000000000142,-3,2,-104,-4,-105,-69,-43,-44,-50,-17,0,0,0,0,0,2,0,1,2,0,-1,0,-68,-98,-30,6,0,0,7,3,-10,-4,-1
Auxerre v Lorient,1,0.9000000000000057,2,2,24,5,17,23,15,43,-31,26,1,-1,-2,2,2,4,1,5,0,0,0,0,15,22,7,3,-1,0,4,4,-4,0,0
Auxerre v Lyon,0,2.0,7,4,-119,-10,-97,-81,-35,-20,-68,-31,1,-1,-5,5,4,4,2,2,1,0,-2,0,-28,-112,-84,3,1,0,-1,-2,4,-1,2
Auxerre v Marseille,1,-1.2999999999999972,-1,-2,-63,7,-58,-31,-42,5,-59,-19,-6,6,4,-4,-1,-1,-1,-6,-2,0,-1,0,-26,-68,-42,-1,0,-1,3,1,-2,-2,0
Auxerre v Monaco,1,0.5999999999999943,1,1,-89,8,-92,-47,-29,14,-48,-45,0,0,-1,1,2,1,1,1,-1,0,-2,0,-9,-80,-71,-3,1,0,5,4,0,-1,1
Auxerre v Montpellier,0,-0.9000000000000021,3,2,-113,-1,-109,-62,-48,0,-71,-40,2,-2,2,-2,3,1,0,7,3,0,-1,0,-11,-90,-79,6,-2,0,0,3,3,3,0
Auxerre v Nancy,1,-0.29999999999999716,6,1,-36,-5,-37,-22,-4,-9,-7,-9,0,0,6,-6,5,4,-1,4,2,0,2,0,-25,-30,-5,-2,0,0,-1,-1,-2,0,0
Auxerre v Nice,0,0.29999999999999716,6,1,23,-1,31,18,1,32,-10,-2,-1,1,2,-2,6,-3,1,3,-2,0,-1,0,36,21,-15,6,-1,0,5,1,-5,-4,1
Auxerre v PSG,0,-1.2000000000000028,2,0,-22,12,-25,-18,6,3,-13,-1,-2,2,0,0,1,-3,0,8,1,0,1,0,-16,-26,-10,-1,0,0,2,-2,-9,-4,0
Auxerre v Rennes,0,1.5999999999999979,4,-1,-75,-18,-78,-38,-23,28,-83,-5,3,-3,0,0,5,3,0,1,0,0,1,0,-21,-84,-63,-4,1,0,-7,-8,2,-1,0
Auxerre v Saint-Etienne,1,0.6000000000000014,3,-1,89,-8,92,37,57,47,33,16,3,-3,-2,2,1,-2,0,8,0,0,0,0,101,99,-2,-5,-1,0,3,4,-2,1,0
Auxerre v Sochaux,0,3.1000000000000014,-8,-2,-152,9,-159,-107,-62,-77,-82,-11,-2,2,-5,5,-11,-4,1,-17,-4,0,3,0,-148,-163,-15,1,0,0,6,0,-7,-6,1
Auxerre v Toulouse,2,1.1999999999999993,0,0,38,5,44,23,18,21,32,-11,1,-1,3,-3,1,2,0,4,2,0,-2,0,64,39,-25,-7,0,0,-2,-5,-3,-3,-2
Auxerre v Valenciennes,1,0.6000000000000014,1,0,-70,-22,-68,-29,-28,7,-14,-49,1,-1,-6,6,-1,0,0,8,4,0,0,0,8,-65,-73,-3,-1,0,-1,0,3,1,0
Bordeaux v Arles-Avignon,1,-1.0,1,0,71,4,82,32,55,31,41,18,4,-4,3,-3,2,2,0,15,5,0,-2,0,57,86,29,-2,2,0,-6,-2,7,4,0
Bordeaux v Auxerre,0,0.5,2,-2,26,7,16,17,6,6,32,-14,1,-1,2,-2,3,3,1,3,5,0,-2,0,12,28,16,4,-2,0,3,2,-5,-1,1
Bordeaux v Brest,2,-1.4000000000000021,4,5,89,6,81,73,37,67,42,3,0,0,1,-1,2,0,-1,11,1,0,-3,0,86,85,-1,-3,-1,0,-10,-6,6,4,-1
Bordeaux v Caen,2,-0.09999999999999787,1,1,144,6,145,110,50,46,84,31,2,-2,-1,1,1,2,-1,13,3,0,-1,0,78,147,69,1,-1,0,1,-3,-4,-4,-1
Bordeaux v Lens,1,-1.5999999999999979,0,2,135,11,128,80,59,29,91,20,2,-2,2,-2,-1,0,-2,5,-1,0,-1,0,66,100,34,-17,-1,0,3,1,-5,-2,-2
Bordeaux v Lille,1,-0.6999999999999957,0,2,45,10,47,27,30,29,49,-21,-2,2,-4,4,-1,-3,0,3,-2,0,-3,0,44,50,6,-2,0,0,-9,-2,10,7,-1
Bordeaux v Lorient,0,-0.5999999999999979,3,2,34,13,15,32,12,36,10,0,1,-1,-2,2,1,-1,0,9,1,0,-3,0,57,24,-33,7,-2,0,7,3,-6,-4,1
Bordeaux v Lyon,0,0.6999999999999993,6,5,-41,3,-35,-6,-25,10,-28,-15,5,-5,2,-2,4,1,0,8,4,0,-1,0,17,-44,-61,0,0,0,4,3,-2,-1,0
Bordeaux v Marseille,1,-1.3000000000000007,0,-1,71,-3,82,47,29,35,46,-5,0,0,0,0,-1,-2,-1,9,-1,0,1,0,75,80,5,5,-1,-1,4,1,-4,-3,-1
Bordeaux v Monaco,2,0.0,1,2,56,-5,53,51,19,39,31,1,0,0,1,-1,1,0,-1,5,-2,0,1,0,74,66,-8,2,0,0,-7,-2,6,5,-1
Bordeaux v Montpellier,0,0.9000000000000021,-4,-2,31,12,3,8,12,7,18,-5,1,-1,1,-1,-3,-4,0,-7,-4,0,-1,0,7,-2,-9,3,1,0,7,0,-5,-7,2
Bordeaux v Nancy,0,-0.8999999999999986,2,3,82,-5,88,48,45,31,34,31,2,-2,-9,9,3,4,1,9,4,0,-1,0,53,88,35,1,1,0,-14,-11,14,3,1
Bordeaux v Nice,0,-0.7000000000000028,6,2,26,-4,23,35,15,60,30,-36,2,-2,4,-4,5,3,1,20,6,0,-2,0,76,39,-37,6,0,0,-2,-2,-1,0,1
Bordeaux v PSG,0,-1.3000000000000043,-2,-1,-60,-9,-49,-52,-20,-33,-15,-24,-4,4,-3,3,-4,-6,0,-9,-4,0,-1,0,-67,-51,16,-4,0,0,9,10,-6,1,1
Bordeaux v Rennes,1,1.5000000000000036,1,0,11,2,8,15,5,20,-6,9,0,0,4,-4,1,0,0,2,0,0,1,0,15,1,-14,2,-2,0,-1,-1,-5,0,0
Bordeaux v Saint-Etienne,0,-1.3000000000000043,5,3,1,-8,6,-4,6,18,8,-21,1,-1,-3,3,2,-1,0,7,1,0,0,0,39,9,-30,9,-1,0,5,5,-5,0,1
Bordeaux v Sochaux,2,1.8999999999999986,-3,-1,35,-13,26,39,12,22,31,-4,1,-1,2,-2,-1,-2,-4,10,2,0,0,0,49,39,-10,4,1,0,-1,-1,1,0,-4
Bordeaux v Toulouse,2,1.4000000000000021,0,0,56,-3,59,50,15,22,25,16,-1,1,1,-1,-1,0,-1,9,3,0,-1,0,14,60,46,-7,-1,0,5,3,-14,-2,-1
Bordeaux v Valenciennes,1,-1.3999999999999986,2,1,-23,-14,-23,27,-31,40,-11,-34,1,-1,4,-4,4,-1,-1,11,1,0,-1,0,54,-28,-82,-2,0,0,1,-3,-1,-4,-1
Brest v Arles-Avignon,1,-1.5,3,0,80,5,77,58,31,12,41,38,2,-2,3,-3,1,-1,0,6,0,0,-1,0,41,81,40,-5,0,0,-1,0,0,1,0
Brest v Auxerre,1,-0.6000000000000014,1,1,60,-15,71,38,29,3,33,34,2,-2,-5,5,0,-1,1,9,2,0,-2,0,19,73,54,2,-1,0,-6,-5,3,1,1
Brest v Bordeaux,2,0.10000000000000142,0,1,10,-11,17,23,-8,-31,24,22,1,-1,-2,2,0,-1,0,6,0,0,3,0,-19,38,57,4,0,0,-1,1,5,2,0
Brest v Caen,2,1.4000000000000021,2,1,18,-6,5,25,-8,3,-5,18,1,-1,5,-5,-2,-2,-1,-1,2,0,1,0,-18,5,23,-5,-2,-1,6,0,-5,-6,0
Brest v Lens,0,0.29999999999999716,-2,0,-33,15,-51,-15,-31,-39,-3,-4,-5,5,-6,6,-1,0,1,-13,-1,0,-3,0,-45,-35,10,3,1,0,10,6,-2,-4,1
Brest v Lille,2,0.9999999999999964,4,3,-113,-6,-127,-48,-50,43,-108,-32,3,-3,2,-2,2,2,0,7,3,0,-1,0,7,-125,-132,-6,-1,0,7,4,-9,-3,0
Brest v Lorient,1,0.3999999999999986,8,4,49,-6,48,34,15,-3,21,32,-1,1,-4,4,3,1,0,0,0,0,2,0,3,53,50,2,0,0,1,3,-2,2,0
Brest v Lyon,1,0.7000000000000028,-3,0,-20,-12,-27,0,-39,-37,-26,26,-3,3,3,-3,0,0,-1,-6,0,0,0,0,-44,-11,33,3,1,0,1,3,2,2,-1
Brest v Marseille,1,0.7000000000000028,-2,-2,8,-6,17,6,-3,-22,9,16,0,0,6,-6,0,0,0,-1,-1,0,3,0,-38,14,52,2,0,0,1,3,-3,2,0
Brest v Monaco,0,1.1999999999999993,1,2,20,6,19,-13,26,-33,11,35,1,-1,-2,2,0,2,1,2,0,0,1,0,-25,39,64,8,2,0,7,8,3,1,1
Brest v Montpellier,1,0.10000000000000142,-2,-1,-23,-9,-33,-7,-13,8,-35,4,0,0,6,-6,0,0,0,8,2,0,0,0,-2,-23,-21,3,0,0,-2,1,2,3,0
Brest v Nancy,0,-0.20000000000000284,8,2,8,-12,13,27,-11,-4,-14,35,3,-3,-6,6,4,4,1,9,2,0,-1,0,-31,7,38,0,0,0,10,6,-8,-4,1
Brest v Nice,1,1.3000000000000043,1,-1,36,-11,35,28,21,37,0,12,3,-3,-4,4,0,-1,0,13,1,0,0,0,24,49,25,9,-1,0,6,4,-1,-2,0
Brest v PSG,1,-2.200000000000003,0,0,-6,0,-10,-14,-3,-10,-10,3,-5,5,3,-3,-1,-3,0,-6,-1,0,-1,0,3,11,8,4,-1,0,-1,0,1,1,1
Brest v Rennes,0,2.5,4,2,-34,0,-35,-8,-20,5,-15,-20,1,-1,-1,1,3,2,0,3,1,0,0,0,10,-22,-32,7,0,0,-5,0,6,5,1
Brest v Saint-Etienne,0,2.0000000000000036,0,-1,-104,-4,-105,-83,-33,-25,-37,-54,-1,1,-5,5,0,-1,0,-8,0,0,1,0,-14,-100,-86,0,0,0,-1,-2,5,-1,0
Brest v Sochaux,1,2.700000000000003,1,2,42,-1,40,29,24,-1,25,30,5,-5,2,-2,1,2,0,10,1,0,0,0,30,52,22,9,1,0,-1,-2,0,-1,0
Brest v Toulouse,2,2.599999999999998,-1,-1,34,6,35,17,20,-12,21,30,5,-5,-1,1,1,1,-1,9,2,0,-1,0,-13,50,63,2,-1,0,0,0,-1,0,-1
Brest v Valenciennes,0,1.1999999999999993,5,2,-57,-4,-53,-26,-30,-10,-45,-4,0,0,9,-9,5,2,0,-7,0,0,-3,0,-15,-57,-42,-4,0,0,8,7,3,-1,0
Caen v Arles-Avignon,0,-2.599999999999998,-2,-3,27,15,39,14,29,23,6,14,2,-2,7,-7,-3,-1,0,15,3,0,3,0,27,36,9,-2,-1,0,-18,-11,6,7,0
Caen v Auxerre,0,-1.0999999999999979,1,1,68,6,87,46,33,61,24,-2,2,-2,-2,2,-2,-1,0,9,-1,0,1,0,109,70,-39,11,0,0,-5,-7,-2,-2,0
Caen v Bordeaux,1,-0.7000000000000028,-8,-3,-26,7,-21,-11,4,19,-20,-7,2,-2,-5,5,-5,-1,0,12,1,0,0,0,5,-44,-49,-1,0,0,1,-1,-2,-2,0
Caen v Brest,2,-2.3000000000000007,-5,-4,4,13,-2,-2,10,15,-3,-4,-2,2,-2,2,-4,-3,0,-1,-2,0,2,0,27,-7,-34,2,2,1,-9,-6,8,3,0
Caen v Lens,1,-1.5999999999999979,-4,-5,-39,-2,-30,-35,-14,-39,7,-18,-3,3,-1,1,-3,-4,0,-8,-4,0,0,0,-45,-38,7,7,2,0,13,9,-10,-4,0
Caen v Lille,2,0.10000000000000142,-8,-4,-51,-13,-42,-36,-28,-13,-24,-26,1,-1,-1,1,-6,-5,-1,-1,-1,0,0,0,-21,-45,-24,3,0,0,5,3,-5,-2,-2
Caen v Lorient,2,0.5,2,1,-22,12,-29,-6,-18,-34,-4,15,2,-2,-4,4,3,2,-1,6,6,0,0,0,-66,-36,30,0,0,0,15,13,-11,-2,-1
Caen v Lyon,0,-0.3999999999999986,-4,0,-154,-1,-162,-77,-76,-8,-98,-48,0,0,2,-2,-3,0,1,0,0,0,-1,0,-55,-158,-103,1,-2,0,-6,-7,0,-1,0
Caen v Marseille,1,-0.1999999999999993,-7,-6,-135,5,-142,-107,-43,-38,-73,-38,-4,4,2,-2,-3,-4,2,-12,-6,0,0,0,-90,-142,-52,9,1,0,11,5,-14,-6,2
Caen v Monaco,1,1.1999999999999993,-2,-3,-29,3,-20,-11,-11,7,-5,-24,0,0,7,-7,-3,-2,0,8,-1,0,2,0,4,-28,-32,5,-1,0,2,-1,0,-3,0
Caen v Montpellier,0,-0.1999999999999993,7,3,-27,0,-28,-13,-4,10,-25,-4,2,-2,0,0,5,6,0,8,4,0,0,0,12,-6,-18,-4,0,0,1,3,5,2,1
Caen v Nancy,2,-1.8999999999999986,0,-3,-50,-7,-45,-44,-8,-5,-41,-3,0,0,-7,7,-2,1,0,0,-1,0,1,0,-34,-48,-14,4,1,0,-2,-1,0,1,1
Caen v Nice,1,-1.0,-2,-1,40,5,39,9,24,19,11,3,3,-3,1,-1,-3,-2,0,1,-2,0,1,0,37,41,4,4,-1,0,-3,-4,-3,-1,0
Caen v PSG,2,-2.6000000000000014,-2,-3,-28,0,-17,-8,-13,-4,-4,-14,0,0,2,-2,-5,-3,-1,12,2,0,1,0,3,-17,-20,-4,0,0,-4,-4,0,0,-1
Caen v Rennes,0,1.1999999999999993,1,-1,-233,1,-231,-132,-119,-64,-168,-21,-1,1,-2,2,-1,-1,0,-9,-2,0,3,0,-181,-232,-51,1,-1,0,9,5,-13,-4,1
Caen v Saint-Etienne,0,0.3000000000000007,-1,0,-92,-9,-95,-47,-54,18,-49,-70,-1,1,-1,1,0,-2,0,-2,2,0,1,0,39,-95,-134,-3,0,0,-2,-2,-2,0,0
Caen v Sochaux,2,1.4000000000000021,6,4,-29,-4,-30,-17,-8,-22,-3,-2,0,0,0,0,3,1,-1,-6,0,0,3,0,-12,-35,-23,0,0,0,4,1,-1,-3,-1
Caen v Toulouse,1,0.0,0,-1,-19,5,-9,-9,-3,4,-37,20,0,0,-7,7,1,1,1,0,1,0,2,0,-23,-4,19,-2,2,0,5,5,-4,0,0
Caen v Valenciennes,1,-1.8000000000000007,4,2,-54,-3,-43,-23,-11,60,-58,-34,6,-6,-6,6,3,4,0,22,7,0,0,0,39,-36,-75,6,1,0,0,-2,1,-2,0
Lens v Arles-Avignon,2,-4.100000000000001,9,6,69,13,74,36,41,8,56,13,3,-3,0,0,8,7,-1,7,6,0,0,0,39,83,44,2,0,0,-5,-4,1,1,-1
Lens v Auxerre,1,1.0,6,1,1,-3,7,14,0,25,7,-18,5,-5,0,0,6,4,1,11,3,0,2,0,50,9,-41,1,1,0,-3,-3,-2,0,1
Lens v Bordeaux,0,-0.10000000000000142,-3,-3,-9,-3,-22,-21,0,10,-1,-28,-4,4,-4,4,-2,0,0,-3,1,0,1,0,26,-18,-44,-2,0,0,1,1,-1,0,0
Lens v Brest,1,-1.2999999999999972,2,0,-6,5,-4,-8,17,26,-17,-3,6,-6,1,-1,1,2,0,15,4,0,2,0,13,12,-1,2,0,0,2,2,-2,0,1
Lens v Caen,0,1.6000000000000014,4,3,26,7,20,19,11,12,18,-1,2,-2,1,-1,1,0,0,0,0,0,0,0,19,17,-2,-2,0,0,9,6,-3,-3,1
Lens v Lille,2,1.0,0,0,-62,-6,-61,-46,-18,-3,-28,-34,-3,3,-1,1,-1,-2,-1,0,1,0,1,0,-19,-63,-44,8,-1,1,3,3,-7,0,-1
Lens v Lorient,2,0.5,2,2,-53,-13,-38,-17,-22,-24,-14,-5,-2,2,-3,3,2,1,0,8,2,0,0,0,-13,-36,-23,10,1,0,-3,2,1,5,1
Lens v Lyon,2,1.6000000000000014,-1,-3,-143,-3,-126,-78,-62,-4,-101,-33,3,-3,5,-5,-1,-1,0,2,0,0,1,0,-33,-129,-96,13,-1,0,-4,-5,1,-1,1
Lens v Marseille,2,-0.4000000000000057,0,0,-67,5,-71,-47,-35,-35,-35,-9,-1,1,0,0,1,2,0,-4,1,0,2,0,-65,-59,6,-2,0,0,7,9,-6,2,0
Lens v Monaco,1,2.299999999999997,2,1,-23,-10,-13,-2,-11,13,-16,-10,2,-2,8,-8,1,1,0,11,3,0,1,0,28,4,-24,3,-2,0,-8,-4,4,4,-1
Lens v Montpellier,0,-1.6999999999999993,-3,-3,-89,-1,-94,-55,-44,-10,-65,-21,-5,5,-2,2,-3,-2,1,-3,0,0,0,0,-44,-90,-46,12,0,0,7,5,-9,-2,2
Lens v Nancy,2,0.3999999999999986,-7,-3,2,1,9,-13,14,-15,-5,19,-2,2,-1,1,-8,-5,-1,4,1,0,1,0,-31,9,40,2,-1,0,-2,0,-4,2,-1
Lens v Nice,0,0.29999999999999716,4,0,28,4,27,17,20,42,-4,0,0,0,-1,1,5,2,0,9,3,0,0,0,77,41,-36,-3,0,0,-12,-7,7,5,0
Lens v PSG,2,-2.0,2,-1,-33,-1,-20,-25,4,1,-15,-10,-2,2,2,-2,2,2,0,7,2,0,3,0,10,-8,-18,10,-3,0,5,7,0,2,0
Lens v Rennes,1,2.799999999999997,-3,-2,-64,-10,-63,-47,-13,2,-35,-27,0,0,5,-5,-3,-3,0,3,-2,0,2,0,-19,-47,-28,5,0,0,1,3,-1,0,0
Lens v Saint-Etienne,0,1.8999999999999986,2,1,-12,15,-8,-6,-2,26,-25,-7,2,-2,2,-2,0,1,0,8,1,0,1,0,15,-18,-33,4,0,0,3,3,-3,0,0
Lens v Sochaux,2,1.8000000000000043,1,1,-73,4,-75,-14,-41,-17,-38,-3,2,-2,5,-5,0,1,0,8,-1,0,3,0,-58,-65,-7,8,-1,0,-1,-3,-5,-2,-1
Lens v Toulouse,2,3.299999999999997,-3,-4,3,-5,20,6,16,-21,22,15,2,-2,0,0,-1,0,0,5,-2,0,3,0,-28,18,46,0,-1,0,-6,-4,-2,2,0
Lens v Valenciennes,1,1.1999999999999957,3,-1,-24,-1,-14,-10,-5,20,-10,-24,-1,1,-1,1,1,3,-1,7,4,0,4,0,21,-8,-29,-1,-2,0,10,10,-3,0,0
Lille v Arles-Avignon,0,-0.7999999999999972,0,0,204,9,191,118,86,34,110,62,1,-1,5,-5,2,2,2,2,2,0,0,0,77,195,118,-4,0,0,-8,-9,4,-1,2
Lille v Auxerre,0,-1.1000000000000014,2,1,127,5,122,91,49,41,73,27,3,-3,-1,1,0,3,0,8,2,0,-1,0,84,104,20,-7,0,0,2,2,2,0,0
Lille v Bordeaux,1,0.20000000000000284,-3,-5,50,-7,57,34,25,34,-5,30,0,0,-1,1,-2,0,0,5,1,0,2,0,24,60,36,0,0,0,-3,-1,7,2,0
Lille v Brest,0,-0.10000000000000142,4,2,58,4,48,38,26,30,10,25,0,0,2,-2,2,2,0,2,-2,0,1,0,28,47,19,-2,1,0,5,10,4,5,1
Lille v Caen,0,2.400000000000002,10,5,165,-6,169,106,71,45,91,43,5,-5,2,-2,3,1,1,9,4,0,1,0,104,179,75,-4,-1,0,-8,-4,4,4,1
Lille v Lens,0,0.0,5,1,132,0,133,82,61,29,92,22,3,-3,3,-3,4,2,0,7,2,0,1,0,81,145,64,0,-1,0,-4,1,8,5,0
Lille v Lorient,0,0.19999999999999574,6,4,0,12,2,-12,10,-6,-22,26,-2,2,-2,2,6,6,1,-1,4,0,2,0,1,24,23,0,0,0,4,8,6,4,-2
Lille v Lyon,1,1.3999999999999986,2,0,59,4,72,19,39,11,43,3,1,-1,1,-1,2,0,1,-2,0,0,-1,0,46,85,39,2,-1,0,-7,-2,9,5,0
Lille v Marseille,2,-0.8999999999999986,8,4,-4,18,-13,-9,3,29,-36,1,1,-1,5,-5,5,3,0,2,3,0,1,0,6,-2,-8,3,-1,0,6,4,-4,-2,1
Lille v Monaco,0,0.3999999999999986,6,2,155,6,154,75,77,18,83,49,6,-6,-2,2,4,3,0,6,1,0,0,0,52,161,109,-9,0,0,0,4,1,4,1
Lille v Montpellier,0,-0.09999999999999787,1,-1,66,23,75,30,41,39,11,21,1,-1,1,-1,2,3,0,7,3,0,-1,0,56,75,19,3,0,0,0,-1,6,-1,1
Lille v Nancy,0,0.5999999999999943,11,9,109,3,102,54,58,17,47,49,3,-3,4,-4,5,3,0,-3,1,0,2,0,56,99,43,-3,0,0,-18,-12,14,6,0
Lille v Nice,1,-0.8000000000000043,-1,-3,79,11,77,59,33,41,47,3,10,-10,5,-5,-3,0,0,16,2,0,0,0,51,75,24,2,-2,0,-1,-5,-8,-4,-1
Lille v PSG,1,-2.1999999999999957,0,-1,110,25,107,52,56,12,36,58,1,-1,-1,1,-1,0,0,1,1,0,0,0,34,123,89,6,-1,0,0,1,0,1,0
Lille v Rennes,0,2.200000000000003,4,0,90,5,96,60,37,34,5,59,1,-1,5,-5,2,0,0,4,0,0,2,0,33,90,57,3,0,0,-2,-5,-3,-3,2
Lille v Saint-Etienne,1,0.6000000000000014,2,-1,239,9,243,157,90,81,140,34,2,-2,4,-4,-1,1,0,14,4,0,-1,0,154,234,80,-1,-1,0,-6,-6,1,0,0
Lille v Sochaux,0,2.099999999999998,1,1,45,-9,32,32,22,37,3,10,-2,2,2,-2,1,1,0,1,2,0,0,0,34,32,-2,10,-2,0,10,3,-5,-7,0
Lille v Toulouse,0,2.599999999999998,10,8,23,-4,41,12,18,6,5,19,-1,1,6,-6,7,4,0,2,1,0,0,0,20,43,23,-6,-2,0,-7,-3,6,4,1
Lille v Valenciennes,0,-0.10000000000000142,2,1,22,-10,32,11,9,-9,17,11,2,-2,-1,1,0,-2,0,0,0,0,2,0,32,31,-1,-2,0,0,-10,-8,8,2,1
Lorient v Arles-Avignon,0,-0.8999999999999986,-3,-2,78,8,84,50,30,22,34,26,-1,1,0,0,-2,0,0,5,2,0,-1,0,49,73,24,-6,0,0,3,2,-1,-1,0
Lorient v Auxerre,2,-0.20000000000000284,5,3,179,2,185,107,72,64,90,27,0,0,3,-3,4,4,1,4,2,0,2,0,142,173,31,-10,-1,0,0,1,2,1,2
Lorient v Bordeaux,0,-0.6999999999999993,1,0,-9,-8,-3,-8,-6,-24,-9,18,2,-2,0,0,1,0,1,0,-2,0,5,0,-45,-4,41,-4,1,0,-2,-3,0,-1,2
Lorient v Brest,0,-0.9000000000000021,-3,-2,161,-3,161,104,68,81,85,5,1,-1,4,-4,2,2,0,9,0,0,0,0,151,144,-7,-2,0,0,3,1,-3,-2,0
Lorient v Caen,2,1.7000000000000028,5,5,113,-12,109,87,39,51,66,7,2,-2,3,-3,4,-1,-1,14,2,0,0,0,111,119,8,1,1,0,-3,-4,9,-1,-1
Lorient v Lens,0,-1.3000000000000007,3,3,94,0,96,56,44,7,57,36,-3,3,2,-2,4,1,0,-3,0,0,-2,0,39,95,56,-3,0,0,-10,-7,3,3,0
Lorient v Lille,1,-0.3999999999999986,-2,2,74,1,89,33,39,5,73,-3,0,0,0,0,-3,1,-1,4,-2,0,1,0,73,78,5,-3,0,0,3,0,0,-3,-1
Lorient v Lyon,0,0.3999999999999986,3,0,-64,-3,-55,-54,-4,-8,-36,-15,1,-1,-3,3,0,0,0,10,1,0,-1,0,-11,-49,-38,0,0,0,-2,3,6,5,1
Lorient v Marseille,1,-1.6999999999999993,-4,-3,2,-7,7,-9,8,-9,20,-12,0,0,1,-1,-2,-1,0,0,0,0,1,0,-2,0,2,1,0,0,-1,-2,2,-1,-1
Lorient v Monaco,0,1.6999999999999993,10,6,13,-5,9,15,3,56,23,-62,4,-4,10,-10,8,5,1,9,2,0,-1,0,114,29,-85,-3,-1,-1,-2,2,6,4,0
Lorient v Montpellier,1,0.6000000000000014,-3,-3,58,-7,52,42,24,36,35,-7,1,-1,7,-7,0,2,0,4,1,0,0,0,60,52,-8,-2,-2,0,3,0,-3,-3,0
Lorient v Nancy,1,-1.1999999999999957,-6,-4,42,-2,42,24,22,-6,8,42,0,0,4,-4,-2,0,0,0,1,0,1,0,-36,33,69,-8,0,0,-7,-3,2,4,0
Lorient v Nice,2,-0.8000000000000007,0,-2,61,0,53,36,30,27,24,15,-1,1,2,-2,-1,-2,-1,2,2,0,-1,0,41,48,7,-3,-1,0,-1,-3,-1,-2,0
Lorient v PSG,1,-1.5,-8,-4,40,7,25,13,13,-20,58,-13,-2,2,10,-10,-4,-4,0,-17,-1,0,-1,0,-17,20,37,-7,-1,0,-4,-2,3,2,1
Lorient v Rennes,0,1.8999999999999986,1,0,13,-15,3,26,5,19,2,9,-1,1,6,-6,0,1,0,2,0,0,-3,0,-2,-4,-2,-7,0,0,1,-1,-3,-2,0
Lorient v Saint-Etienne,1,-0.6999999999999993,3,0,257,8,259,131,138,110,165,-5,3,-3,6,-6,4,1,0,9,5,0,-3,0,248,262,14,3,0,0,-2,-1,5,1,0
Lorient v Sochaux,1,2.1000000000000014,-2,-2,79,-6,87,58,22,-13,74,18,-2,2,6,-6,-1,0,0,-3,-1,0,1,0,25,94,69,4,0,0,-7,-6,1,1,0
Lorient v Toulouse,1,2.0,0,1,162,7,160,102,66,6,117,45,-1,1,5,-5,-1,1,0,1,-1,0,-1,0,48,171,123,-4,-1,0,3,4,-6,1,0
Lorient v Valenciennes,0,0.20000000000000284,4,0,-28,-6,-14,-7,-18,5,2,-32,0,0,4,-4,5,3,1,-2,2,0,-6,0,29,-18,-47,-3,-3,0,-8,-5,6,3,1
Lyon v Arles-Avignon,0,-1.4000000000000021,1,0,177,2,177,112,76,45,109,35,1,-1,3,-3,0,2,2,11,2,0,0,0,66,170,104,-11,0,0,-10,-7,2,3,2
Lyon v Auxerre,1,-1.0,7,2,174,4,171,121,58,85,102,-7,1,-1,3,-3,0,0,0,6,1,0,-1,0,177,164,-13,0,-1,0,-5,-5,5,0,-1
Lyon v Bordeaux,1,0.09999999999999787,2,2,36,2,30,37,13,23,24,3,6,-6,0,0,2,3,0,8,3,0,3,0,19,34,15,-4,0,0,-1,-1,-4,0,0
Lyon v Brest,0,-3.3999999999999986,4,5,10,18,11,1,13,32,4,-21,-2,2,-1,1,2,3,0,3,3,0,-1,0,22,5,-17,-3,0,0,-1,-1,-1,0,1
Lyon v Caen,1,0.10000000000000142,12,4,55,-7,54,57,8,4,56,6,2,-2,4,-4,6,4,0,7,2,0,0,0,27,63,36,-5,-1,0,-1,1,1,2,0
Lyon v Lens,0,-2.1000000000000014,1,-2,124,2,118,76,56,58,64,11,2,-2,2,-2,1,1,0,13,7,0,0,0,113,135,22,-4,-1,0,-4,-2,1,2,0
Lyon v Lille,0,-1.7000000000000028,0,-1,-14,-1,-19,9,-22,-5,10,-18,-1,1,-5,5,-3,-1,0,0,0,0,-1,0,8,-7,-15,0,-1,0,-1,0,-2,1,2
Lyon v Lorient,0,-1.2000000000000028,6,5,102,4,90,67,43,39,38,34,3,-3,-2,2,3,1,0,9,-1,0,1,0,75,100,25,-3,0,0,6,8,-2,2,1
Lyon v Marseille,0,-2.6999999999999993,2,-1,61,8,58,23,26,-3,20,31,-2,2,2,-2,0,1,0,-5,-1,0,1,0,-19,72,91,2,-1,0,9,5,-6,-4,1
Lyon v Monaco,1,-0.9000000000000021,1,-1,79,11,81,42,32,6,51,18,-1,1,6,-6,1,0,0,-1,-4,0,-3,0,33,90,57,0,-1,0,-4,0,2,4,0
Lyon v Montpellier,0,-1.0999999999999979,-1,0,41,-4,26,44,0,12,14,14,1,-1,4,-4,-2,-5,-1,3,-2,0,-1,0,-5,27,32,0,-1,0,10,6,-8,-4,0
Lyon v Nancy,0,-1.4000000000000021,7,3,79,-7,87,44,48,55,25,9,2,-2,-2,2,7,7,1,10,5,0,1,0,69,85,16,0,-2,0,3,1,-5,-2,1
Lyon v Nice,0,-2.0,11,6,40,-11,47,42,9,36,2,11,4,-4,2,-2,8,3,1,13,1,0,0,0,34,40,6,3,-1,0,9,9,-6,0,1
Lyon v PSG,1,-4.400000000000002,8,5,114,8,107,61,63,26,89,8,3,-3,-4,4,7,4,0,9,5,0,1,0,87,113,26,-1,0,0,3,3,-1,0,0
Lyon v Rennes,1,0.1999999999999993,9,4,66,2,56,39,32,42,-5,34,1,-1,2,-2,5,2,0,4,1,0,-2,0,40,58,18,9,1,0,-4,-5,-1,-1,1
Lyon v Saint-Etienne,2,-2.0000000000000036,6,1,-21,-8,-22,13,-17,47,-13,-40,1,-1,2,-2,6,5,0,8,4,0,-1,0,50,-31,-81,-6,0,0,-1,0,-3,1,0
Lyon v Sochaux,0,0.9000000000000021,4,2,45,-8,39,49,14,21,43,-8,0,0,4,-4,4,1,0,3,-2,0,1,0,54,34,-20,-1,0,0,-2,-2,4,0,1
Lyon v Toulouse,0,1.5999999999999979,1,-2,62,-3,55,35,28,-12,53,24,1,-1,2,-2,-1,1,1,0,0,0,1,0,-16,67,83,-4,-1,0,-1,-2,-2,-1,2
Lyon v Valenciennes,1,-2.200000000000003,-3,-4,142,12,130,90,58,48,71,29,4,-4,5,-5,-2,-1,1,7,-2,0,1,0,103,159,56,3,0,0,-10,-4,5,6,1
Marseille v Arles-Avignon,0,0.19999999999999574,0,-1,118,11,122,71,52,10,68,43,-1,1,8,-8,1,0,0,4,4,0,-1,0,48,117,69,0,0,0,-12,-11,13,1,0
Marseille v Auxerre,1,2.900000000000002,7,3,143,0,148,97,56,42,109,5,1,-1,0,0,5,5,0,8,4,0,-3,0,124,144,20,-1,-1,0,-3,-3,4,0,0
Marseille v Bordeaux,0,1.2000000000000028,2,1,34,2,22,11,18,-1,25,6,2,-2,0,0,3,3,2,-4,1,0,1,0,14,35,21,4,-1,0,-3,-1,6,2,2
Marseille v Brest,0,0.20000000000000284,4,-1,144,8,134,85,80,41,124,-3,1,-1,7,-7,6,5,1,8,3,0,-1,0,100,145,45,-2,0,0,-2,-2,-4,0,1
Marseille v Caen,2,0.9000000000000021,-2,-1,199,-1,203,150,61,33,154,25,0,0,3,-3,-2,-1,0,3,-1,0,0,0,103,196,93,-7,-1,0,-9,-10,2,-1,0
Marseille v Lens,1,1.1999999999999957,4,-1,15,-1,1,28,-23,-4,3,6,0,0,-3,3,5,2,1,-2,2,0,-1,0,-3,13,16,1,-1,0,8,6,-4,-2,1
Marseille v Lille,2,1.1000000000000014,1,4,30,-5,13,42,-5,12,32,-7,1,-1,4,-4,-1,-2,0,0,0,0,0,0,29,21,-8,0,0,0,0,-1,2,-1,-1
Marseille v Lorient,0,1.5999999999999979,4,2,-17,-4,-20,7,-18,8,-15,-4,1,-1,-1,1,0,0,0,3,2,0,0,0,10,-22,-32,0,0,0,6,5,2,-1,1
Marseille v Lyon,1,1.5000000000000036,2,3,17,3,13,11,15,1,12,13,1,-1,3,-3,0,-1,-1,3,2,0,2,0,19,5,-14,1,0,0,2,-1,-3,-3,-1
Marseille v Monaco,1,1.7000000000000028,7,4,21,4,19,36,0,28,11,-4,1,-1,5,-5,4,1,0,5,3,0,-2,0,60,22,-38,-1,-1,0,-2,0,5,2,0
Marseille v Montpellier,0,0.8999999999999986,1,0,127,10,128,75,45,25,85,4,-2,2,2,-2,1,0,1,-5,-2,0,-2,0,80,132,52,3,1,0,-12,-6,7,6,2
Marseille v Nancy,0,0.6999999999999957,5,2,36,-2,42,21,17,22,12,4,5,-5,0,0,2,2,0,8,2,0,1,0,31,39,8,1,-1,0,-1,-2,0,-1,1
Marseille v Nice,0,1.9000000000000021,1,1,38,-6,34,20,20,29,31,-19,1,-1,-2,2,-1,0,0,3,-2,0,-1,0,57,30,-27,-2,0,0,7,6,-5,-1,0
Marseille v PSG,0,-0.7999999999999972,2,0,-19,7,-1,-15,-4,2,-17,-2,0,0,-4,4,3,3,1,5,3,0,-3,0,26,7,-19,4,1,0,-16,-10,10,6,1
Marseille v Rennes,1,3.0000000000000036,2,0,1,4,-3,-1,7,3,-3,5,0,0,-1,1,4,2,0,1,5,0,0,0,-1,-8,-7,2,2,0,8,7,-5,-1,0
Marseille v Saint-Etienne,0,1.6000000000000014,9,10,26,-2,31,34,12,53,0,-7,3,-3,-1,1,4,2,0,11,1,0,0,0,85,6,-79,-4,-2,0,-4,-3,4,1,0
Marseille v Sochaux,0,3.3999999999999986,10,4,7,-13,5,18,2,26,-9,2,6,-6,-1,1,7,6,0,12,8,0,0,0,43,14,-29,6,0,0,2,-1,3,-3,1
Marseille v Toulouse,1,3.0000000000000036,1,3,84,13,87,42,47,17,50,26,2,-2,10,-10,-2,-2,-1,4,-1,0,0,0,44,97,53,3,-1,0,-5,-3,1,2,0
Marseille v Valenciennes,1,1.0,3,3,44,-7,41,16,7,-20,33,12,-2,2,1,-1,1,0,1,-17,-1,0,0,0,16,50,34,-1,0,0,-9,-4,7,5,1
Monaco v Arles-Avignon,1,-1.8999999999999986,1,0,74,1,74,37,46,56,19,9,1,-1,4,-4,1,3,0,7,-2,0,2,0,81,71,-10,-3,0,0,-3,-4,1,-1,0
Monaco v Auxerre,0,-1.9000000000000021,3,4,26,-4,33,37,8,48,-1,-2,6,-6,-1,1,1,2,0,15,0,0,1,0,84,32,-52,6,0,0,-4,-3,2,1,0
Monaco v Bordeaux,1,0.5,1,-3,-4,-4,-7,0,-1,13,-18,5,-1,1,-3,3,-1,0,0,-1,3,0,1,0,3,-9,-12,6,3,0,4,5,-2,1,1
Monaco v Brest,2,-0.3999999999999986,-3,2,84,11,85,51,30,18,29,36,1,-1,-5,5,-1,0,0,3,1,0,1,0,28,57,29,-2,-1,0,1,0,-3,-1,0
Monaco v Caen,1,1.0000000000000036,3,1,78,3,89,57,49,68,40,-1,2,-2,9,-9,2,2,0,20,2,0,3,0,94,97,3,-1,-2,0,-6,-4,14,2,1
Monaco v Lens,1,0.3000000000000007,1,-1,-139,-17,-141,-78,-53,-5,-78,-45,-1,1,-2,2,1,1,1,4,1,0,-4,0,-70,-154,-84,4,1,0,10,9,-1,-1,1
Monaco v Lille,0,-0.7999999999999972,-3,-1,-216,-7,-205,-133,-91,-42,-145,-37,-1,1,-3,3,-2,-2,0,-5,-2,0,-1,0,-97,-203,-106,-2,3,-1,1,1,-3,0,1
Monaco v Lorient,0,0.8000000000000007,5,3,-13,5,-2,-11,6,49,-43,-9,1,-1,4,-4,4,1,-1,4,3,0,1,0,39,-5,-44,3,-1,0,-7,-3,9,4,0
Monaco v Lyon,2,0.5,-1,2,-142,-1,-126,-77,-68,0,-121,-23,-2,2,5,-5,-2,-2,0,4,0,0,0,0,-32,-132,-100,3,-1,0,-3,-5,0,-2,0
Monaco v Marseille,1,-1.0,4,0,-16,-9,-12,-8,-20,-1,-35,9,-3,3,4,-4,5,0,0,-8,-1,0,1,0,5,-19,-24,1,-1,0,0,-5,-4,-5,0
Monaco v Montpellier,1,-1.0999999999999979,-6,-3,19,-6,15,11,6,19,-2,1,0,0,0,0,-5,-4,0,-1,-1,0,-1,0,19,16,-3,0,-1,0,1,2,0,1,0
Monaco v Nancy,2,0.7999999999999972,-2,0,53,-3,56,46,15,33,20,4,-1,1,3,-3,-5,-3,-1,7,1,0,-1,0,55,56,1,2,-2,0,-2,-3,-6,-1,-1
Monaco v Nice,1,-1.6999999999999993,3,0,8,-22,5,17,-9,8,-1,0,3,-3,-12,12,1,0,0,4,2,0,-1,0,22,24,2,6,-1,-1,-1,1,5,2,0
Monaco v PSG,1,-2.700000000000003,-1,-1,-121,10,-115,-91,-40,-62,-47,-24,-5,5,1,-1,-3,-4,1,-13,-4,0,-1,0,-86,-111,-25,2,0,0,0,0,2,0,1
Monaco v Rennes,0,1.0999999999999979,1,0,23,-13,33,23,23,57,-27,17,2,-2,3,-3,0,0,0,15,2,0,1,0,48,32,-16,0,1,0,-7,-8,-2,-1,0
Monaco v Saint-Etienne,2,0.09999999999999787,2,2,38,-2,41,38,22,32,21,7,-2,2,1,-1,1,4,-1,7,1,0,3,0,48,37,-11,0,-1,0,1,3,1,2,-1
Monaco v Sochaux,0,1.1999999999999993,-1,-3,-54,-8,-65,-30,-35,-28,-41,3,-1,1,-2,2,0,0,1,-7,-2,0,1,0,-56,-62,-6,5,0,0,-2,-3,-4,-1,1
Monaco v Toulouse,1,0.0,4,1,12,5,20,25,3,39,-28,16,2,-2,5,-5,4,2,0,11,2,0,0,0,32,15,-17,5,0,0,-6,-2,4,4,0
Monaco v Valenciennes,2,-0.6000000000000014,-1,1,46,-1,50,42,27,48,4,16,2,-2,3,-3,-1,0,-1,12,2,0,-1,0,46,52,6,9,-1,0,-5,-2,8,3,-1
Montpellier v Arles-Avignon,0,-1.1000000000000014,3,-2,26,0,37,17,13,25,-2,6,1,-1,-2,2,0,-4,1,6,-2,0,1,0,2,30,28,-3,0,0,0,2,-4,2,1
Montpellier v Auxerre,1,1.2000000000000028,2,1,47,-10,57,33,10,-10,24,31,0,0,4,-4,2,2,0,0,0,0,1,0,-2,45,47,8,0,0,0,-1,-1,-1,0
Montpellier v Bordeaux,0,1.7999999999999972,2,1,-26,-1,-29,-20,2,5,-21,-2,5,-5,-1,1,3,2,0,4,4,0,3,0,9,-19,-28,-7,1,0,-1,0,3,1,0
Montpellier v Brest,1,-0.8999999999999986,-5,-2,107,1,109,55,50,26,57,22,-1,1,-6,6,-2,0,0,1,0,0,1,0,55,108,53,-3,0,0,3,-2,-4,-5,0
Montpellier v Caen,1,1.8999999999999986,9,5,40,-11,58,35,18,31,23,0,1,-1,3,-3,7,7,0,9,5,0,1,0,62,44,-18,-8,0,0,0,0,-2,0,0
Montpellier v Lens,2,-0.10000000000000142,-7,-2,37,5,22,13,8,-10,32,1,3,-3,-8,8,-4,-2,-1,-5,-1,0,-1,0,-6,30,36,-3,0,0,-13,-9,3,4,-1
Montpellier v Lille,0,-0.5,5,2,-50,4,-52,-33,-6,19,-36,-21,1,-1,7,-7,0,-2,0,6,1,0,2,0,3,-40,-43,5,0,0,-9,-7,8,2,0
Montpellier v Lorient,0,1.1000000000000014,3,1,43,3,35,20,24,14,32,-2,1,-1,-6,6,4,-2,-1,5,1,0,2,0,30,42,12,-2,0,0,8,9,-2,1,0
Montpellier v Lyon,2,1.6000000000000014,0,0,-2,2,2,-6,16,31,-32,13,3,-3,4,-4,-2,-1,-1,6,1,0,3,0,28,2,-26,-6,-1,0,-9,-6,7,3,-1
Montpellier v Marseille,2,-1.1000000000000014,2,0,12,-4,10,-6,17,0,12,-2,2,-2,-3,3,4,3,0,-4,-1,0,-1,0,-16,17,33,-2,0,0,7,5,-5,-2,0
Montpellier v Monaco,2,0.9999999999999964,5,3,63,9,69,32,26,26,28,4,-1,1,-9,9,5,3,0,-2,0,0,-1,0,43,62,19,0,2,0,-2,-5,-11,-3,0
Montpellier v Nancy,2,-0.8000000000000043,-3,-1,13,-20,24,16,13,9,20,-2,3,-3,2,-2,-3,-3,-1,10,-3,0,2,0,21,11,-10,-5,1,0,-4,-2,-1,2,-2
Montpellier v Nice,1,0.20000000000000284,-1,-2,51,-5,57,37,19,30,42,-16,-3,3,-6,6,-1,-4,0,0,-2,0,-3,0,76,37,-39,-8,1,0,5,3,-3,-2,1
Montpellier v PSG,1,-2.1000000000000014,1,2,78,6,74,8,55,4,34,25,-3,3,-2,2,3,1,0,-9,-1,0,-1,0,44,86,42,2,-1,0,1,2,1,1,0
Montpellier v Rennes,2,2.1999999999999993,1,1,50,-4,51,32,30,26,13,24,1,-1,6,-6,1,0,0,5,1,0,2,0,54,52,-2,0,-1,0,-7,-3,10,4,-1
Montpellier v Saint-Etienne,2,-2.099999999999998,4,2,19,-10,24,32,-13,16,0,4,0,0,3,-3,1,-1,-2,1,2,0,0,0,34,11,-23,-2,1,0,-8,-8,4,0,-2
Montpellier v Sochaux,0,2.900000000000002,6,2,-28,0,-31,-22,-6,-2,2,-29,2,-2,2,-2,2,2,1,7,6,0,-1,0,19,-16,-35,1,-2,0,9,5,-9,-4,2
Montpellier v Toulouse,0,2.3000000000000007,0,-1,-31,-1,-22,-23,-15,-45,8,3,-3,3,4,-4,-1,-2,1,-3,-2,0,0,0,-60,-19,41,0,1,0,6,6,-7,0,1
Montpellier v Valenciennes,0,0.0,2,2,2,-19,12,14,-9,6,18,-18,-2,2,6,-6,3,3,0,3,1,0,-1,0,21,6,-15,-2,0,0,-5,-4,5,1,0
Nancy v Arles-Avignon,1,0.8999999999999986,3,3,51,-5,65,40,17,14,44,-2,-2,2,-2,2,0,0,0,3,-1,0,-2,0,33,51,18,-5,1,-1,-2,0,5,2,0
Nancy v Auxerre,0,1.1000000000000014,0,-2,40,-10,45,19,27,8,33,5,-1,1,2,-2,0,0,2,7,1,0,2,0,76,62,-14,0,0,0,6,7,4,1,2
Nancy v Bordeaux,1,0.9999999999999964,1,3,4,3,-7,-9,4,-7,-28,31,-2,2,1,-1,4,6,0,-6,2,0,2,0,1,-4,-5,3,-1,0,1,3,1,2,0
Nancy v Brest,2,-0.5,5,1,21,25,30,-7,20,4,14,-5,2,-2,1,-1,4,4,0,-1,2,0,-2,0,29,38,9,3,0,0,-4,-1,7,3,0
Nancy v Caen,0,1.8000000000000043,1,1,-5,-2,0,-12,7,16,-16,2,0,0,3,-3,1,1,1,2,1,0,-1,0,52,20,-32,0,0,0,-8,-4,9,4,1
Nancy v Lens,0,4.0,7,4,102,-10,103,79,41,80,74,-34,1,-1,-1,1,5,2,0,15,2,0,-2,0,164,109,-55,4,-1,0,3,2,2,-1,0
Nancy v Lille,2,0.5,-2,0,-192,-20,-192,-102,-87,12,-109,-91,0,0,-4,4,-3,-3,0,-1,-2,0,0,0,6,-186,-192,0,0,0,-5,-3,10,2,-1
Nancy v Lorient,0,1.6000000000000014,1,-2,-32,12,-42,-18,-15,-9,-24,-3,0,0,4,-4,1,3,0,-3,2,0,0,0,-14,-32,-18,3,0,0,8,3,-10,-5,1
Nancy v Lyon,2,2.400000000000002,1,0,-113,-8,-115,-73,-41,-11,-70,-31,2,-2,0,0,0,1,-1,-3,0,0,-2,0,-33,-117,-84,9,-1,0,5,0,-1,-5,-1
Nancy v Marseille,2,-1.6000000000000014,-8,-6,-19,12,-17,-17,-20,-21,-15,0,-2,2,3,-3,-4,-5,-1,-3,-1,0,0,0,-15,-9,6,5,0,0,5,5,1,0,0
Nancy v Monaco,2,2.0000000000000036,2,1,52,-6,55,33,20,-2,50,3,0,0,2,-2,4,1,0,0,1,0,0,0,37,54,17,-4,-1,0,-3,-3,0,0,0
Nancy v Montpellier,2,0.8999999999999986,4,5,26,-1,28,27,-5,1,7,14,-2,2,2,-2,3,0,0,-9,-2,0,-1,0,9,22,13,-1,-1,0,-4,-3,4,1,0
Nancy v Nice,0,0.40000000000000213,5,6,56,-6,51,27,26,37,33,-16,1,-1,2,-2,5,1,0,2,1,0,-1,0,78,64,-14,0,0,0,4,7,8,3,1
Nancy v PSG,0,-1.6999999999999957,4,2,69,7,67,45,28,4,60,10,3,-3,3,-3,5,5,0,4,2,0,0,0,60,75,15,-5,0,-1,-7,-3,9,4,0
Nancy v Rennes,2,1.4000000000000021,-2,-1,-136,-4,-136,-75,-52,-25,-95,-6,2,-2,2,-2,-2,0,0,3,0,0,-1,0,-107,-144,-37,0,0,1,-7,-8,1,-1,0
Nancy v Saint-Etienne,1,2.1999999999999957,-1,2,0,0,-8,7,-11,21,20,-46,2,-2,-1,1,0,-3,0,0,1,0,-1,0,63,2,-61,-1,-1,0,0,4,6,4,0
Nancy v Sochaux,0,2.6999999999999957,-3,-5,28,4,28,5,-2,-25,24,4,-3,3,4,-4,-3,-2,0,-11,-2,0,-1,0,9,36,27,0,0,0,8,6,2,-2,0
Nancy v Toulouse,2,2.099999999999998,2,-1,-3,9,-6,3,-2,9,-31,17,2,-2,-1,1,0,-1,0,1,3,0,2,0,-14,7,21,6,1,0,6,1,-8,-5,0
Nancy v Valenciennes,0,1.9999999999999964,6,5,24,-7,38,18,2,17,22,-19,4,-4,0,0,5,4,1,7,2,0,1,0,93,57,-36,6,0,0,0,4,12,4,1
Nice v Arles-Avignon,0,-0.5999999999999943,3,3,27,6,36,21,7,3,3,22,2,-2,3,-3,3,4,1,7,3,0,0,0,5,32,27,-1,1,0,-3,-5,6,-2,0
Nice v Auxerre,0,0.5999999999999943,5,0,5,3,26,15,15,50,-27,7,-1,1,2,-2,4,2,0,19,3,0,2,0,52,18,-34,-3,-1,0,-9,-3,8,6,0
Nice v Bordeaux,0,0.3999999999999986,8,4,-19,6,-11,-10,16,33,-29,1,4,-4,4,-4,5,6,1,11,4,0,1,0,37,-5,-42,-1,0,0,1,5,7,4,1
Nice v Brest,1,0.7999999999999972,0,-1,11,8,17,3,14,25,12,-22,1,-1,1,-1,0,0,1,8,-4,0,1,0,40,5,-35,0,-1,0,3,4,2,1,0
Nice v Caen,2,0.8000000000000007,0,0,56,-15,60,46,12,5,40,15,-2,2,4,-4,2,4,0,1,3,0,0,0,-5,70,75,-1,0,1,1,1,1,0,-2
Nice v Lens,1,-0.29999999999999716,8,5,-28,-1,-22,-22,-10,3,-38,2,1,-1,-1,1,3,1,0,-6,0,0,1,0,-10,-26,-16,-3,-1,0,-3,1,8,4,0
Nice v Lille,2,0.30000000000000426,-14,-10,-154,-2,-168,-89,-84,-84,-88,-1,-7,7,2,-2,-9,-4,-1,-15,-2,0,0,0,-191,-174,17,-6,1,0,9,3,-19,-6,-1
Nice v Lorient,0,1.7000000000000028,-3,-3,-196,6,-200,-117,-98,-58,-135,-23,-4,4,4,-4,-3,1,2,-7,-1,0,-1,0,-147,-181,-34,8,-2,0,3,6,3,3,2
Nice v Lyon,1,2.3000000000000007,-1,-1,-29,5,-26,-24,-10,-23,-36,25,1,-1,-3,3,0,0,-1,2,2,0,3,0,-47,-17,30,0,3,0,10,12,1,2,-2
Nice v Marseille,0,-0.20000000000000284,-4,-6,-84,5,-84,-53,-48,-35,-69,1,-3,3,5,-5,-4,-1,0,-12,0,0,0,0,-84,-71,13,4,-1,0,1,-2,-7,-3,0
Nice v Monaco,0,0.6000000000000014,14,8,43,-2,55,29,21,31,-8,29,2,-2,6,-6,11,6,0,10,5,0,0,0,49,55,6,3,-1,0,-1,1,3,2,0
Nice v Montpellier,2,0.8999999999999986,-4,-4,15,15,18,13,8,25,-1,-2,0,0,-1,1,-3,-2,0,7,2,0,-1,0,40,12,-28,-8,0,0,-1,1,3,2,0
Nice v Nancy,1,-1.8999999999999986,1,-3,125,5,137,69,55,8,87,30,-1,1,-3,3,2,1,1,5,2,0,1,0,37,122,85,-1,1,0,-9,-7,1,2,1
Nice v PSG,2,-1.0,0,0,59,-1,67,27,29,33,20,1,-2,2,4,-4,1,-1,-1,0,-1,0,2,0,65,49,-16,-2,1,0,5,6,-2,1,-2
Nice v Rennes,2,1.6000000000000014,0,0,-39,-1,-33,-25,-11,-2,-44,9,0,0,4,-4,1,1,1,-1,-1,0,-1,0,-14,-48,-34,-5,0,0,-7,-8,5,-1,0
Nice v Saint-Etienne,0,0.5,1,3,39,-2,42,35,29,53,26,-17,4,-4,3,-3,0,0,0,16,4,0,1,0,61,34,-27,-2,-1,-1,-5,-4,0,1,-1
Nice v Sochaux,0,3.299999999999997,0,2,-45,-1,-38,-20,-16,7,-32,-10,1,-1,7,-7,1,2,1,2,-1,0,1,0,-8,-61,-53,1,0,0,-3,-5,2,-2,1
Nice v Toulouse,0,2.0,0,-2,-125,5,-127,-58,-60,-11,-108,-2,1,-1,8,-8,0,2,0,-1,1,0,0,0,-75,-127,-52,-8,-2,0,2,2,-7,0,1
Nice v Valenciennes,1,-1.4000000000000057,-1,2,42,-4,65,15,29,-17,42,16,-1,1,0,0,-3,-3,0,-4,-3,0,1,0,24,59,35,5,0,0,-15,-12,16,3,0
PSG v Arles-Avignon,0,1.6999999999999957,9,5,87,20,87,55,48,43,28,36,8,-8,4,-4,6,6,2,15,4,0,2,0,51,88,37,-8,0,0,-2,2,6,5,2
PSG v Auxerre,2,2.700000000000003,-3,0,104,-6,97,75,29,35,51,18,-1,1,-4,4,-2,0,-2,7,1,0,1,0,62,84,22,-1,1,0,6,3,-6,-3,-2
PSG v Bordeaux,2,2.6999999999999993,5,1,-29,-16,-17,1,-16,-8,-47,41,5,-5,5,-5,3,7,0,8,4,0,2,0,-41,-19,22,-7,-1,0,1,-1,-1,-2,0
PSG v Brest,0,2.299999999999997,-2,0,39,8,29,44,11,25,24,6,1,-1,-6,6,-2,0,0,8,3,0,1,0,23,15,-8,-9,0,0,-7,-5,2,2,1
PSG v Caen,0,3.8000000000000007,-5,0,83,-5,78,58,21,14,32,38,-1,1,-1,1,-3,-2,1,0,-6,0,0,0,24,71,47,0,1,0,1,-2,2,-2,1
PSG v Lens,1,2.1000000000000014,5,2,108,-16,98,70,38,41,41,26,0,0,5,-5,0,-1,0,2,-2,0,1,0,43,90,47,-4,1,0,9,4,-5,-5,0
PSG v Lille,1,2.1000000000000014,6,3,-28,-12,-18,0,-20,-1,-22,6,2,-2,-4,4,6,8,1,11,6,0,-2,0,-12,-26,-14,6,0,0,-2,-4,0,-2,0
PSG v Lorient,1,1.5,-2,-1,18,-8,16,20,-2,18,-24,24,-1,1,-3,3,-1,-1,0,3,3,0,0,0,-2,30,32,-1,0,0,4,3,-5,-1,0
PSG v Lyon,0,3.0,6,3,20,-18,23,27,-8,4,3,11,2,-2,3,-3,6,6,0,0,6,0,2,0,12,32,20,5,1,0,2,2,-1,0,0
PSG v Marseille,0,2.1000000000000014,-1,-2,-74,-6,-59,-39,-26,0,-70,6,1,-1,-4,4,0,2,1,1,1,0,2,0,-41,-74,-33,2,2,0,-2,-1,0,1,1
PSG v Monaco,1,3.200000000000003,2,3,10,-1,25,1,19,15,-1,7,3,-3,-3,3,0,0,-1,3,-2,0,0,0,-4,11,15,-3,-2,0,-5,-6,3,-1,0
PSG v Montpellier,1,2.0,2,-2,-18,2,-17,-20,-3,-20,-28,26,2,-2,1,-1,2,3,1,-2,0,0,1,0,-59,-8,51,5,-2,0,4,3,-2,-1,0
PSG v Nancy,1,1.1999999999999957,-8,-4,-37,1,-44,-6,-39,-22,-18,-7,-7,7,2,-2,-5,-3,2,-8,-2,0,0,0,-63,-52,11,-2,1,1,-1,-1,-3,0,1
PSG v Nice,1,3.700000000000003,6,3,60,0,75,55,23,39,48,-9,3,-3,-1,1,4,1,0,11,1,0,3,0,67,59,-8,-1,-1,0,3,0,-6,-3,0
PSG v Rennes,1,4.199999999999996,-3,0,-1,-3,-13,6,-3,-6,-25,33,3,-3,-6,6,-3,0,0,3,-2,0,0,0,-33,-11,22,0,0,0,-4,-4,0,0,0
PSG v Saint-Etienne,0,2.0999999999999943,0,2,-66,-15,-62,-22,-49,-24,-31,-16,1,-1,1,-1,3,2,0,-3,-2,0,1,0,-41,-56,-15,5,-1,0,-1,-1,3,0,-1
PSG v Sochaux,0,4.099999999999998,3,0,36,-7,29,40,7,29,10,9,3,-3,6,-6,2,2,1,13,-1,0,3,0,29,41,12,4,-2,0,7,5,-2,-2,1
PSG v Toulouse,0,3.799999999999997,4,3,-122,-3,-122,-51,-53,-44,-69,6,2,-2,0,0,5,4,0,6,3,0,0,0,-98,-109,-11,4,0,0,1,4,-3,3,0
PSG v Valenciennes,0,0.29999999999999716,0,-3,3,-12,6,13,-11,-14,29,-14,1,-1,2,-2,-1,-2,0,-1,2,0,1,0,-3,6,9,-3,0,0,2,-1,2,-3,1
Rennes v Arles-Avignon,0,-3.700000000000003,1,0,85,8,90,47,52,44,62,-6,1,-1,4,-4,0,2,1,11,0,0,-1,0,96,103,7,-7,-1,0,-8,-3,5,5,2
Rennes v Auxerre,1,-2.1000000000000014,1,-1,216,10,215,127,86,56,143,14,-3,3,4,-4,3,2,0,3,1,0,-2,0,169,205,36,-1,0,0,0,1,1,1,0
Rennes v Bordeaux,1,-1.6000000000000014,-3,0,55,-15,47,33,30,4,55,3,1,-1,-1,1,-2,-1,0,2,-1,0,1,0,23,64,41,-7,-2,0,-3,1,8,4,0
Rennes v Brest,0,-2.3000000000000007,8,3,78,6,87,45,41,55,23,6,-1,1,1,-1,2,1,0,3,-1,0,0,0,84,85,1,-1,-2,0,-13,-2,19,11,1
Rennes v Caen,1,-0.5,10,6,141,-8,132,93,55,54,81,13,0,0,-1,1,7,3,0,2,0,0,-1,0,109,146,37,2,-1,0,-4,-3,6,1,1
Rennes v Lens,0,-2.0,6,3,114,0,106,70,48,20,87,9,0,0,-1,1,4,0,0,-4,-2,0,0,0,69,92,23,-12,0,0,0,-3,-4,-3,1
Rennes v Lille,1,-1.1999999999999993,1,1,-44,1,-48,-24,-18,13,-3,-52,2,-2,3,-3,0,0,1,0,0,0,-1,0,16,-50,-66,-9,1,0,-2,2,1,4,1
Rennes v Lorient,2,-0.6999999999999993,-1,-3,-51,10,-56,-18,-27,-17,-35,5,0,0,-2,2,-3,-2,0,2,2,0,-1,0,-53,-39,14,2,0,0,2,4,-1,2,1
Rennes v Lyon,1,-1.1000000000000014,1,0,-189,1,-180,-130,-74,-48,-112,-45,-1,1,-4,4,1,1,0,-12,-2,0,1,0,-77,-183,-106,-3,-1,0,0,4,2,4,1
Rennes v Marseille,2,-2.8000000000000043,4,3,19,1,25,19,0,3,4,13,2,-2,-4,4,0,-2,-1,5,1,0,1,0,22,22,0,-3,-1,0,-3,0,-2,3,-1
Rennes v Monaco,0,-1.1999999999999993,-1,-1,53,-3,57,15,32,10,34,0,1,-1,-1,1,-2,-1,0,-3,-2,0,1,0,40,68,28,-2,-1,0,-3,0,3,3,0
Rennes v Montpellier,2,-2.6000000000000014,-4,0,-4,4,-11,-9,0,19,10,-41,0,0,1,-1,-2,0,-1,-2,-1,0,-4,0,37,-16,-53,-5,-2,0,-3,0,0,3,-1
Rennes v Nancy,2,-2.8999999999999986,-4,0,22,-9,23,25,-6,-34,14,39,3,-3,-4,4,-3,-4,-1,1,-2,0,-1,0,-47,10,57,-4,0,0,-2,-2,-2,0,-1
Rennes v Nice,0,-3.799999999999997,2,0,47,-5,50,20,20,30,25,-16,0,0,2,-2,1,1,0,4,1,0,0,0,67,71,4,6,1,0,-2,-2,1,0,0
Rennes v PSG,0,-5.199999999999996,0,1,-35,-1,-23,-25,-14,1,2,-44,-1,1,5,-5,4,2,0,-1,-2,0,1,0,19,-30,-49,-8,-1,0,5,7,6,2,1
Rennes v Saint-Etienne,1,-1.2999999999999972,5,4,-56,-18,-47,-39,-14,35,-51,-35,2,-2,2,-2,2,2,0,3,1,0,1,0,28,-49,-77,0,-1,0,-10,-10,3,0,0
Rennes v Sochaux,0,-0.09999999999999787,-2,-2,66,7,74,17,43,5,50,2,3,-3,-5,5,-3,1,0,0,-2,0,-1,0,56,74,18,-2,1,0,8,10,0,2,0
Rennes v Toulouse,0,0.3000000000000007,0,2,-21,6,-9,-17,-23,-23,1,-19,-1,1,4,-4,-2,-2,1,-8,-4,0,-3,0,-22,-27,-5,-5,0,0,-11,-4,7,7,1
Rennes v Valenciennes,0,-1.5,-1,0,125,-4,119,62,73,45,74,17,1,-1,0,0,2,-1,0,5,0,0,-2,0,91,130,39,0,-1,0,3,2,3,-1,0
Saint-Etienne v Arles-Avignon,0,-1.4000000000000021,2,1,41,-4,43,31,15,-24,41,29,3,-3,-1,1,3,0,0,-3,0,0,5,0,0,37,37,-7,-2,0,9,6,-5,-3,0
Saint-Etienne v Auxerre,1,-0.3999999999999986,-2,-2,106,0,105,64,38,6,52,44,-1,1,-3,3,-2,2,-1,-9,0,0,-2,0,19,94,75,-2,0,0,-7,-6,4,1,-1
Saint-Etienne v Bordeaux,1,0.0,-1,0,-52,-18,-46,-22,-23,-15,-15,-18,2,-2,-1,1,-2,0,-1,2,1,0,3,0,-21,-40,-19,-3,0,0,-1,0,2,1,-1
Saint-Etienne v Brest,0,0.8000000000000007,1,2,57,9,58,43,25,16,35,17,1,-1,2,-2,0,1,0,15,3,0,-2,0,28,69,41,5,-2,0,4,2,-4,-2,1
Saint-Etienne v Caen,1,-0.8999999999999986,3,-2,66,6,52,25,23,-15,52,9,-4,4,1,-1,1,-2,-1,-9,-3,0,0,0,-15,60,75,-2,0,0,6,3,-1,-3,-1
Saint-Etienne v Lens,0,-0.7000000000000028,2,-1,50,8,40,26,17,-17,18,42,1,-1,-3,3,5,4,0,-6,4,0,1,0,-29,50,79,-2,1,0,6,1,-3,-5,1
Saint-Etienne v Lille,2,-0.9000000000000021,-2,-1,-81,11,-68,-40,-41,-30,-41,-9,3,-3,-3,3,-3,-2,-1,3,0,0,-2,0,-58,-67,-9,14,1,0,-6,-7,0,-1,0
Saint-Etienne v Lorient,2,-1.6000000000000014,-2,2,-23,9,-26,-13,-4,6,-35,12,1,-1,-5,5,-1,1,0,3,2,0,1,0,-32,-17,15,-1,1,0,3,1,-6,-2,-1
Saint-Etienne v Lyon,2,0.7999999999999972,8,2,-5,2,8,-1,4,22,-18,-4,3,-3,4,-4,6,3,1,6,4,0,-3,0,11,17,6,0,0,0,0,0,-2,0,1
Saint-Etienne v Marseille,1,-1.1000000000000014,4,4,-81,14,-89,-34,-28,-7,-47,-10,1,-1,1,-1,2,4,-1,11,4,0,2,0,-64,-99,-35,-3,0,0,6,2,-7,-4,-1
Saint-Etienne v Monaco,1,0.6999999999999957,5,3,86,14,94,66,36,35,37,30,3,-3,1,-1,4,1,0,13,1,0,-1,0,63,100,37,1,-1,0,-3,0,2,3,0
Saint-Etienne v Montpellier,0,-0.29999999999999716,2,1,70,20,80,32,48,13,28,37,2,-2,3,-3,2,2,1,7,4,0,1,0,-1,85,86,4,-1,0,-10,-6,4,4,2
Saint-Etienne v Nancy,0,-0.5,0,-1,-10,-2,-10,2,-8,-15,-35,43,0,0,1,-1,0,-1,-1,-3,-3,0,2,0,-49,-10,39,0,0,0,-2,-4,-5,-2,-1
Saint-Etienne v Nice,2,0.20000000000000284,0,-2,154,11,150,110,66,54,115,6,2,-2,-3,3,0,1,0,14,1,0,-3,0,114,156,42,-1,0,0,3,4,-4,1,0
Saint-Etienne v PSG,1,-2.1000000000000014,-2,-3,25,15,38,17,5,-22,12,32,-4,4,-5,5,-2,-4,0,-1,-5,0,-1,0,-15,26,41,3,0,0,-4,-4,3,0,0
Saint-Etienne v Rennes,2,1.6999999999999993,1,1,49,0,47,39,9,7,8,33,2,-2,1,-1,-3,0,-1,1,0,0,0,0,26,46,20,-5,0,0,-1,-1,-4,0,-1
Saint-Etienne v Sochaux,0,1.5999999999999979,-3,-3,-3,2,-8,6,-22,-49,32,1,-6,6,-7,7,2,0,0,-12,0,0,1,0,-53,8,61,6,0,0,3,1,-1,-2,-1
Saint-Etienne v Toulouse,0,1.8000000000000007,1,0,-43,8,-48,-17,-40,-44,-19,5,-5,5,-1,1,-2,-2,0,-11,-3,0,-1,0,-59,-28,31,5,0,0,4,8,2,4,2
Saint-Etienne v Valenciennes,1,0.0,2,0,-35,-17,-28,-6,-26,10,-29,-14,1,-1,1,-1,3,-2,0,2,0,0,-1,0,38,-29,-67,4,0,0,-10,-9,5,1,0
Sochaux v Arles-Avignon,0,-3.6000000000000014,0,2,20,2,34,14,17,58,-16,-11,3,-3,3,-3,-1,0,-1,15,0,0,1,0,66,14,-52,-13,-1,0,-4,0,0,4,0
Sochaux v Auxerre,1,-1.5,4,4,62,0,66,41,37,44,30,7,1,-1,-3,3,6,3,0,9,1,0,-3,0,79,67,-12,-3,1,0,0,2,2,2,-1
Sochaux v Bordeaux,1,-1.2000000000000028,2,-2,-110,-5,-96,-64,-44,2,-102,-9,-4,4,0,0,2,0,1,-4,-1,0,1,0,-56,-93,-37,3,0,0,3,1,-1,-2,0
Sochaux v Brest,0,-2.3000000000000007,1,1,37,9,46,20,18,38,4,-3,1,-1,5,-5,-1,-4,0,5,0,0,0,0,26,38,12,1,0,0,-2,-4,-5,-2,1
Sochaux v Caen,0,-0.6000000000000014,-1,0,53,4,54,27,16,-8,22,30,-1,1,4,-4,-2,-1,1,-8,0,0,0,0,-17,61,78,-4,-2,0,1,4,6,3,0
Sochaux v Lens,0,-3.200000000000003,3,2,61,1,55,38,27,39,11,16,1,-1,-4,4,1,1,0,5,2,0,0,0,45,58,13,-7,-2,0,0,4,4,4,2
Sochaux v Lille,1,-1.8000000000000007,-9,-5,-44,-1,-47,-38,-4,15,-44,-11,-1,1,3,-3,-7,-4,0,0,-4,0,0,0,-29,-61,-32,-4,-1,0,4,2,-2,-2,0
Sochaux v Lorient,0,-2.400000000000002,2,1,54,5,67,26,21,33,4,13,-2,2,0,0,4,2,1,-1,2,0,2,0,32,76,44,2,0,0,-5,-1,1,4,1
Sochaux v Lyon,2,-1.1999999999999993,-5,-2,25,10,26,23,2,17,23,-14,2,-2,2,-2,-3,-6,-1,2,0,0,-5,0,43,23,-20,8,1,0,-15,-10,10,5,-1
Sochaux v Marseille,2,-3.3999999999999986,-1,1,-3,3,13,-15,14,-12,4,5,-5,5,6,-6,-2,1,1,-1,0,0,0,0,-2,8,10,-10,0,0,-13,-8,6,5,0
Sochaux v Monaco,0,-1.1999999999999993,1,0,67,12,81,28,50,26,20,32,1,-1,-3,3,-1,1,1,5,2,0,-1,0,38,74,36,-7,0,0,-8,-8,2,0,2
Sochaux v Montpellier,1,-1.3000000000000007,-4,-2,-76,2,-76,-46,-34,-31,-31,-18,-5,5,3,-3,0,1,0,-12,0,0,-1,0,-56,-82,-26,-5,-2,1,-8,-4,1,4,0
Sochaux v Nancy,0,-3.6000000000000014,-7,-4,-26,3,-24,-11,-16,-38,-9,11,-3,3,-2,2,-8,-5,0,-8,1,0,-1,0,-72,-30,42,2,1,0,0,-5,-5,-5,1
Sochaux v Nice,0,-1.5,4,0,98,11,114,60,44,48,33,23,3,-3,2,-2,4,4,0,6,1,0,1,0,76,115,39,3,1,0,-9,-6,5,3,1
Sochaux v PSG,0,-4.0,-4,-6,-56,6,-45,-31,-18,-11,-45,4,-3,3,0,0,-4,-4,1,-2,3,0,0,0,-31,-30,1,1,1,0,-12,-8,2,4,3
Sochaux v Rennes,0,-1.5,-3,0,-39,10,-41,-27,-20,-5,-51,13,1,-1,-1,1,-2,-1,2,-2,1,0,1,0,-36,-63,-27,-2,0,0,2,3,3,1,2
Sochaux v Saint-Etienne,0,-0.1999999999999993,-4,-2,120,8,129,60,70,23,32,78,3,-3,0,0,-4,-1,1,12,1,0,-1,0,31,119,88,-1,0,0,-1,0,4,1,0
Sochaux v Toulouse,2,-0.10000000000000142,-5,-3,6,12,2,6,-6,24,-44,21,-3,3,0,0,-5,0,0,-5,0,0,1,0,-23,0,23,-14,-1,0,2,2,-9,0,0
Sochaux v Valenciennes,0,-1.6000000000000014,3,1,48,-5,53,18,33,27,12,13,1,-1,0,0,1,-2,0,1,-3,0,2,0,49,58,9,-2,-1,0,-14,-7,8,7,1
Toulouse v Arles-Avignon,0,-3.8999999999999986,-1,-2,157,9,159,90,81,65,107,5,3,-3,-2,2,-2,-2,0,12,0,0,0,0,121,159,38,4,-1,0,-19,-12,16,7,1
Toulouse v Auxerre,2,-0.6999999999999993,2,0,75,14,66,42,21,64,35,-32,2,-2,-3,3,2,2,0,1,2,0,-2,0,101,53,-48,4,0,0,-2,-3,2,-1,0
Toulouse v Bordeaux,0,-2.400000000000002,4,2,-76,-14,-75,-45,-28,2,-35,-40,3,-3,-2,2,0,0,0,5,3,0,-2,0,9,-76,-85,11,0,0,-1,0,5,1,1
Toulouse v Brest,0,-1.4000000000000021,-1,0,35,8,24,26,11,2,44,-10,0,0,1,-1,0,-2,0,-4,2,0,1,0,4,17,13,-2,1,0,-2,-1,2,1,1
Toulouse v Caen,0,-2.1999999999999993,0,-1,-34,-18,-39,-14,-23,-18,-29,10,0,0,2,-2,2,3,0,-2,2,0,-1,0,-46,-42,4,-8,0,0,-9,0,13,9,0
Toulouse v Lens,1,-2.400000000000002,-6,-1,11,3,-7,-1,1,-19,16,2,-2,2,-1,1,-4,-3,0,-10,-2,0,0,0,-18,7,25,5,0,0,1,1,0,0,0
Toulouse v Lille,1,-0.5,6,6,103,-8,96,71,36,13,88,6,1,-1,-3,3,5,4,0,6,5,0,0,0,64,96,32,-3,-1,0,1,-1,-3,-2,-1
Toulouse v Lorient,0,-3.0000000000000036,-2,-2,-121,0,-131,-83,-59,-57,-91,4,-4,4,-2,2,-5,-2,1,-12,-3,0,-1,0,-115,-125,-10,-6,0,0,14,12,-5,-2,1
Toulouse v Lyon,0,0.10000000000000142,2,-1,-117,-2,-102,-45,-45,25,-69,-44,3,-3,-2,2,1,1,1,12,3,0,-1,0,14,-117,-131,10,-2,0,-2,-1,5,1,1
Toulouse v Marseille,2,-2.599999999999998,-1,-1,-20,-2,-30,-24,3,10,-30,2,2,-2,-1,1,-1,-3,0,1,0,0,0,0,19,-32,-51,7,0,0,-7,-6,3,1,0
Toulouse v Monaco,0,-2.3000000000000007,2,3,74,-1,70,58,34,52,19,23,3,-3,-3,3,2,1,0,15,2,0,2,0,90,80,-10,3,-1,0,-2,1,5,3,0
Toulouse v Montpellier,2,-1.2000000000000028,2,1,41,-11,29,34,18,46,5,1,2,-2,1,-1,2,2,0,10,5,0,-1,0,47,39,-8,-2,-1,0,-7,-4,3,3,0
Toulouse v Nancy,0,-2.3999999999999986,-4,-2,68,-4,72,27,43,8,61,0,-2,2,0,0,-1,2,1,0,0,0,0,0,50,51,1,0,0,0,1,2,1,1,1
Toulouse v Nice,1,-1.7999999999999972,0,0,73,-8,79,63,27,35,52,6,-1,1,-7,7,-3,-2,1,8,-1,0,-4,0,66,68,2,-1,1,0,-3,-3,5,0,1
Toulouse v PSG,2,-4.900000000000002,-4,-2,23,-2,4,13,13,-6,12,19,0,0,-2,2,-1,-2,0,-4,-2,0,-3,0,-8,10,18,-3,1,0,-5,-4,6,1,-1
Toulouse v Rennes,2,-1.6000000000000014,2,-1,104,8,103,44,60,35,60,16,5,-5,-7,7,5,2,-1,-1,0,0,1,0,88,87,-1,-3,1,0,-10,-6,16,4,-1
Toulouse v Saint-Etienne,2,-1.1000000000000014,-1,0,-72,-19,-57,-31,-33,9,-26,-46,-2,2,2,-2,-4,-5,-1,6,0,0,0,0,21,-60,-81,8,-1,0,-1,-2,8,-1,-1
Toulouse v Sochaux,2,-0.1999999999999993,2,2,75,-3,79,54,26,14,51,18,1,-1,2,-2,1,1,0,3,0,0,1,0,41,61,20,-7,0,0,9,8,-1,-1,0
Toulouse v Valenciennes,1,-2.6000000000000014,-1,-2,-10,-7,-1,-6,8,15,17,-28,0,0,-4,4,-1,1,0,6,1,0,1,0,39,-15,-54,-2,1,0,-3,-5,-6,-2,0
Valenciennes v Arles-Avignon,0,-1.3000000000000043,2,5,26,5,22,14,13,25,-5,8,0,0,-4,4,2,1,1,6,0,0,-1,0,46,18,-28,-2,0,0,5,5,-1,0,1
Valenciennes v Auxerre,1,0.1999999999999993,2,-1,81,-1,74,64,26,51,22,16,0,0,6,-6,1,2,0,10,3,0,0,0,56,84,28,1,-1,0,5,5,2,0,0
Valenciennes v Bordeaux,1,-0.4000000000000057,-2,0,20,-1,31,5,12,-23,5,34,0,0,-5,5,-1,0,1,-1,0,0,1,0,-31,13,44,-5,1,0,-2,-1,0,1,1
Valenciennes v Brest,0,-0.6999999999999957,1,0,40,18,43,7,30,7,13,17,-3,3,4,-4,1,2,1,4,4,0,0,0,-4,50,54,-2,0,0,1,3,-2,2,2
Valenciennes v Caen,0,1.3000000000000007,5,0,37,1,30,13,17,-9,21,19,0,0,-5,5,6,2,1,3,4,0,4,0,21,50,29,8,0,0,6,8,-3,2,2
Valenciennes v Lens,1,0.0,-1,0,5,6,-7,5,-13,-14,6,0,-1,1,-7,7,-4,-1,0,-7,-2,0,0,0,-27,-11,16,-5,0,0,19,16,-11,-3,0
Valenciennes v Lille,1,0.5,-4,-3,-149,-9,-149,-90,-70,-45,-51,-64,-2,2,1,-1,-3,-1,0,-1,2,0,-1,0,-83,-153,-70,3,1,0,8,5,-8,-3,0
Valenciennes v Lorient,1,2.6000000000000014,-5,-3,54,13,47,39,19,0,34,20,-4,4,-4,4,-4,-3,0,-5,-3,0,3,0,-11,31,42,7,0,0,-2,-6,-6,-4,0
Valenciennes v Lyon,0,0.09999999999999787,-3,-1,17,12,8,0,10,-5,6,10,-1,1,-1,1,-2,-3,0,-8,-1,0,-2,0,3,5,2,5,0,0,2,1,-6,-1,0
Valenciennes v Marseille,0,1.2000000000000028,1,1,-67,-3,-69,-44,-17,3,-57,-7,-3,3,-9,9,-2,-4,0,1,-1,0,3,0,-36,-79,-43,-6,1,0,2,3,-4,1,0
Valenciennes v Monaco,1,-1.3000000000000007,4,2,-17,0,-7,-23,4,1,-22,1,2,-2,-1,1,5,6,0,4,2,0,0,0,21,-9,-30,1,-1,0,3,3,-9,0,0
Valenciennes v Montpellier,2,-0.5999999999999943,-4,-1,31,9,26,30,10,35,-11,17,2,-2,1,-1,-2,-2,-1,6,0,0,2,0,28,27,-1,5,1,0,3,7,-1,4,-1
Valenciennes v Nancy,1,-0.5,2,0,27,-2,23,29,17,29,1,13,2,-2,-3,3,1,0,1,14,3,0,0,0,-3,19,22,-6,-1,0,8,5,-9,-3,1
Valenciennes v Nice,0,2.0,1,1,97,16,89,65,55,48,51,22,5,-5,2,-2,0,1,0,19,5,0,0,0,69,80,11,-3,0,0,4,4,-5,0,0
Valenciennes v PSG,2,-3.299999999999997,-5,-4,79,8,60,55,25,9,55,17,-5,5,7,-7,-3,-1,0,1,-2,0,-1,0,27,46,19,-4,0,0,-1,0,-10,1,0
Valenciennes v Rennes,0,1.6999999999999993,4,0,14,12,8,6,21,36,-16,4,3,-3,-2,2,3,2,1,3,0,0,2,0,42,16,-26,2,1,0,0,2,-2,2,1
Valenciennes v Saint-Etienne,1,0.7000000000000028,4,4,91,17,88,47,42,25,52,11,2,-2,3,-3,5,3,0,2,2,0,-2,0,84,84,0,5,-1,0,-4,-3,-1,1,-1
Valenciennes v Sochaux,1,1.3999999999999986,4,-1,0,8,-10,4,5,6,-9,7,1,-1,-1,1,1,0,1,10,-1,0,0,0,14,-6,-20,-4,-1,0,-5,-5,0,0,2
Valenciennes v Toulouse,0,2.099999999999998,1,0,19,21,14,19,10,26,-11,11,-2,2,0,0,2,-1,0,3,3,0,0,0,4,1,-3,-4,0,0,-1,-1,-7,0,1
