_description,_OUTPUT,averageAgeDiff,shotTotalDiff,shotOnGoalDiff,passTotalDiff,passLongDiff,passSuccessDiff,passForwardDiff,passBackwardDiff,passTargetFinalThirdDiff,passTargetMiddleThirdDiff,passTargetDefensiveThirdDiff,cornerFavourDiff,cornerAgainstDiff,foulReceivedDiff,foulCommitedDiff,assistShotDiff,assistShotIntentionalDiff,assistShotIntentionalGoalDiff,crossFavourTotalDiff,crossFavourSuccessDiff,crossAgainstTotalDiff,offsideCommittedDiff,offsideReceivedDiff,possessionAttackDiff,possessionTotalDiff,possessionDefenceDiff,interceptionDiff,cardYellowDiff,cardRedDiff,tackleTotalDiff,tackleSuccessDiff,dribbleTotalDiff,dribbleSuccessDiff,goalDiff
Augsburg v Bayern,2,0.5,-9,-5,-211,0,-201,-94,-125,-67,-137,-16,0,0,0,0,-5,-3,-1,-1,1,0,1,0,-145,-200,-55,7,0,0,6,2,-9,-4,-1
Augsburg v Borussia Dortmund,2,2.0,-1,1,-366,3,-362,-182,-185,-51,-279,-37,0,0,-3,3,-2,-1,0,2,0,0,-2,0,-173,-367,-194,8,0,0,9,3,-7,-6,0
Augsburg v Mönchengladb.,1,2.400000000000002,4,2,-72,3,-73,-51,-16,0,-58,-12,-2,2,-3,3,3,2,0,-1,-1,0,0,0,-42,-64,-22,-1,0,0,-3,2,6,5,-1
Augsburg v Darmstadt,2,0.7999999999999972,-1,0,179,5,192,99,79,13,131,37,-1,1,-1,1,-2,-2,-1,2,-2,0,-1,0,93,173,80,-6,0,0,-10,-8,6,2,-2
Augsburg v Eintracht Frankfurt,1,2.0,3,4,3,7,6,-9,14,0,-18,24,2,-2,-9,9,2,3,0,2,0,0,-1,0,-18,-8,10,-7,1,0,6,3,0,-3,0
Augsburg v FC Cologne,1,2.5,-1,1,40,3,45,12,15,10,-11,26,-3,3,3,-3,1,1,0,-5,-2,0,0,0,-1,49,50,3,-1,0,2,3,0,1,0
Augsburg v Hamburg,2,2.400000000000002,0,-2,-48,6,-49,-23,-19,1,-66,23,0,0,5,-5,1,0,0,3,2,0,1,0,-34,-49,-15,-5,0,0,3,5,-6,2,0
Augsburg v Hannover,0,2.5,2,-1,25,9,29,6,15,-11,22,12,2,-2,4,-4,0,2,0,1,1,0,0,0,-1,33,34,4,-1,0,-5,-4,1,1,2
Augsburg v Hertha Berlin,2,2.8999999999999986,0,3,-3,-7,-13,11,-14,25,-9,-18,-1,1,-3,3,2,1,0,-2,1,0,1,0,14,-12,-26,3,0,0,2,2,-2,0,0
Augsburg v Hoffenheim,2,3.200000000000003,8,7,142,8,140,97,64,32,58,70,1,-1,-2,2,7,3,0,10,3,0,3,0,32,142,110,-3,0,0,-9,-5,3,4,0
Augsburg v Ingolstadt,2,2.6999999999999993,-4,-3,125,14,121,63,56,-35,76,78,-2,2,-2,2,-2,-2,0,-4,0,0,-1,0,-13,122,135,-3,1,0,3,6,5,3,0
Augsburg v Leverkusen,1,4.600000000000001,-3,-2,-17,0,-12,-11,-12,-58,13,20,-3,3,2,-2,-2,-2,0,-3,0,0,-2,0,-91,-6,85,0,1,0,6,6,-3,0,2
Augsburg v Mainz,1,3.8999999999999986,9,8,209,-2,206,117,102,67,99,55,5,-5,5,-5,4,2,-1,11,4,0,0,0,111,205,94,-6,-2,0,-6,-1,5,5,-1
Augsburg v Schalke,0,3.1000000000000014,0,0,-82,-11,-89,-37,-47,-1,-44,-40,-2,2,-4,4,0,0,0,-3,0,0,-1,0,-14,-97,-83,-2,1,0,17,12,-16,-5,1
Augsburg v Stuttgart,0,2.599999999999998,0,-2,87,12,96,37,45,3,43,36,-2,2,-3,3,0,0,0,-2,-1,0,-1,0,9,93,84,-1,0,0,-6,-5,11,1,1
Augsburg v Werder Bremen,2,3.5,5,4,66,8,68,44,27,20,44,8,3,-3,2,-2,2,-1,0,0,0,0,1,0,24,44,20,0,0,0,-10,-11,-1,-1,0
Augsburg v Wolfsburg,1,1.5,-1,-1,-127,2,-115,-84,-41,-4,-92,-31,-1,1,-5,5,-3,-3,0,3,0,0,0,0,-19,-120,-101,2,0,0,-1,-2,0,-1,0
Bayern v Augsburg,0,-2.900000000000002,5,4,301,-4,298,177,126,120,172,17,4,-4,-2,2,3,1,-1,9,6,0,1,0,245,292,47,-9,0,0,-5,-2,10,3,-1
Bayern v Borussia Dortmund,0,-0.5,1,-1,79,-1,81,53,45,61,25,13,0,0,0,0,-1,-1,0,11,-1,0,-1,0,101,77,-24,-1,1,0,1,2,6,1,1
Bayern v Mönchengladb.,1,1.5,1,2,20,5,18,-11,23,41,-25,-3,-2,2,3,-3,2,1,1,0,1,0,0,0,38,20,-18,-5,2,0,-3,1,5,4,1
Bayern v Darmstadt,0,-1.4000000000000021,10,8,258,-14,264,132,127,122,136,5,7,-7,1,-1,10,5,-1,9,4,0,2,0,259,255,-4,-7,1,0,-14,-8,12,6,-1
Bayern v Eintracht Frankfurt,0,1.6000000000000014,10,4,137,-9,147,61,77,29,64,44,3,-3,-1,1,8,7,0,0,1,0,4,0,56,141,85,8,-1,0,3,1,3,-2,1
Bayern v FC Cologne,0,1.0,11,8,285,-18,289,158,144,224,72,10,7,-7,-1,1,10,6,1,13,3,0,-1,0,310,282,-28,-5,0,0,-7,-7,12,0,2
Bayern v Hamburg,0,-0.3999999999999986,7,1,281,-1,278,164,123,79,210,0,4,-4,3,-3,7,6,1,8,6,0,1,0,270,287,17,-6,0,0,-7,-1,7,6,1
Bayern v Hannover,0,2.200000000000003,1,2,166,18,162,72,102,23,79,70,2,-2,1,-1,4,3,0,8,7,0,3,0,48,173,125,-2,0,0,-3,5,4,8,2
Bayern v Hertha Berlin,0,0.1999999999999993,15,8,224,-20,230,137,105,174,110,-39,6,-6,1,-1,11,9,1,11,4,0,3,0,300,221,-79,0,-2,0,-5,-5,3,0,2
Bayern v Hoffenheim,0,3.5,10,5,283,-10,287,161,139,164,121,17,5,-5,-2,2,8,4,1,14,2,0,0,0,280,275,-5,-11,0,0,-8,-4,7,4,1
Bayern v Ingolstadt,0,1.6999999999999993,-2,-2,114,-13,112,71,45,-37,87,67,-1,1,1,-1,-1,-1,0,-3,-2,0,-3,0,-25,110,135,-6,0,0,-2,-3,4,-1,0
Bayern v Leverkusen,0,1.6000000000000014,-1,-1,119,1,124,60,57,-15,26,106,0,0,-1,1,3,3,1,-1,2,0,-2,0,-25,127,152,-4,0,0,-11,-7,10,4,1
Bayern v Mainz,2,1.0999999999999979,4,3,313,19,318,160,161,102,172,50,8,-8,0,0,4,1,-1,9,1,0,1,0,239,331,92,4,0,0,-15,-5,11,10,-1
Bayern v Schalke,0,1.7999999999999972,1,0,269,-4,264,153,124,99,187,-4,1,-1,-4,4,0,1,0,10,2,0,-1,0,253,261,8,-4,0,0,-4,-5,3,-1,0
Bayern v Stuttgart,0,2.3999999999999986,20,12,247,7,242,129,126,86,116,53,3,-3,4,-4,16,13,3,-1,5,0,1,0,159,256,97,-1,0,0,-9,-2,10,7,4
Bayern v Werder Bremen,0,2.8999999999999986,8,5,421,15,419,223,208,182,239,14,6,-6,2,-2,7,5,2,11,1,0,-3,0,389,399,10,-1,0,0,-4,-6,3,-2,2
Bayern v Wolfsburg,0,-1.1000000000000014,4,2,121,-12,117,63,61,77,66,-17,2,-2,-1,1,2,2,-1,2,-1,0,1,0,142,118,-24,-3,-1,0,-10,-1,10,9,-1
Borussia Dortmund v Augsburg,0,-2.5,9,2,203,-13,206,106,95,64,125,13,4,-4,4,-4,7,6,3,7,1,0,2,0,131,206,75,-7,0,0,-2,-3,-1,-1,3
Borussia Dortmund v Bayern,1,-0.8999999999999986,-4,-1,-81,7,-90,-63,-25,-33,-46,-10,-3,3,0,0,-4,-3,0,-6,-3,0,-2,0,-83,-88,-5,5,0,0,-4,-1,3,3,0
Borussia Dortmund v Mönchengladb.,0,1.2000000000000028,9,4,93,-13,96,45,47,64,105,-78,-1,1,1,-1,8,6,3,1,1,0,3,0,192,97,-95,-5,0,0,-8,-6,2,2,3
Borussia Dortmund v Darmstadt,1,-1.8000000000000007,6,3,282,-18,276,173,123,109,171,16,6,-6,1,-1,6,5,-1,7,0,0,-2,0,215,258,43,-14,-1,0,-10,-9,4,1,-1
Borussia Dortmund v Eintracht Frankfurt,0,1.5999999999999979,10,6,283,-6,278,168,121,121,174,-8,6,-6,2,-2,7,6,0,5,1,0,4,0,265,272,7,-7,-1,0,-9,-5,9,4,0
Borussia Dortmund v FC Cologne,1,0.3999999999999986,1,2,432,-13,434,219,223,134,300,12,1,-1,-1,1,0,-2,-2,6,3,0,-1,0,374,421,47,-6,1,0,0,0,0,0,-1
Borussia Dortmund v Hamburg,0,-1.5,2,1,166,-9,174,111,70,71,121,-11,3,-3,6,-6,2,2,1,9,4,0,-2,0,154,183,29,-3,0,0,-10,-6,2,4,2
Borussia Dortmund v Hannover,0,1.3999999999999986,4,4,255,-10,260,133,125,84,192,-13,1,-1,4,-4,3,3,0,1,1,0,1,0,236,251,15,-6,-1,0,-8,-4,6,4,0
Borussia Dortmund v Hertha Berlin,0,0.09999999999999787,4,1,118,-25,123,55,66,22,142,-44,3,-3,0,0,5,2,1,0,-1,0,0,0,156,118,-38,4,-1,0,-7,-2,9,5,1
Borussia Dortmund v Hoffenheim,0,2.1999999999999993,0,1,303,-4,289,169,139,84,197,33,2,-2,2,-2,0,-1,0,8,0,0,-1,0,159,283,124,-13,0,0,0,0,-5,0,-1
Borussia Dortmund v Ingolstadt,0,0.6999999999999993,4,1,103,-6,107,60,43,1,79,24,0,0,2,-2,2,3,0,1,0,0,2,0,39,102,63,-4,0,0,-7,-4,-3,3,0
Borussia Dortmund v Leverkusen,0,1.7999999999999972,6,4,106,0,104,60,45,17,42,46,0,0,5,-5,5,5,1,1,1,0,-2,0,19,105,86,-5,-1,0,5,6,-4,1,1
Borussia Dortmund v Mainz,0,1.7000000000000028,2,2,193,17,184,98,108,45,126,36,2,-2,3,-3,3,1,1,4,1,0,0,0,84,178,94,-13,0,0,-9,-7,-1,2,1
Borussia Dortmund v Schalke,0,1.3000000000000007,3,1,151,-14,142,84,71,82,100,-27,4,-4,6,-6,2,1,1,5,2,0,-1,0,163,157,-6,0,-1,0,-1,2,-3,3,1
Borussia Dortmund v Stuttgart,0,1.6000000000000014,-4,-4,264,-3,243,156,109,24,189,51,-2,2,1,-1,-1,1,0,-4,-2,0,2,0,90,237,147,-6,0,0,2,5,0,3,1
Borussia Dortmund v Werder Bremen,0,0.8000000000000007,13,6,190,-16,193,96,90,58,114,18,3,-3,-1,1,9,5,0,4,3,0,-2,0,145,186,41,-5,-1,0,3,0,-7,-3,0
Borussia Dortmund v Wolfsburg,0,0.1999999999999993,3,-3,90,-14,94,39,46,25,66,-4,-4,4,4,-4,2,4,1,-6,-2,0,4,0,37,92,55,-4,1,0,-1,-1,1,0,2
Mönchengladb. v Augsburg,0,-2.6999999999999993,6,3,39,-7,45,15,27,19,31,-9,4,-4,-3,3,3,2,2,3,-1,0,-1,0,26,44,18,2,-2,0,1,2,3,1,4
Mönchengladb. v Bayern,0,-2.3999999999999986,-4,-2,-79,1,-92,-42,-42,-35,-50,-1,-2,2,0,0,-3,-2,0,-6,-1,0,0,0,-97,-82,15,2,-1,0,2,2,0,0,0
Mönchengladb. v Borussia Dortmund,2,-0.8999999999999986,-6,-2,-63,-4,-71,-21,-40,-13,-45,-2,2,-2,0,0,-4,-2,-1,4,1,0,-1,0,-69,-70,-1,-3,0,0,4,3,3,-1,-1
Mönchengladb. v Darmstadt,0,-3.3999999999999986,0,4,171,2,171,93,73,14,125,30,-2,2,0,0,0,1,-1,-2,-2,0,-1,0,72,155,83,-4,-1,1,-2,-2,1,0,0
Mönchengladb. v Eintracht Frankfurt,0,-0.8000000000000007,9,4,263,1,259,138,130,44,179,44,1,-1,5,-5,5,3,0,5,-1,0,1,0,161,270,109,-8,-1,0,-6,0,3,6,1
Mönchengladb. v FC Cologne,0,0.5999999999999979,9,4,186,6,179,111,61,37,111,26,3,-3,0,0,6,2,1,0,1,0,0,0,93,181,88,-2,0,0,-7,-1,3,6,1
Mönchengladb. v Hamburg,2,-1.5,3,5,57,-22,57,49,4,29,55,-30,-1,1,1,-1,3,0,-1,-4,-2,0,0,0,68,49,-19,-3,-1,0,-2,-5,0,-3,-2
Mönchengladb. v Hannover,0,0.1999999999999993,1,0,138,-8,136,109,46,39,125,-10,1,-1,1,-1,-1,1,1,2,-1,0,1,0,86,135,49,0,0,0,3,5,3,2,1
Mönchengladb. v Hertha Berlin,0,-2.1999999999999993,1,0,42,-12,37,42,-6,0,85,-49,-1,1,-2,2,4,4,1,-2,2,0,1,0,42,38,-4,1,1,0,10,10,-3,0,1
Mönchengladb. v Hoffenheim,0,0.3000000000000007,2,0,164,1,162,114,63,68,100,8,6,-6,0,0,4,4,1,9,0,0,2,0,132,169,37,-4,-2,0,-8,-3,11,5,0
Mönchengladb. v Ingolstadt,1,-0.5,-4,3,68,-10,64,50,16,-54,47,72,-2,2,-3,3,-5,-4,0,-4,-1,0,-1,0,-59,68,127,0,-1,0,-10,-4,5,6,0
Mönchengladb. v Leverkusen,0,0.6999999999999993,0,-2,153,11,144,75,79,-3,105,52,2,-2,-3,3,0,-1,-1,3,1,0,0,0,41,165,124,-3,-1,0,-4,4,11,8,0
Mönchengladb. v Mainz,2,-0.3999999999999986,3,1,218,-6,211,127,95,12,144,66,2,-2,-2,2,4,2,-1,1,2,0,-3,0,52,222,170,-9,-1,0,-1,8,9,9,-1
Mönchengladb. v Schalke,0,0.5,6,5,187,5,184,86,101,41,95,52,-3,3,1,-1,6,3,0,-1,2,0,0,0,102,186,84,-3,-1,0,-4,2,9,6,2
Mönchengladb. v Stuttgart,0,-1.8999999999999986,3,2,177,4,170,90,81,8,141,23,0,0,5,-5,4,2,1,-5,0,0,1,0,82,161,79,-6,-1,0,6,5,2,-1,1
Mönchengladb. v Werder Bremen,0,-0.3000000000000007,3,1,47,-7,49,21,29,14,14,21,-3,3,-3,3,6,3,2,0,1,0,-2,0,29,50,21,2,1,0,-1,2,2,3,2
Mönchengladb. v Wolfsburg,0,-0.6000000000000014,-1,0,0,-6,-7,-8,7,25,0,-25,1,-1,0,0,-2,0,0,4,0,0,1,0,53,-3,-56,-5,1,0,4,6,-1,2,0
Darmstadt v Augsburg,1,-0.10000000000000142,3,2,-101,-3,-99,-51,-46,31,-94,-33,-3,3,2,-2,1,1,1,2,0,0,-1,0,5,-111,-116,10,0,0,1,2,-3,1,2
Darmstadt v Bayern,2,2.3000000000000007,-6,-2,-281,13,-290,-163,-127,-63,-193,-34,-2,2,-2,2,-6,-1,0,-3,-1,0,3,0,-205,-290,-85,0,0,0,9,3,-14,-6,-1
Darmstadt v Borussia Dortmund,2,1.8000000000000007,-7,-5,-212,-1,-218,-109,-100,-13,-172,-23,-2,2,1,-1,-5,-4,0,-3,0,0,2,0,-132,-217,-85,0,0,0,13,8,-8,-5,-1
Darmstadt v Mönchengladb.,2,3.8999999999999986,-5,-3,-229,24,-238,-134,-93,-7,-174,-45,2,-2,1,-1,-4,-3,-1,1,-1,0,2,0,-111,-250,-139,3,1,0,3,-1,-4,-4,-1
Darmstadt v Eintracht Frankfurt,2,1.7000000000000028,1,1,-81,12,-78,-48,-43,-3,-63,-24,-2,2,3,-3,-1,-2,1,-2,-2,0,0,0,-44,-87,-43,9,-2,0,5,3,-7,-2,1
Darmstadt v FC Cologne,1,3.200000000000003,-1,-2,-61,10,-85,-26,-40,13,-47,-31,-1,1,-2,2,-2,-2,0,-3,-2,0,1,0,-14,-69,-55,2,1,0,-3,-2,-5,1,0
Darmstadt v Hamburg,1,1.0,1,1,-99,-13,-89,-42,-52,-5,-60,-29,0,0,-1,1,1,2,0,0,-1,0,0,0,-9,-96,-87,3,2,0,0,-1,-3,-1,-1
Darmstadt v Hannover,1,1.8999999999999986,-3,-3,-110,2,-104,-68,-43,-13,-73,-26,-1,1,1,-1,-5,-3,0,-1,-2,0,-1,0,-33,-112,-79,6,-1,0,8,5,-5,-3,1
Darmstadt v Hertha Berlin,2,1.8000000000000007,1,2,-122,-5,-123,-67,-63,-3,-76,-51,0,0,2,-2,1,0,-1,2,1,0,3,0,-19,-126,-107,6,1,0,8,6,1,-2,-2
Darmstadt v Hoffenheim,1,3.1000000000000014,-3,-2,-106,1,-119,-45,-63,-5,-52,-52,-2,2,3,-3,-2,-2,0,0,-1,0,1,0,-26,-122,-96,-1,-1,0,7,3,-9,-4,0
Darmstadt v Ingolstadt,0,1.7999999999999972,0,0,-52,11,-54,-22,-24,-13,-36,2,0,0,2,-2,1,1,0,0,1,0,1,0,-27,-48,-21,1,0,0,-5,-5,6,0,0
Darmstadt v Leverkusen,2,4.0,2,0,-86,11,-79,-60,-45,-36,-43,-25,-4,4,1,-1,0,-1,0,-7,0,0,2,0,-64,-77,-13,5,0,0,6,5,0,-1,1
Darmstadt v Mainz,2,2.8000000000000007,-3,-3,-137,-7,-137,-72,-72,6,-123,-29,-3,3,3,-3,-2,-2,-1,-1,0,0,-4,0,-65,-142,-77,8,-1,0,12,4,-13,-8,-1
Darmstadt v Schalke,2,3.900000000000002,-2,0,-105,0,-106,-44,-56,20,-82,-39,-2,2,1,-1,0,0,0,2,0,0,-1,0,-16,-126,-110,-5,0,0,6,4,-4,-2,-1
Darmstadt v Stuttgart,1,2.3999999999999986,1,2,-58,10,-63,-43,-12,21,-66,-14,2,-2,2,-2,-1,1,-2,-1,1,0,0,0,-18,-65,-47,4,0,0,4,4,-4,0,-1
Darmstadt v Werder Bremen,0,2.5,-2,-2,-17,-13,-6,5,-8,22,0,-27,1,-1,2,-2,1,0,-1,8,1,0,1,0,45,-13,-58,-1,0,0,-1,-3,-2,-2,0
Darmstadt v Wolfsburg,2,1.5,-7,-3,-234,8,-249,-136,-102,-42,-182,-16,1,-1,7,-7,-8,-2,0,-3,-3,0,0,0,-155,-254,-99,0,0,0,4,3,-1,-1,0
Eintracht Frankfurt v Augsburg,1,-2.6999999999999993,0,1,21,-15,24,21,6,43,8,-24,0,0,0,0,-1,-1,-1,3,0,0,2,0,46,14,-32,-7,1,0,-1,0,2,1,-1
Eintracht Frankfurt v Bayern,1,-0.6000000000000014,-3,-1,-222,13,-228,-123,-107,-58,-176,3,-2,2,2,-2,-2,-1,0,-8,-1,0,-2,0,-255,-219,36,6,1,0,5,0,-6,-5,0
Eintracht Frankfurt v Borussia Dortmund,0,0.10000000000000142,-3,-1,-275,5,-266,-154,-121,-54,-192,-29,-1,1,-6,6,-3,-2,1,-2,1,0,-1,0,-190,-266,-76,8,-1,0,6,1,-5,-5,1
Eintracht Frankfurt v Mönchengladb.,2,0.09999999999999787,-4,0,-79,-9,-79,-29,-40,-19,-28,-21,-1,1,2,-2,-5,-3,0,4,-1,0,0,0,-32,-89,-57,0,-2,0,7,3,-6,-4,0
Eintracht Frankfurt v Darmstadt,2,-2.8000000000000007,-1,-2,186,-14,177,112,67,-6,137,50,1,-1,-3,3,-1,-2,-1,-5,-1,0,1,0,72,183,111,-4,1,0,-8,-5,4,3,-1
Eintracht Frankfurt v FC Cologne,0,0.9000000000000021,7,2,36,-2,48,37,10,17,-3,30,3,-3,-3,3,4,5,3,4,2,0,-3,0,31,60,29,12,1,0,-12,-9,-3,3,3
Eintracht Frankfurt v Hamburg,1,-1.5999999999999979,-5,-2,-9,-2,-5,-1,3,-8,-10,19,-2,2,1,-1,-4,-3,0,3,0,0,0,0,-24,-14,10,-5,-2,0,0,2,-3,2,0
Eintracht Frankfurt v Hannover,0,1.3000000000000007,2,0,108,9,105,71,58,55,79,-5,3,-3,-1,1,1,0,0,15,1,0,-2,0,112,100,-12,-7,0,0,-6,-5,4,1,1
Eintracht Frankfurt v Hertha Berlin,1,0.8999999999999986,2,0,-40,-14,-37,-9,-21,6,-7,-30,1,-1,4,-4,2,2,1,4,2,0,0,0,10,-46,-56,-5,0,0,7,7,-1,0,1
Eintracht Frankfurt v Hoffenheim,2,1.3000000000000007,5,2,14,1,19,12,13,39,-5,-8,2,-2,0,0,3,4,0,7,2,0,3,0,34,0,-34,-6,0,0,5,1,0,-4,0
Eintracht Frankfurt v Ingolstadt,1,-0.6999999999999993,-2,-3,68,0,66,48,35,6,48,29,2,-2,-2,2,0,-1,0,4,0,0,0,0,25,65,40,-3,2,0,-7,-5,5,2,-1
Eintracht Frankfurt v Leverkusen,2,0.5,-3,-4,-114,-4,-114,-53,-58,-26,-66,-20,-4,4,-1,1,-3,1,0,1,2,0,0,0,-38,-94,-56,3,0,0,-2,3,6,5,-1
Eintracht Frankfurt v Mainz,0,0.8999999999999986,2,2,38,-7,35,36,10,27,5,16,2,-2,-4,4,2,3,1,9,1,0,-1,0,38,30,-8,-2,-1,0,3,2,-3,-1,0
Eintracht Frankfurt v Schalke,1,1.5,2,3,-21,1,-2,-16,-4,-5,-19,4,2,-2,2,-2,2,2,0,7,2,0,3,0,9,-7,-16,6,0,0,6,4,-5,-2,0
Eintracht Frankfurt v Stuttgart,2,-1.1000000000000014,-3,1,20,3,21,13,7,15,25,-20,-5,5,6,-6,-4,-4,-2,-1,0,0,0,0,35,23,-12,1,0,0,2,1,-3,-1,-2
Eintracht Frankfurt v Werder Bremen,0,-0.3000000000000007,-1,-2,62,5,61,30,32,5,53,6,1,-1,5,-5,1,2,1,6,2,0,-3,0,40,64,24,-2,1,0,-3,0,3,3,0
Eintracht Frankfurt v Wolfsburg,0,-0.10000000000000142,-6,-2,-78,-8,-78,-54,-30,-74,-13,3,-1,1,3,-3,-5,-5,-1,-6,-2,0,0,0,-79,-74,5,3,0,0,-1,1,-3,2,-1
FC Cologne v Augsburg,2,-3.3000000000000007,-5,2,-52,3,-57,-21,-31,-15,-32,-1,-1,1,5,-5,-1,0,0,-3,0,0,-1,0,-52,-69,-17,-2,0,0,6,2,-2,-4,0
FC Cologne v Bayern,2,-1.1999999999999993,-2,-1,-365,18,-372,-185,-184,-98,-246,-26,-1,1,-4,4,-1,-1,0,-4,0,0,-2,0,-282,-371,-89,5,0,0,13,10,-16,-3,-1
FC Cologne v Borussia Dortmund,0,-1.1000000000000014,-5,-1,-299,-23,-287,-150,-155,-66,-172,-70,-2,2,2,-2,-2,-2,-1,-4,-2,0,1,0,-148,-295,-147,9,0,0,0,0,3,0,-1
FC Cologne v Mönchengladb.,0,0.1999999999999993,0,0,-150,-3,-143,-93,-56,-5,-127,-15,0,0,3,-3,1,2,0,3,0,0,2,0,-77,-138,-61,6,-1,0,8,2,-8,-6,0
FC Cologne v Darmstadt,0,-1.8000000000000007,1,0,175,-11,182,92,83,-22,164,35,-1,1,6,-6,2,4,2,1,2,0,0,0,37,173,136,-13,0,0,-3,1,4,4,1
FC Cologne v Eintracht Frankfurt,0,-0.5,-3,-2,-6,-2,1,-6,-6,0,-17,3,-3,3,3,-3,0,1,1,-3,-2,0,0,0,-1,-5,-4,3,-1,0,3,2,0,-1,0
FC Cologne v Hamburg,0,-1.8000000000000007,-6,-4,-11,-2,-9,2,-4,5,-6,-1,0,0,-5,5,-5,-2,0,1,-2,0,2,0,-30,-28,2,-4,1,0,7,1,-7,-6,0
FC Cologne v Hannover,2,-1.3999999999999986,1,1,107,-1,104,56,67,15,92,11,5,-5,2,-2,3,2,0,7,1,0,1,0,59,100,41,-2,0,0,-3,-2,1,1,-1
FC Cologne v Hertha Berlin,2,-1.5,-2,-2,-108,-30,-107,-46,-71,-28,-41,-48,-4,4,-2,2,2,1,-1,-9,1,0,0,0,-59,-103,-44,2,0,0,3,1,-4,-2,-1
FC Cologne v Hoffenheim,1,-0.1999999999999993,-2,-3,18,14,12,20,16,43,-6,-1,0,0,5,-5,-1,-1,0,7,0,0,1,0,22,8,-14,-8,-1,0,-3,2,3,5,0
FC Cologne v Ingolstadt,1,-0.8000000000000007,-1,1,87,11,89,45,55,-9,83,27,2,-2,2,-2,-2,-1,0,4,-1,0,0,0,43,95,52,-2,0,0,-5,-2,5,3,0
FC Cologne v Leverkusen,2,1.5999999999999979,-2,-1,-82,6,-92,-60,-25,-47,-23,-13,-5,5,1,-1,-1,-1,-2,-7,1,0,-2,0,-54,-90,-36,-1,-1,0,1,2,1,1,-2
FC Cologne v Mainz,1,-0.09999999999999787,1,1,-24,-17,-30,-10,-17,-33,0,5,0,0,-4,4,0,0,0,4,0,0,2,0,-53,-26,27,-1,1,0,8,5,-13,-3,0
FC Cologne v Schalke,2,0.09999999999999787,-1,0,-102,-6,-103,-60,-51,-53,-29,-27,-4,4,-3,3,-1,0,0,-9,-1,0,0,0,-77,-115,-38,-4,1,0,11,10,-6,-1,-1
FC Cologne v Stuttgart,2,-0.8000000000000007,-2,-2,-26,2,-30,-16,-13,-39,-14,26,1,-1,4,-4,-2,-2,0,-5,2,0,-1,0,-43,-38,5,-3,-1,0,2,-4,-4,-6,0
FC Cologne v Werder Bremen,1,-1.4000000000000021,-6,-1,-16,-1,-9,-20,-3,-51,16,11,-3,3,-1,1,-5,-3,0,-5,-3,0,5,0,-61,-8,53,6,0,0,7,7,-1,0,0
FC Cologne v Wolfsburg,1,-1.9000000000000021,0,0,-234,-13,-229,-147,-82,-42,-158,-32,-1,1,-2,2,-1,0,1,-2,1,0,0,0,-107,-234,-127,-4,0,0,8,2,-5,-6,1
Hamburg v Augsburg,2,-1.0,3,2,57,0,50,48,8,0,46,9,-1,1,2,-2,1,1,0,-5,-3,0,1,0,-1,41,42,-4,0,0,3,-2,1,-5,0
Hamburg v Bayern,2,-1.0,-3,-1,-228,10,-235,-125,-123,-56,-121,-72,-2,2,-7,7,-2,-4,0,-8,-3,0,1,0,-143,-233,-90,-1,3,0,14,8,-9,-6,-1
Hamburg v Borussia Dortmund,0,1.6999999999999993,-1,-4,-141,5,-142,-80,-68,-42,-88,-20,-3,3,-6,6,-1,0,1,-4,1,0,2,0,-76,-128,-52,3,-1,0,-1,-1,0,0,2
Hamburg v Mönchengladb.,0,1.9000000000000021,6,5,-39,8,-42,-43,0,11,-33,-18,0,0,-5,5,7,3,0,-1,1,0,1,0,13,-26,-39,4,1,0,1,-3,-2,-4,-1
Hamburg v Darmstadt,2,-0.6999999999999993,2,-1,176,-7,181,103,69,0,133,40,1,-1,4,-4,4,3,-1,-1,1,0,2,0,77,195,118,0,-1,0,-13,-8,11,5,-1
Hamburg v Eintracht Frankfurt,1,2.1000000000000014,2,0,38,17,35,14,28,15,5,20,2,-2,4,-4,1,0,0,3,1,0,-1,0,0,38,38,4,-1,0,4,6,1,2,0
Hamburg v FC Cologne,1,2.0,-5,-1,89,-3,92,54,39,10,55,27,-2,2,-4,4,-2,0,-1,1,0,0,-1,0,12,86,74,3,1,0,-8,-8,13,0,-1
Hamburg v Hannover,2,1.0,5,1,-11,2,-13,-13,13,12,-11,-1,2,-2,-4,4,3,2,1,5,1,0,0,0,3,-16,-19,-7,0,0,4,1,-4,-3,1
Hamburg v Hertha Berlin,0,1.0999999999999979,7,2,170,-5,160,94,77,62,97,13,2,-2,2,-2,3,1,0,2,2,0,0,0,110,161,51,-5,0,0,-5,-1,6,4,0
Hamburg v Hoffenheim,2,3.0,1,-1,60,9,51,32,43,61,8,6,0,0,4,-4,1,1,-1,9,3,0,4,0,73,58,-15,-4,2,0,-1,0,3,1,-1
Hamburg v Ingolstadt,1,1.5999999999999979,0,0,-24,-8,-24,-18,-5,-12,-16,6,1,-1,-4,4,-1,0,1,1,1,0,0,0,-28,-17,11,-5,0,0,11,7,-4,-4,1
Hamburg v Leverkusen,1,3.5,-5,-4,-64,3,-58,-48,-27,-43,-43,8,-1,1,-7,7,-5,-5,0,-5,-4,0,1,0,-59,-49,10,2,3,0,2,2,-1,0,0
Hamburg v Mainz,2,1.7000000000000028,6,3,158,-3,151,102,58,8,83,67,0,0,5,-5,4,5,0,2,1,0,0,0,29,171,142,-3,0,0,-2,7,2,9,-1
Hamburg v Schalke,2,1.6999999999999993,-4,-2,-42,-5,-36,-26,-32,-42,-4,-13,-1,1,-3,3,-4,-3,0,-2,-3,0,-1,0,-57,-54,3,2,-1,0,9,1,-11,-8,0
Hamburg v Stuttgart,0,1.8999999999999986,-4,-3,3,11,-9,2,-5,-15,-8,20,-5,5,5,-5,-4,-5,-2,-6,-1,0,-1,0,-52,4,56,0,0,0,-5,-2,2,3,-1
Hamburg v Werder Bremen,0,0.0,2,2,13,20,7,-2,13,-15,2,25,0,0,-4,4,2,3,2,2,3,0,3,0,-20,4,24,-1,-1,0,5,3,-1,-2,2
Hamburg v Wolfsburg,2,1.6000000000000014,1,0,-27,0,-27,-28,3,-3,-23,1,2,-2,0,0,2,2,0,-3,2,0,-2,0,-4,-20,-16,7,0,0,1,-1,-1,-2,0
Hannover v Augsburg,2,-1.8000000000000007,1,2,-55,-12,-56,-24,-28,6,-33,-28,1,-1,-1,1,3,2,0,1,1,0,0,0,7,-58,-65,1,0,0,-1,-1,2,0,-1
Hannover v Bayern,2,-0.10000000000000142,-8,-7,-290,-15,-281,-155,-144,-99,-195,-10,-2,2,0,0,-7,-6,0,-11,-2,0,2,0,-223,-279,-56,9,0,0,5,1,-7,-4,-1
Hannover v Borussia Dortmund,2,0.09999999999999787,-9,-2,-224,10,-226,-118,-108,-91,-129,-8,1,-1,1,-1,-9,-7,0,-4,-3,0,0,0,-177,-230,-53,-1,0,0,-5,-6,5,-1,-1
Hannover v Mönchengladb.,0,-0.6000000000000014,1,0,-70,-8,-63,-29,-32,42,-27,-76,3,-3,-6,6,1,-1,0,11,2,0,-1,0,69,-61,-130,2,1,0,-7,-5,4,2,0
Hannover v Darmstadt,2,-2.099999999999998,3,0,158,-9,163,103,60,34,115,16,-1,1,7,-7,2,2,-1,4,3,0,1,0,100,176,76,0,-2,0,-12,-7,9,5,0
Hannover v Eintracht Frankfurt,2,0.29999999999999716,5,3,-27,-13,-29,-1,-33,26,-2,-59,-2,2,1,-1,2,1,0,-2,-1,0,-3,0,51,-30,-81,-8,-2,0,0,1,3,1,0
Hannover v FC Cologne,2,1.3000000000000007,1,-3,155,-27,158,91,62,17,109,29,2,-2,-5,5,2,-1,-1,2,-2,0,1,0,46,156,110,-3,0,0,1,-3,-7,-4,-1
Hannover v Hamburg,2,-2.1000000000000014,3,2,51,-9,66,42,21,42,23,-2,2,-2,1,-1,2,3,0,9,1,0,1,0,86,74,-12,4,0,0,-16,-12,10,4,0
Hannover v Hertha Berlin,2,0.29999999999999716,-5,-2,-67,-3,-69,-40,-35,-19,-27,-29,-2,2,-5,5,-4,-4,-1,-2,0,0,0,0,-35,-68,-33,-2,0,0,-1,-4,-6,-3,-1
Hannover v Hoffenheim,0,-0.09999999999999787,0,1,45,-1,40,25,11,1,26,9,0,0,3,-3,1,-3,1,-2,-1,0,1,0,47,55,8,6,-1,0,0,7,5,7,1
Hannover v Ingolstadt,0,0.8000000000000007,-3,-5,-37,6,-32,-23,-18,-31,-11,1,-1,1,-3,3,-1,0,3,-1,0,0,0,0,-51,-19,32,6,1,0,0,0,4,0,3
Hannover v Leverkusen,2,1.2000000000000028,-3,-1,-140,5,-145,-67,-61,-37,-80,-13,-3,3,-1,1,-3,-1,0,-6,-1,0,1,0,-96,-158,-62,-5,0,0,-7,-4,6,3,-1
Hannover v Mainz,2,0.40000000000000213,-5,-1,37,0,21,38,15,7,18,28,1,-1,-6,6,-5,-2,-1,3,-1,0,0,0,-17,13,30,1,-1,0,6,3,-8,-3,-1
Hannover v Schalke,2,0.09999999999999787,9,2,-67,-10,-63,-30,-34,6,-53,-18,4,-4,-2,2,4,2,-1,3,0,0,3,0,7,-53,-60,2,0,0,4,1,-8,-3,-1
Hannover v Stuttgart,2,0.5,-6,-2,90,16,78,45,41,-17,56,50,-1,1,0,0,-3,1,1,-1,1,0,-3,0,-19,70,89,-9,-2,0,-5,-3,1,2,-1
Hannover v Werder Bremen,0,0.9000000000000021,2,3,5,7,8,5,1,-6,27,-16,1,-1,-2,2,1,-1,0,-1,-1,0,2,0,11,-1,-12,-4,0,0,-2,-1,2,1,0
Hannover v Wolfsburg,2,0.0,-8,-3,-243,-9,-235,-125,-120,-64,-177,-5,-4,4,3,-3,-6,-5,-1,-10,-6,0,2,0,-200,-254,-54,0,0,0,-2,-4,-2,-2,-1
Hertha Berlin v Augsburg,1,-1.8999999999999986,0,-2,197,13,196,113,93,46,115,47,3,-3,2,-2,-4,-4,0,4,-2,0,0,0,102,197,95,2,0,0,-8,-6,2,2,0
Hertha Berlin v Bayern,2,-0.6999999999999993,4,1,-191,10,-195,-117,-64,-4,-131,-50,-1,1,5,-5,2,3,0,1,0,0,3,0,-55,-200,-145,2,-2,0,-2,-3,-2,-1,0
Hertha Berlin v Borussia Dortmund,1,0.8000000000000007,-1,0,-117,16,-107,-85,-34,-23,-83,-14,-1,1,5,-5,0,0,0,1,0,0,0,0,-58,-103,-45,-2,-2,0,-2,2,7,4,0
Hertha Berlin v Mönchengladb.,2,1.3999999999999986,-3,0,-204,-4,-194,-127,-80,-68,-171,32,-2,2,-2,2,-1,2,0,-1,0,0,0,0,-170,-182,-12,6,0,0,-4,0,2,4,-2
Hertha Berlin v Darmstadt,2,-1.8000000000000007,5,5,232,-6,237,150,97,42,165,42,6,-6,-1,1,5,2,0,10,2,0,0,0,120,226,106,-5,0,0,-12,-8,8,4,0
Hertha Berlin v Eintracht Frankfurt,0,0.5,-3,0,19,10,12,17,-1,-12,-11,39,-2,2,-3,3,0,2,0,0,3,0,1,0,-13,11,24,-6,2,0,-1,-1,-1,0,0
Hertha Berlin v FC Cologne,0,-0.1999999999999993,2,2,104,19,99,63,56,58,27,33,4,-4,-5,5,-1,1,1,14,3,0,-2,0,93,96,3,-10,1,0,-6,-4,6,2,1
Hertha Berlin v Hamburg,0,-2.599999999999998,1,-2,-87,2,-80,-60,-26,-40,-67,21,-1,1,-2,2,-1,1,0,-2,1,0,2,0,-80,-71,9,3,0,0,-1,0,5,1,1
Hertha Berlin v Hannover,1,2.1999999999999993,1,3,181,21,174,107,94,16,119,64,1,-1,7,-7,0,0,0,6,2,0,2,0,60,177,117,-2,0,0,-6,-3,1,3,0
Hertha Berlin v Hoffenheim,0,1.2999999999999972,-2,-1,72,-9,80,49,31,38,40,2,2,-2,-2,2,-1,0,0,9,1,0,0,0,59,76,17,-2,0,0,4,2,-5,-2,-1
Hertha Berlin v Ingolstadt,0,0.5999999999999979,2,0,113,9,116,47,66,-40,75,77,1,-1,5,-5,0,0,0,4,1,0,2,0,-11,131,142,-6,-1,0,-10,-4,8,6,0
Hertha Berlin v Leverkusen,0,0.8999999999999986,5,4,107,21,108,72,53,44,47,32,4,-4,-1,1,0,-2,0,11,1,0,-1,0,56,121,65,5,1,-1,-5,-7,4,-2,0
Hertha Berlin v Mainz,0,0.5999999999999979,5,2,191,22,190,100,110,53,108,50,4,-4,-2,2,4,3,0,13,5,0,0,0,114,207,93,2,0,0,-8,-3,9,5,1
Hertha Berlin v Schalke,0,1.5999999999999979,-1,-1,9,9,6,-21,25,11,-30,24,0,0,-2,2,-1,1,1,5,-1,0,-2,0,9,23,14,1,-1,0,-6,-1,4,5,1
Hertha Berlin v Stuttgart,0,0.7999999999999972,-2,-2,62,24,57,21,28,-32,17,62,-2,2,0,0,-2,-3,0,-12,-3,0,-1,0,-51,59,110,0,-1,0,8,-1,-6,-9,1
Hertha Berlin v Werder Bremen,1,1.3000000000000007,-1,2,26,6,29,13,24,-30,34,33,2,-2,6,-6,-2,-1,-1,5,-3,0,0,0,-44,27,71,0,0,0,-5,-3,-1,2,0
Hertha Berlin v Wolfsburg,1,0.8000000000000007,1,1,12,10,5,0,2,-17,-22,41,1,-1,-4,4,2,2,0,-4,0,0,1,0,-29,21,50,-1,2,0,1,4,3,3,0
Hoffenheim v Augsburg,0,-3.1000000000000014,-3,-2,-11,-6,-10,1,-22,-6,-23,9,1,-1,0,0,0,0,1,-8,0,0,1,0,-1,-6,-5,3,-1,0,-2,-4,3,-2,0
Hoffenheim v Bayern,2,-2.6999999999999993,-6,-5,-250,-5,-247,-140,-118,-70,-98,-90,-1,1,-3,3,-6,-4,0,-7,1,0,-6,0,-115,-242,-127,7,0,0,-1,-1,1,0,0
Hoffenheim v Borussia Dortmund,1,-0.9000000000000021,1,2,-192,-7,-185,-107,-94,-42,-127,-35,3,-3,-7,7,0,-1,1,-2,-1,0,-1,0,-58,-180,-122,7,1,0,-6,-4,7,2,1
Hoffenheim v Mönchengladb.,1,0.09999999999999787,-4,-4,-196,-6,-193,-104,-95,-17,-163,-21,1,-1,1,-1,-1,-1,1,3,0,0,-1,0,-117,-188,-71,5,0,0,4,4,-5,0,1
Hoffenheim v Darmstadt,2,-3.1999999999999993,5,2,157,-8,153,81,73,-2,135,21,0,0,4,-4,3,2,-1,-7,-2,0,1,0,67,152,85,-3,0,0,1,1,-2,0,-1
Hoffenheim v Eintracht Frankfurt,1,-0.3999999999999986,-5,-4,19,-1,34,-3,10,-44,39,11,-1,1,5,-5,-3,-4,0,-7,-4,0,1,0,-49,31,80,1,-1,0,-3,-1,6,2,0
Hoffenheim v FC Cologne,1,-1.0999999999999979,-3,0,89,-10,89,44,38,9,75,-2,-5,5,0,0,-4,-2,0,-7,-2,0,-3,0,84,86,2,-1,2,0,0,-1,3,-1,0
Hoffenheim v Hamburg,2,-1.1999999999999993,-3,-2,27,-4,39,11,7,-10,1,28,1,-1,4,-4,-1,-1,0,1,-1,0,1,0,-16,35,51,1,0,0,8,3,-4,-5,0
Hoffenheim v Hannover,0,-1.4000000000000021,-4,-1,-69,1,-69,-57,-24,-1,-61,-22,-4,4,-2,2,-4,-4,1,-7,-4,0,2,0,-33,-75,-42,2,0,0,2,-1,-3,-3,1
Hoffenheim v Hertha Berlin,0,-3.3999999999999986,3,4,-33,-13,-33,6,-46,0,5,-45,-2,2,4,-4,0,1,0,-3,-3,0,-2,0,21,-45,-66,-1,1,0,5,5,1,0,0
Hoffenheim v Ingolstadt,0,-1.8999999999999986,-1,-1,41,3,38,17,14,-22,46,7,-1,1,-3,3,0,-1,0,-6,-1,0,2,0,-13,51,64,-1,-1,0,-3,-1,2,2,0
Hoffenheim v Leverkusen,1,-0.10000000000000142,-3,-1,-125,8,-135,-70,-61,-65,-95,29,-4,4,0,0,-4,-4,0,-8,-2,0,0,0,-141,-136,5,7,1,0,-1,0,0,1,1
Hoffenheim v Mainz,0,-0.6999999999999993,1,-2,21,-4,14,19,8,36,37,-44,3,-3,1,-1,1,-1,0,2,-1,0,-2,0,87,24,-63,-1,0,0,-6,-3,3,3,0
Hoffenheim v Schalke,2,0.3999999999999986,0,1,-7,-1,-4,-6,-1,11,3,-21,2,-2,-2,2,-1,0,-1,3,0,0,-1,0,25,-7,-32,6,0,0,5,2,1,-3,-1
Hoffenheim v Stuttgart,1,0.1999999999999993,-2,0,-22,3,-17,-18,-3,28,-43,-6,4,-4,5,-5,-3,-2,0,1,3,0,0,0,46,-18,-64,-1,0,0,-7,-4,8,3,1
Hoffenheim v Werder Bremen,2,-0.7000000000000028,-4,-3,89,-10,79,61,32,27,56,13,-1,1,6,-6,-1,0,0,3,-1,0,0,0,49,74,25,-5,-1,0,1,-1,-2,-2,-1
Hoffenheim v Wolfsburg,0,-1.8999999999999986,-2,-5,-93,6,-109,-45,-39,7,-70,-21,1,-1,4,-4,-2,-2,1,0,-1,0,-1,0,9,-80,-89,0,0,0,-9,-1,6,8,1
Ingolstadt v Augsburg,0,-2.400000000000002,9,5,-51,-10,-48,-45,-10,25,-51,-29,2,-2,5,-5,6,4,0,5,2,0,-3,0,28,-39,-67,1,-2,0,3,5,5,2,-1
Ingolstadt v Bayern,2,-0.10000000000000142,6,3,-91,-2,-88,-52,-36,41,-73,-57,1,-1,2,-2,4,2,-1,5,1,0,-3,0,17,-89,-106,6,0,1,5,3,-6,-2,-1
Ingolstadt v Borussia Dortmund,2,0.8000000000000007,-8,-3,-148,6,-142,-102,-56,-32,-89,-38,-2,2,1,-1,-9,-8,0,-6,-1,0,-1,0,-70,-157,-87,-1,-1,0,7,-1,-7,-8,0
Ingolstadt v Mönchengladb.,0,1.4000000000000021,3,4,11,-7,9,2,0,84,-53,-29,2,-2,2,-2,0,0,0,2,3,0,0,0,80,17,-63,4,-1,0,-1,1,-2,2,0
Ingolstadt v Darmstadt,0,-2.3000000000000007,3,4,91,-2,94,63,34,8,57,32,2,-2,5,-5,-2,-1,-1,2,2,0,1,0,62,85,23,-7,-1,0,-15,-12,9,3,-1
Ingolstadt v Eintracht Frankfurt,0,0.10000000000000142,3,4,-116,-5,-103,-61,-51,27,-109,-31,1,-1,-1,1,1,1,0,4,2,0,0,0,21,-83,-104,5,-1,0,10,6,-8,-4,0
Ingolstadt v FC Cologne,1,0.5,9,4,68,-12,69,35,44,96,-21,6,3,-3,1,-1,5,3,1,9,2,0,-2,0,115,70,-45,-4,1,0,-9,-6,6,3,1
Ingolstadt v Hamburg,2,-2.3000000000000007,6,2,-16,0,-1,-13,4,38,-29,-19,3,-3,5,-5,5,3,0,1,2,0,1,0,49,-10,-59,-1,-1,0,1,-3,-2,-4,0
Ingolstadt v Hannover,1,1.1000000000000014,2,0,-61,16,-60,-27,-23,34,-60,-24,-1,1,3,-3,3,3,2,0,3,0,0,0,17,-58,-75,2,0,1,0,3,6,3,2
Ingolstadt v Hertha Berlin,2,-0.09999999999999787,3,3,-42,-7,-30,-11,-17,45,-34,-42,2,-2,1,-1,2,2,0,10,0,0,1,0,63,-32,-95,10,-1,0,-2,-5,0,-3,-1
Ingolstadt v Hoffenheim,1,0.6999999999999993,0,1,38,4,33,23,8,33,14,-16,0,0,4,-4,-2,-2,0,6,2,0,0,0,52,38,-14,17,0,0,0,0,-7,0,0
Ingolstadt v Leverkusen,2,1.0,5,4,-6,-1,0,-5,11,38,-33,1,3,-3,2,-2,3,4,0,7,1,0,0,0,9,-9,-18,-1,-1,0,-7,-7,-2,0,0
Ingolstadt v Mainz,0,1.0,5,3,-104,-7,-100,-60,-42,49,-120,-33,2,-2,-1,1,3,2,0,2,0,0,-4,0,5,-109,-114,0,0,0,9,5,-12,-4,1
Ingolstadt v Schalke,0,0.8999999999999986,1,0,-37,5,-43,-28,-10,26,-28,-37,0,0,5,-5,-1,-2,0,-2,-2,0,-3,0,31,-47,-78,1,-2,0,2,-2,-9,-4,2
Ingolstadt v Stuttgart,1,-0.6999999999999993,5,2,-20,1,-17,-18,-8,6,-34,1,-1,1,5,-5,-1,-1,-1,-5,-1,0,1,0,-4,-17,-13,3,-1,0,1,3,0,2,0
Ingolstadt v Werder Bremen,0,-0.40000000000000213,0,1,-7,-4,2,-21,8,-3,-18,7,-2,2,1,-1,-3,-3,0,-3,-4,0,-3,0,-7,-19,-12,-8,0,0,5,1,-10,-4,1
Ingolstadt v Wolfsburg,1,-0.9000000000000021,-2,1,-125,-2,-125,-85,-46,16,-101,-47,1,-1,6,-6,-3,-2,0,0,-1,0,1,0,-10,-148,-138,-5,0,0,2,2,-5,0,0
Leverkusen v Augsburg,1,-3.6000000000000014,6,5,132,-16,140,85,51,64,52,21,4,-4,1,-1,4,3,0,5,3,0,0,0,133,136,3,2,0,0,-4,-7,5,-3,2
Leverkusen v Bayern,1,-2.5,0,1,-116,-5,-109,-46,-65,-3,-55,-55,0,0,-7,7,1,1,0,6,1,0,3,0,-16,-121,-105,2,0,0,10,4,-18,-6,0
Leverkusen v Borussia Dortmund,2,-1.0,0,3,33,0,25,15,25,35,7,-2,1,-1,-7,7,0,-1,0,1,1,0,2,0,36,18,-18,-5,1,0,2,4,-1,2,0
Leverkusen v Mönchengladb.,0,0.09999999999999787,0,-2,31,8,24,8,25,76,-8,-35,3,-3,5,-5,-2,-1,1,3,3,0,0,0,117,30,-87,2,-1,0,-11,-12,1,-1,1
Leverkusen v Darmstadt,2,-2.8999999999999986,1,0,223,-8,219,137,89,45,159,21,4,-4,-2,2,0,0,-1,3,1,0,-1,0,149,207,58,-4,2,0,-9,-5,8,4,-1
Leverkusen v Eintracht Frankfurt,0,-1.4000000000000021,2,0,162,7,166,84,76,33,90,40,1,-1,2,-2,2,1,0,-1,1,0,3,0,51,163,112,4,1,0,-6,-5,6,1,0
Leverkusen v FC Cologne,2,-0.5,0,1,53,-25,67,30,16,26,40,-20,1,-1,-5,5,2,-3,1,2,0,0,0,0,83,75,-8,1,-1,0,-9,-5,7,4,0
Leverkusen v Hamburg,0,-2.8999999999999986,1,1,-56,-2,-44,-28,-17,25,-48,-22,2,-2,-1,1,1,2,0,5,1,0,0,0,32,-56,-88,4,0,0,-3,-6,4,-3,-1
Leverkusen v Hannover,0,0.09999999999999787,2,-1,102,-1,111,52,61,49,51,12,0,0,8,-8,0,-1,1,3,3,0,3,0,100,110,10,-1,-1,0,2,1,4,-1,1
Leverkusen v Hertha Berlin,0,-1.7000000000000028,8,5,64,2,76,15,48,38,35,-9,0,0,2,-2,2,0,-1,2,0,0,1,0,74,70,-4,10,-1,0,-1,0,-1,1,1
Leverkusen v Hoffenheim,0,0.3999999999999986,7,5,90,9,97,59,41,63,35,0,0,0,-1,1,3,2,-1,4,2,0,0,0,93,90,-3,3,1,0,-10,-6,6,4,0
Leverkusen v Ingolstadt,0,-0.3999999999999986,-6,-2,-23,-1,-27,-2,-20,-47,24,1,-2,2,-1,1,-4,-3,1,-7,-3,0,1,0,-63,-47,16,1,0,0,0,-2,-2,-2,1
Leverkusen v Mainz,0,-0.5,13,6,181,2,185,108,81,97,64,33,7,-7,-2,2,7,5,0,8,2,0,3,0,157,196,39,7,0,0,-13,-5,13,8,0
Leverkusen v Schalke,1,-0.5,6,4,58,-25,60,55,12,51,8,9,1,-1,4,-4,4,1,0,3,1,0,2,0,69,55,-14,-9,0,0,7,8,2,1,0
Leverkusen v Stuttgart,0,0.9000000000000021,3,0,113,0,108,64,39,0,54,51,0,0,-4,4,4,2,0,-2,2,0,2,0,11,117,106,4,-1,0,6,7,4,1,0
Leverkusen v Werder Bremen,2,-2.099999999999998,1,1,123,-20,134,63,56,36,80,5,3,-3,-3,3,3,2,0,5,-1,0,1,0,106,125,19,-6,1,0,-15,-13,7,2,-1
Leverkusen v Wolfsburg,0,-1.3999999999999986,2,0,-50,3,-33,-24,-22,36,-43,-39,1,-1,3,-3,2,-3,1,3,0,0,3,0,43,-45,-88,5,0,0,-4,-6,-4,-2,1
Mainz v Augsburg,0,-2.799999999999997,2,-1,0,-3,2,8,-13,17,-24,5,2,-2,-5,5,3,5,1,5,1,0,1,0,9,7,-2,7,0,0,-3,-3,4,0,0
Mainz v Bayern,2,-0.09999999999999787,-6,-2,-218,2,-235,-106,-112,-45,-108,-65,-2,2,-5,5,-5,-2,0,-4,-1,0,0,0,-124,-228,-104,5,0,0,10,7,-9,-3,0
Mainz v Borussia Dortmund,2,-1.0,0,0,-14,-2,-8,-5,-4,-26,-12,29,2,-2,4,-4,-1,-1,-1,1,1,0,2,0,-40,-19,21,0,-1,0,3,-2,-1,-5,-1
Mainz v Mönchengladb.,0,-0.1999999999999993,-1,-3,-124,-6,-123,-61,-56,21,-72,-67,2,-2,-2,2,-1,-2,1,7,1,0,0,0,-12,-109,-97,4,0,0,6,7,-5,1,1
Mainz v Darmstadt,1,-2.6000000000000014,-2,-2,119,7,121,69,56,-4,89,40,1,-1,1,-1,3,3,0,3,1,0,1,0,31,128,97,1,-2,0,-8,-7,1,1,0
Mainz v Eintracht Frankfurt,0,-0.6000000000000014,-1,-1,15,0,11,15,-9,-24,31,0,-4,4,0,0,-1,-1,1,-10,-2,0,-1,0,4,10,6,-9,-2,0,2,-2,-4,-4,2
Mainz v FC Cologne,2,-0.6999999999999993,3,1,36,4,41,35,2,2,1,34,0,0,-1,1,1,0,0,3,-1,0,-1,0,9,43,34,-1,0,0,0,-2,-2,-2,1
Mainz v Hamburg,1,-2.5,3,-1,50,-6,49,39,15,19,11,25,1,-1,4,-4,1,0,0,2,0,0,1,0,32,54,22,2,-1,0,-13,-10,4,3,0
Mainz v Hannover,0,-0.6000000000000014,2,-1,33,-9,27,25,17,44,-2,0,4,-4,-4,4,1,3,1,7,1,0,1,0,68,32,-36,-2,0,0,-4,-1,0,3,2
Mainz v Hertha Berlin,1,-0.5999999999999979,-1,1,-147,-8,-132,-94,-72,-47,-49,-69,-2,2,1,-1,2,0,0,-12,-2,0,0,0,-72,-141,-69,9,1,0,5,3,-7,-2,0
Mainz v Hoffenheim,0,-0.29999999999999716,1,-1,130,19,127,75,81,49,46,60,2,-2,1,-1,1,4,0,13,3,0,1,0,63,118,55,0,-1,0,-7,-6,9,1,0
Mainz v Ingolstadt,2,-0.8999999999999986,-4,-1,8,4,9,-1,4,-78,37,43,0,0,-1,1,-4,-1,0,-1,0,0,1,0,-88,1,89,-3,0,0,14,7,-9,-7,0
Mainz v Leverkusen,0,1.0,2,0,-45,10,-47,-25,-20,-31,-13,1,-7,7,2,-2,-1,3,1,-5,2,0,-1,0,-64,-43,21,-1,1,0,8,7,-4,-1,2
Mainz v Schalke,0,0.6999999999999993,-3,-1,-84,-1,-80,-54,-29,-38,-25,-19,-1,1,-1,1,-6,-4,0,-4,-2,0,0,0,-51,-69,-18,10,0,0,0,-1,2,-1,1
Mainz v Stuttgart,1,-0.1999999999999993,0,-1,113,8,106,52,53,2,95,9,0,0,0,0,-1,-1,0,0,0,0,-1,0,29,107,78,-3,1,0,2,4,-3,2,0
Mainz v Werder Bremen,2,-0.1999999999999993,-2,3,85,-18,90,54,30,-8,78,12,0,0,-1,1,0,-2,-2,-2,-3,0,1,0,40,82,42,-7,-1,0,-4,-2,7,2,-3
Mainz v Wolfsburg,0,-1.7000000000000028,3,3,-185,-13,-182,-101,-82,-23,-109,-51,1,-1,-2,2,1,2,0,-3,-2,0,0,0,-81,-189,-108,5,0,-1,5,2,-5,-3,1
Schalke v Augsburg,1,-3.0,9,7,167,3,165,86,87,48,131,-3,5,-5,5,-5,7,5,0,6,3,0,-2,0,130,171,41,0,0,0,-13,-4,13,9,0
Schalke v Bayern,2,-1.8000000000000007,-6,-5,-294,9,-297,-167,-131,-87,-209,-4,-3,3,-1,1,-5,-5,0,-5,-1,0,0,0,-243,-292,-49,5,0,0,4,3,-2,-1,2
Schalke v Borussia Dortmund,1,-1.6000000000000014,-2,-3,41,26,48,10,17,-8,0,35,-3,3,-3,3,-3,-2,0,-3,-1,0,0,0,-25,55,80,4,0,0,5,6,1,1,0
Schalke v Mönchengladb.,0,-0.3999999999999986,-5,-4,-103,5,-93,-77,-18,-32,-46,-19,-2,2,0,0,-5,-3,0,3,0,0,-2,0,-32,-99,-67,12,0,0,-5,-8,-1,-3,0
Schalke v Darmstadt,1,-2.8000000000000007,7,4,252,15,248,145,118,67,157,40,3,-3,-3,3,5,2,0,9,5,0,2,0,177,264,87,-6,0,0,-10,-3,9,7,-1
Schalke v Eintracht Frankfurt,0,-0.5999999999999979,5,4,37,-1,36,20,24,24,34,-12,4,-4,5,-5,2,1,0,7,1,0,-1,0,76,26,-50,-10,1,0,-10,-6,7,4,0
Schalke v FC Cologne,2,0.3999999999999986,2,5,98,-16,109,66,39,66,29,9,-1,1,-1,1,1,0,-1,7,3,0,0,0,110,100,-10,-12,0,0,0,1,3,1,-1
Schalke v Hamburg,0,-2.1999999999999993,9,8,127,2,132,80,60,53,82,6,1,-1,4,-4,6,4,-1,9,1,0,3,0,139,125,-14,-7,0,0,0,4,5,4,0
Schalke v Hannover,0,-0.5,13,6,89,-5,103,50,46,51,7,39,4,-4,2,-2,10,7,0,11,3,0,0,0,59,106,47,5,1,0,-11,-4,10,7,0
Schalke v Hertha Berlin,0,-0.5,3,-2,44,3,61,33,20,-6,38,22,-2,2,-2,2,3,4,1,6,2,0,0,0,17,65,48,3,0,-1,2,1,1,-1,1
Schalke v Hoffenheim,0,0.6999999999999993,1,0,64,-10,73,44,27,60,42,-30,2,-2,-2,2,2,3,1,7,2,0,0,0,108,72,-36,1,0,0,-5,-6,3,-1,1
Schalke v Ingolstadt,1,-0.29999999999999716,6,3,54,-13,68,37,23,-12,45,27,-1,1,-1,1,8,5,0,2,0,0,1,0,21,64,43,-4,0,0,-14,-9,7,5,-1
Schalke v Leverkusen,2,0.40000000000000213,4,2,22,13,26,8,16,5,21,-1,-2,2,2,-2,4,2,1,-3,3,0,1,0,25,43,18,6,0,0,-15,-7,19,8,2
Schalke v Mainz,0,0.40000000000000213,8,6,95,8,93,61,41,19,57,24,2,-2,2,-2,3,2,1,9,4,0,1,0,50,106,56,3,-2,0,1,2,-3,1,0
Schalke v Stuttgart,1,-1.0,1,-3,-27,2,-31,-26,-18,-16,-17,-10,-5,5,2,-2,-1,2,0,-10,0,0,1,0,-19,-23,-4,1,-1,0,-4,-1,4,3,1
Schalke v Werder Bremen,2,-0.3000000000000007,3,1,94,0,97,50,53,33,51,21,3,-3,-1,1,6,4,1,5,2,0,2,0,70,109,39,1,-1,0,0,3,-1,3,0
Schalke v Wolfsburg,0,-1.1999999999999993,8,2,-42,-3,-42,-20,-18,4,-43,1,2,-2,0,0,0,2,0,6,1,0,2,0,2,-38,-40,-3,0,0,-1,4,3,5,2
Stuttgart v Augsburg,2,-3.6000000000000014,4,2,34,-5,25,26,20,48,16,-18,2,-2,5,-5,0,2,-2,6,1,0,-2,0,55,28,-27,-5,-1,0,2,2,-2,0,-1
Stuttgart v Bayern,2,-2.0,3,2,-286,6,-290,-154,-137,-72,-194,-24,1,-1,6,-6,0,0,0,1,2,0,-2,0,-196,-293,-97,3,-1,0,9,6,-11,-3,1
Stuttgart v Borussia Dortmund,2,-0.20000000000000284,-4,-4,-88,5,-93,-39,-45,-7,-43,-34,-2,2,-3,3,-4,-4,-1,4,-1,0,-5,0,-31,-107,-76,-5,0,0,17,11,-12,-6,-2
Stuttgart v Mönchengladb.,2,-0.1999999999999993,3,1,-83,-21,-72,-35,-48,-8,-48,-27,1,-1,-3,3,1,2,-1,4,2,0,1,0,-27,-70,-43,0,1,0,0,2,-1,2,1
Stuttgart v Darmstadt,0,-3.5,3,0,112,-8,111,75,49,15,63,45,3,-3,-4,4,3,-1,0,8,4,0,-4,0,43,114,71,-2,1,0,-1,0,0,1,0
Stuttgart v Eintracht Frankfurt,2,-0.7000000000000028,8,3,15,-9,19,25,3,19,13,-5,3,-3,-1,1,4,3,0,6,-2,0,-3,0,73,26,-47,2,-2,0,-1,5,9,6,1
Stuttgart v FC Cologne,2,0.10000000000000142,6,7,32,-9,41,34,17,54,22,-26,4,-4,-3,3,5,4,0,13,2,0,0,0,79,42,-37,3,1,0,-3,0,3,3,0
Stuttgart v Hamburg,0,-0.5,2,0,-77,-14,-83,-38,-36,17,-69,-22,1,-1,0,0,2,2,0,4,1,0,-2,0,-6,-81,-75,-1,1,0,-1,3,-2,4,0
Stuttgart v Hannover,2,2.0,2,1,38,15,35,3,47,18,26,6,7,-7,-5,5,3,4,0,13,5,0,-1,0,30,42,12,1,0,0,3,4,-3,1,0
Stuttgart v Hertha Berlin,0,-0.5,3,1,26,-21,17,50,2,70,16,-34,4,-4,1,-1,0,0,0,9,-1,0,-4,0,75,13,-62,-4,1,0,-13,-10,7,3,0
Stuttgart v Hoffenheim,0,2.200000000000003,7,3,-87,-7,-86,-45,-37,22,-73,-30,5,-5,-6,6,7,8,0,10,6,0,1,0,-16,-82,-66,-1,1,0,7,7,-4,0,2
Stuttgart v Ingolstadt,0,-1.0,3,1,14,-10,31,14,16,33,5,-8,4,-4,-4,4,5,1,0,10,0,0,1,0,45,25,-20,5,2,0,1,-5,-2,-6,0
Stuttgart v Leverkusen,2,2.700000000000003,0,-2,34,-10,23,24,8,-5,12,26,-1,1,1,-1,0,1,-1,-2,-1,0,-1,0,-2,45,47,4,-1,0,-6,-4,5,2,-1
Stuttgart v Mainz,2,-0.3000000000000007,-4,-3,-13,-3,-12,-18,-2,14,-10,-25,-5,5,5,-5,-3,-3,-1,-4,-1,0,0,0,14,-7,-21,6,0,0,-2,-2,-3,0,0
Stuttgart v Schalke,2,-0.5,8,1,-47,-22,-37,-11,-20,15,-28,-17,-1,1,2,-2,6,7,0,8,4,0,0,0,25,-56,-81,-6,2,0,2,1,2,-1,0
Stuttgart v Werder Bremen,1,-0.6000000000000014,6,4,90,-1,86,55,30,-5,79,10,-1,1,0,0,6,3,1,-3,-1,0,-1,0,7,82,75,0,0,0,4,4,-1,0,1
Stuttgart v Wolfsburg,0,-0.7000000000000028,-3,-2,-218,-16,-215,-122,-102,-17,-182,-26,1,-1,-2,2,-2,1,0,-4,-1,0,1,0,-115,-218,-103,6,0,0,6,0,-5,-6,1
Werder Bremen v Augsburg,2,-2.0,10,6,56,9,44,36,30,72,-3,-4,5,-5,2,-2,7,4,1,7,6,0,0,0,89,42,-47,-8,-1,0,5,3,-1,-2,1
Werder Bremen v Bayern,2,0.1999999999999993,-5,0,-336,16,-336,-202,-141,-115,-206,-25,-2,2,0,0,-4,-3,-1,-6,0,0,-3,0,-283,-334,-51,5,-1,0,-3,-2,0,1,-1
Werder Bremen v Borussia Dortmund,2,-1.0999999999999979,1,0,-224,-1,-216,-118,-106,-33,-189,-4,-4,4,-1,1,0,-1,-1,1,1,0,-1,0,-147,-194,-47,5,0,0,-7,0,7,7,-1
Werder Bremen v Mönchengladb.,0,0.09999999999999787,7,2,-119,-12,-98,-59,-59,8,-93,-32,1,-1,-7,7,3,3,-1,2,2,0,0,0,-10,-100,-90,9,0,0,4,0,-4,-4,0
Werder Bremen v Darmstadt,1,-1.5999999999999979,-1,0,81,-1,82,41,33,1,51,21,-1,1,0,0,2,2,1,-2,0,0,1,0,27,85,58,-1,1,0,-2,-3,0,-1,0
Werder Bremen v Eintracht Frankfurt,0,-0.3000000000000007,3,-2,78,-1,79,47,37,52,30,1,2,-2,-2,2,0,0,0,3,0,0,0,0,70,85,15,5,0,0,-3,-4,3,-1,0
Werder Bremen v FC Cologne,1,0.0,2,2,-57,11,-58,-38,-23,27,-92,3,3,-3,-2,2,1,-1,0,4,0,0,-1,0,6,-47,-53,6,-1,0,0,2,1,2,1
Werder Bremen v Hamburg,2,-1.3000000000000007,-2,0,-47,-10,-49,-17,-25,10,-58,6,1,-1,-1,1,-1,0,0,9,4,0,1,0,-22,-54,-32,5,0,0,2,3,-5,1,-2
Werder Bremen v Hannover,0,0.8000000000000007,-1,-2,-4,10,2,-8,9,23,-11,-14,-1,1,-4,4,3,5,1,0,1,0,0,0,15,7,-8,1,-2,0,-4,4,6,8,1
Werder Bremen v Hertha Berlin,1,-0.5,0,0,-47,2,-50,-32,-21,-39,4,-17,-2,2,0,0,-2,1,0,-8,-4,0,1,0,-54,-56,-2,-1,0,0,-4,-2,1,2,-2
Werder Bremen v Hoffenheim,1,1.6000000000000014,1,1,-13,0,-7,-1,-4,45,-44,-8,5,-5,4,-4,1,1,0,7,1,0,0,0,55,-7,-62,10,-1,0,-4,-6,5,-2,0
Werder Bremen v Ingolstadt,2,-0.7000000000000028,0,-1,42,-2,36,32,12,6,21,19,0,0,1,-1,0,0,0,0,-1,0,0,0,9,34,25,-1,-3,0,-5,-5,-1,0,0
Werder Bremen v Leverkusen,2,0.3000000000000007,-1,1,-71,7,-72,-33,-38,-26,-41,-3,0,0,3,-3,-1,-1,0,1,-1,0,-3,0,-63,-62,1,6,0,0,-1,3,4,4,-1
Werder Bremen v Mainz,1,1.1999999999999993,3,2,-26,8,-22,-22,-4,15,-30,-12,-2,2,7,-7,-1,-1,-1,-4,1,0,-2,0,15,-31,-46,11,1,0,7,-4,-3,-11,0
Werder Bremen v Schalke,2,-0.8000000000000007,-3,-4,27,-19,24,19,3,7,-2,16,-5,5,3,-3,-4,-2,0,-2,-2,0,1,0,10,21,11,-3,0,0,-3,-4,0,-1,1
Werder Bremen v Stuttgart,0,1.5,-1,0,-44,11,-38,-42,-10,-2,-43,-5,0,0,1,-1,-2,0,1,0,1,0,2,0,-7,-34,-27,3,-1,0,6,3,-7,-3,0
Werder Bremen v Wolfsburg,0,0.3999999999999986,6,3,-93,0,-94,-21,-62,62,-124,-18,2,-2,1,-1,2,4,-1,11,2,0,-1,0,6,-86,-92,4,-1,0,6,7,-11,1,0
Wolfsburg v Augsburg,2,-2.400000000000002,3,3,233,5,231,156,112,87,182,0,3,-3,9,-9,3,4,-1,18,4,0,0,0,203,213,10,-3,0,0,-6,-5,8,1,-1
Wolfsburg v Bayern,2,-1.3000000000000007,0,3,-215,12,-214,-135,-95,-96,-118,-17,-6,6,-1,1,1,3,0,-15,-1,0,-3,0,-198,-222,-24,7,0,0,20,7,-19,-13,0
Wolfsburg v Borussia Dortmund,2,0.20000000000000284,2,-1,39,15,43,32,11,14,40,-11,0,0,1,-1,4,-1,0,4,3,0,-2,0,51,66,15,9,-1,0,-8,1,8,9,-1
Wolfsburg v Mönchengladb.,0,0.5999999999999979,-3,-5,-51,18,-64,-28,-19,-48,-44,46,0,0,2,-2,-5,-2,1,-3,-1,0,0,0,-103,-55,48,-11,-1,0,-3,1,3,4,1
Wolfsburg v Darmstadt,1,-2.400000000000002,2,0,205,-10,197,114,100,24,132,57,4,-4,-1,1,0,0,0,8,1,0,0,0,75,196,121,-8,1,0,2,4,2,2,0
Wolfsburg v Eintracht Frankfurt,0,0.7999999999999972,-3,-2,126,35,125,73,56,0,84,45,-1,1,2,-2,-4,-2,0,1,1,0,-3,0,40,131,91,3,0,0,1,2,2,1,1
Wolfsburg v FC Cologne,1,1.0,8,5,163,-7,167,88,80,52,70,46,3,-3,5,-5,4,4,0,7,3,0,-2,0,82,158,76,-5,-1,0,-12,-9,1,3,0
Wolfsburg v Hamburg,1,0.0,2,1,23,-11,33,18,12,4,21,5,0,0,3,-3,3,4,0,6,2,0,2,0,23,39,16,3,-1,0,-2,3,1,5,-1
Wolfsburg v Hannover,1,0.5999999999999979,7,2,169,8,175,107,75,29,132,20,4,-4,-3,3,7,8,1,12,6,0,0,0,109,177,68,-1,1,0,-4,-6,6,-2,1
Wolfsburg v Hertha Berlin,0,0.40000000000000213,0,-2,51,10,51,27,16,13,69,-39,-2,2,-5,5,2,1,0,-2,2,0,-1,0,77,58,-19,3,-1,0,0,-1,5,-1,0
Wolfsburg v Hoffenheim,0,1.5,8,5,63,-5,60,52,24,27,38,11,4,-4,0,0,7,5,1,10,3,0,1,0,40,68,28,-6,0,0,-9,0,8,9,1
Wolfsburg v Ingolstadt,0,0.6000000000000014,6,4,47,3,56,32,17,-33,57,23,4,-4,3,-3,3,3,1,6,4,0,2,0,-8,54,62,-4,0,0,-5,-2,4,3,2
Wolfsburg v Leverkusen,0,1.6999999999999993,0,-1,3,5,17,-8,18,-7,7,10,2,-2,5,-5,1,2,0,9,1,0,-4,0,-22,12,34,7,-1,0,-6,-4,8,2,0
Wolfsburg v Mainz,1,0.6000000000000014,3,5,33,12,29,15,21,56,-2,-18,0,0,0,0,3,1,0,1,0,0,0,0,37,29,-8,-5,0,0,-6,-3,4,3,0
Wolfsburg v Schalke,0,1.3000000000000007,-2,-2,140,30,158,74,64,48,106,-15,-2,2,-4,4,1,-1,1,5,0,0,1,0,118,162,44,10,0,0,2,-1,-2,-3,1
Wolfsburg v Stuttgart,0,0.29999999999999716,6,1,76,18,72,43,39,6,48,29,2,-2,-1,1,5,5,2,2,3,0,0,0,23,89,66,-3,1,0,-6,-7,-1,-1,2
Wolfsburg v Werder Bremen,0,1.5,1,-1,142,-3,155,77,70,17,122,6,-2,2,-2,2,2,3,1,7,5,0,0,0,90,157,67,-1,-2,0,-4,-4,-1,0,0
