_description,_OUTPUT,averageAgeDiff,shotTotalDiff,shotOnGoalDiff,passTotalDiff,passLongDiff,passSuccessDiff,passForwardDiff,passBackwardDiff,passTargetFinalThirdDiff,passTargetMiddleThirdDiff,passTargetDefensiveThirdDiff,cornerFavourDiff,cornerAgainstDiff,foulReceivedDiff,foulCommitedDiff,assistShotDiff,assistShotIntentionalDiff,assistShotIntentionalGoalDiff,crossFavourTotalDiff,crossFavourSuccessDiff,crossAgainstTotalDiff,offsideCommittedDiff,offsideReceivedDiff,possessionAttackDiff,possessionTotalDiff,possessionDefenceDiff,interceptionDiff,cardYellowDiff,cardRedDiff,tackleTotalDiff,tackleSuccessDiff,dribbleTotalDiff,dribbleSuccessDiff,goalDiff
AC Milan v Atalanta,1,-2.8000000000000007,1,2,-33,5,-28,-10,-15,-16,-13,2,2,-2,1,-1,0,1,0,1,1,0,1,0,-41,-35,6,-3,0,0,-12,-8,6,4,0
AC Milan v Bologna,2,0.6999999999999993,6,4,91,-19,85,65,43,57,55,-2,6,-6,-3,3,2,2,0,17,2,0,2,0,103,83,-20,-8,-2,0,-9,-2,9,7,0
AC Milan v Carpi,1,0.5,9,5,288,7,299,179,134,93,173,46,3,-3,-6,6,7,2,0,13,3,0,1,0,238,301,63,-1,-1,0,-25,-11,19,14,0
AC Milan v Chievo,0,-3.6000000000000014,5,1,79,7,89,67,34,46,35,21,3,-3,0,0,4,1,0,8,3,0,-1,0,95,96,1,-3,0,0,-7,-7,5,0,0
AC Milan v Empoli,0,2.099999999999998,-4,-1,46,25,35,33,35,33,-6,41,-3,3,2,-2,-5,-4,0,8,2,0,-2,0,33,46,13,1,-2,0,2,1,1,-1,0
AC Milan v Fiorentina,0,-1.1999999999999993,-3,-2,-193,7,-189,-100,-97,-35,-121,-44,-1,1,2,-2,-3,-2,0,-6,-3,0,3,0,-101,-189,-88,5,-2,0,8,7,-4,-1,1
AC Milan v Frosinone,1,-0.10000000000000142,7,7,98,-10,98,66,49,38,68,10,6,-6,0,0,8,7,0,16,8,0,-1,0,90,110,20,-2,-2,0,0,2,5,2,-2
AC Milan v Genoa,0,-0.8000000000000007,2,-1,13,-8,14,12,1,4,-3,12,-1,1,-3,3,0,2,0,1,2,0,-1,0,26,21,-5,3,0,0,-1,-1,-5,0,1
AC Milan v Inter,0,-0.6000000000000014,-1,-3,-34,-6,-35,2,-32,-19,9,-21,-3,3,4,-4,-1,1,1,-3,-1,0,1,0,18,-25,-43,8,-1,0,-10,-7,7,3,1
AC Milan v Juventus,2,-2.099999999999998,0,0,-28,0,-39,-5,-24,-3,0,-26,0,0,5,-5,-3,-2,0,0,0,0,-1,0,18,-32,-50,4,-1,0,8,9,-4,1,0
AC Milan v Lazio,1,-1.0,-1,-3,10,-5,4,14,-3,0,17,-4,1,-1,7,-7,2,1,0,-2,0,0,-3,0,1,6,5,-3,0,0,2,5,-4,3,0
AC Milan v Napoli,2,0.6999999999999993,3,0,-51,-7,-50,-31,-16,49,-77,-19,2,-2,-3,3,-1,-1,-1,6,1,0,-4,0,39,-48,-87,7,0,0,-5,-4,3,1,-1
AC Milan v Palermo,0,0.3999999999999986,5,3,62,-14,76,30,29,60,5,-2,1,-1,-2,2,5,1,0,3,-1,0,2,0,65,59,-6,5,-1,-1,1,2,-4,1,1
AC Milan v Roma,2,-1.0999999999999979,-4,-1,-133,-4,-136,-69,-76,-69,-78,4,2,-2,-1,1,-4,-4,-1,-2,0,0,-1,0,-118,-134,-16,2,1,0,4,5,2,1,-1
AC Milan v Sampdoria,0,-0.1999999999999993,6,-1,6,12,10,1,11,53,-24,-16,0,0,-2,2,5,0,0,5,0,0,4,0,54,26,-28,2,-1,0,-3,-1,6,2,2
AC Milan v Sassuolo,0,-0.7000000000000028,1,-2,-17,-7,6,-17,-4,-19,-8,8,-1,1,-3,3,0,0,0,-1,0,0,2,0,-8,8,16,-3,0,-1,-8,-7,10,1,1
AC Milan v Torino,0,-2.0,5,1,99,-13,100,73,37,79,51,-22,1,-1,4,-4,3,2,1,6,3,0,-1,0,142,96,-46,-3,-1,0,-3,-1,3,2,1
AC Milan v Udinese,1,-0.3999999999999986,4,3,73,-9,81,52,26,39,23,17,3,-3,0,0,2,-1,0,6,2,0,1,0,80,86,6,3,0,0,-11,-9,6,2,-1
AC Milan v Verona,1,-1.1000000000000014,0,0,21,-15,26,26,-11,-17,1,32,-2,2,-1,1,0,1,0,-3,3,0,3,0,1,43,42,0,0,0,2,4,4,2,0
Atalanta v AC Milan,0,3.400000000000002,-1,1,46,6,48,40,13,1,48,6,3,-3,-2,2,-1,2,1,13,-1,0,0,0,15,53,38,5,-2,0,-9,-5,7,4,0
Atalanta v Bologna,0,1.5,7,4,-50,6,-44,-42,-8,-10,-26,-13,-3,3,-1,1,8,6,2,2,3,0,-2,0,-29,-35,-6,10,1,0,9,6,-7,-3,2
Atalanta v Carpi,0,2.099999999999998,3,-1,70,4,79,27,38,27,33,5,-1,1,1,-1,-1,-3,1,1,-3,0,3,0,51,75,24,4,-1,0,-3,-1,1,2,2
Atalanta v Chievo,0,-1.6999999999999993,0,1,-19,-5,-16,-7,2,13,-13,-2,4,-4,-2,2,-1,-2,0,16,-1,0,-2,0,9,-21,-30,2,1,0,-8,-5,5,3,0
Atalanta v Empoli,1,2.400000000000002,2,0,-77,25,-64,-44,-11,38,-66,-28,1,-1,-5,5,3,1,0,13,3,0,-1,0,-2,-71,-69,5,0,0,1,-1,0,-2,0
Atalanta v Fiorentina,2,1.1999999999999993,0,-1,-15,10,-27,7,-19,4,-21,6,1,-1,-3,3,1,3,0,3,0,0,-2,0,-25,-12,13,8,1,0,10,3,-7,-7,0
Atalanta v Frosinone,0,0.8000000000000007,11,6,96,0,97,60,50,46,66,-3,6,-6,1,-1,5,3,0,14,7,0,-1,0,97,102,5,-1,-1,0,0,3,2,3,1
Atalanta v Genoa,2,0.5,2,0,53,15,38,31,29,51,30,-20,-1,1,4,-4,1,2,0,6,4,0,-2,0,61,39,-22,-7,-1,0,1,2,-1,1,0
Atalanta v Inter,1,1.7999999999999972,3,1,-47,3,-49,-31,-10,1,-44,3,2,-2,4,-4,-3,0,0,4,-1,0,2,0,-4,-40,-36,0,0,0,10,5,-8,-5,0
Atalanta v Juventus,2,0.6000000000000014,-1,1,-172,-1,-176,-98,-78,-64,-75,-39,-3,3,-2,2,-1,0,-1,-7,1,0,-1,0,-143,-187,-44,4,0,0,13,5,-11,-8,-1
Atalanta v Lazio,0,0.3000000000000007,-2,0,-25,19,-29,-27,-3,-44,8,5,-3,3,2,-2,-1,1,0,4,2,0,-2,0,-55,-35,20,-3,-2,0,18,15,-9,-3,-1
Atalanta v Napoli,2,1.7999999999999972,1,2,-107,23,-122,-64,-25,14,-86,-20,3,-3,0,0,-2,-2,0,12,0,0,-1,0,-55,-106,-51,7,-1,0,5,5,-2,0,0
Atalanta v Palermo,0,2.6999999999999993,2,-3,-23,7,-32,0,-4,-3,-27,23,1,-1,-1,1,1,1,1,4,3,0,-3,0,-32,-29,3,-7,1,0,-4,-6,-5,-2,2
Atalanta v Roma,1,0.09999999999999787,0,0,-132,5,-136,-80,-59,-55,-56,-28,0,0,0,0,0,-3,-1,-9,1,0,0,0,-111,-117,-6,5,-1,0,10,11,-2,1,0
Atalanta v Sampdoria,0,1.5,4,2,-33,-9,-22,4,-12,76,-40,-43,2,-2,2,-2,4,2,0,18,2,0,1,0,50,-29,-79,-3,-1,0,8,6,-5,-2,-1
Atalanta v Sassuolo,1,1.8000000000000007,-2,0,30,1,31,-4,23,-5,20,4,0,0,-3,3,-2,-1,0,-2,-1,0,1,0,10,25,15,6,-1,0,-4,-3,-3,1,0
Atalanta v Torino,2,0.10000000000000142,2,1,71,10,61,65,17,34,57,-8,1,-1,4,-4,-1,-4,0,4,-1,0,-2,0,35,53,18,-1,0,0,12,5,-13,-7,0
Atalanta v Udinese,1,0.7000000000000028,3,3,229,-3,220,133,99,72,133,31,1,-1,8,-8,-1,-2,-1,8,3,0,0,0,162,236,74,-5,-1,0,-7,-4,0,3,0
Atalanta v Verona,1,0.10000000000000142,5,1,6,-5,19,11,-3,20,8,-20,4,-4,3,-3,4,2,0,12,4,0,0,0,53,29,-24,3,-2,0,-9,-7,4,2,0
Bologna v AC Milan,2,0.5,-1,-1,-72,-2,-76,-42,-45,-30,-53,-4,2,-2,4,-4,1,2,0,-6,1,0,1,0,-77,-83,-6,-3,1,0,6,4,1,-2,-1
Bologna v Atalanta,0,-1.5,-1,-1,31,4,21,13,11,0,2,21,-4,4,-6,6,-2,-3,0,-10,-1,0,1,0,12,19,7,-11,1,0,-4,-7,0,-3,0
Bologna v Carpi,1,1.0,1,-1,144,0,153,99,60,35,88,34,1,-1,1,-1,0,-1,0,11,1,0,1,0,89,157,68,1,0,0,-1,1,2,2,0
Bologna v Chievo,2,-4.200000000000003,3,1,58,-7,64,16,33,17,36,-2,3,-3,3,-3,1,0,0,1,2,0,-1,0,49,80,31,12,-1,0,4,4,1,0,0
Bologna v Empoli,2,2.3000000000000007,-4,-5,-34,24,-49,-23,-15,-24,-18,5,-3,3,2,-2,-4,0,-2,-1,3,0,-1,0,-64,-46,18,-9,-1,0,6,2,-3,-4,0
Bologna v Fiorentina,1,-0.8000000000000007,-3,0,-144,1,-139,-63,-88,-19,-104,-29,-3,3,-4,4,-5,-4,0,-6,-3,0,-1,0,-83,-150,-67,3,0,0,6,1,-3,-5,0
Bologna v Frosinone,0,0.3000000000000007,2,2,-87,9,-72,-68,-35,-29,-64,-10,-3,3,-3,3,4,1,1,-10,-5,0,1,0,-79,-76,3,4,0,0,5,4,-1,-1,1
Bologna v Genoa,0,1.1999999999999993,2,0,-54,15,-47,-32,-26,8,-34,-33,2,-2,11,-11,1,0,1,1,0,0,0,0,-11,-53,-42,9,-2,0,4,-1,-8,-5,1
Bologna v Inter,2,-0.3000000000000007,-3,-1,-161,12,-158,-100,-75,-11,-118,-46,0,0,4,-4,-1,-2,0,-6,-3,0,0,0,-65,-155,-90,13,-1,0,5,3,-3,-2,0
Bologna v Juventus,1,0.1999999999999993,-1,0,-61,14,-67,-34,-33,-48,-24,5,-6,6,1,-1,0,-3,0,-10,-1,0,0,0,-104,-61,43,-7,-1,0,12,5,-13,-7,0
Bologna v Lazio,1,-0.9000000000000021,2,-1,-83,0,-83,-50,-48,-33,-50,-15,-2,2,-2,2,2,2,1,-11,2,0,0,0,-56,-71,-15,9,-1,0,16,10,-6,-6,2
Bologna v Napoli,0,-0.3000000000000007,-1,-3,-222,24,-215,-133,-106,-42,-163,-34,-1,1,-5,5,-1,0,2,-4,0,0,-2,0,-166,-212,-46,12,1,0,11,7,-8,-4,2
Bologna v Palermo,2,0.0,3,1,47,-8,61,24,27,45,-2,7,-1,1,3,-3,1,-2,-1,2,-4,0,0,0,83,53,-30,15,-1,0,-2,-7,0,-5,-1
Bologna v Roma,1,0.6000000000000014,1,1,-2,-13,-3,-8,-3,-10,-8,6,1,-1,-2,2,0,1,1,-4,-4,0,2,0,-17,10,27,0,1,0,-3,-1,-1,2,1
Bologna v Sampdoria,0,0.1999999999999993,1,1,-13,-4,-16,6,-17,-6,-4,0,0,0,2,-2,1,2,1,3,2,0,0,0,-44,1,45,11,-1,0,-3,0,5,3,2
Bologna v Sassuolo,2,-1.8999999999999986,-2,2,-48,10,-60,-35,-15,-23,-10,-16,1,-1,-1,1,-1,0,0,0,-1,0,2,0,-42,-51,-9,-3,1,0,5,6,-4,1,0
Bologna v Torino,2,-1.1999999999999993,-1,1,35,15,25,34,10,47,34,-37,1,-1,-1,1,-1,-1,0,-3,0,0,1,0,89,22,-67,-8,1,0,-4,-6,-2,-2,0
Bologna v Udinese,2,-0.5999999999999979,1,0,-24,8,-23,-7,-10,30,-37,-11,1,-1,1,-1,0,0,1,8,0,0,-1,0,-15,-34,-19,-2,1,0,-1,0,2,1,1
Bologna v Verona,2,0.3999999999999986,0,2,51,11,49,18,26,15,63,-33,-3,3,-4,4,0,-2,-1,-9,-3,0,0,0,53,30,-23,-2,1,0,-5,-5,-2,0,-1
Carpi v AC Milan,1,0.5999999999999979,-3,-4,-72,-7,-77,-42,-39,19,-69,-31,-5,5,2,-2,-4,-1,0,2,0,0,-4,0,-26,-73,-47,3,-1,0,11,3,-9,-8,0
Carpi v Atalanta,1,-2.0,-4,0,-95,2,-96,-67,-37,-32,-63,-11,1,-1,0,0,-3,-1,0,-10,-7,0,-1,0,-60,-105,-45,3,0,0,-6,-4,3,2,0
Carpi v Bologna,2,0.20000000000000284,5,3,41,16,36,20,24,3,18,24,1,-1,-5,5,3,1,0,5,0,0,-1,0,15,57,42,-2,0,0,-4,3,11,7,1
Carpi v Chievo,2,-4.200000000000003,-2,-2,-18,1,-16,3,-10,24,-29,-5,-4,4,2,-2,-5,-3,-2,8,-2,0,0,0,39,-11,-50,10,0,0,3,0,2,-3,-2
Carpi v Empoli,0,1.2000000000000028,3,1,-77,-3,-78,-52,-31,34,-73,-44,3,-3,-4,4,5,4,0,8,2,0,2,0,20,-79,-99,4,1,0,7,8,0,1,0
Carpi v Fiorentina,2,-1.1999999999999993,-1,-1,-216,25,-211,-131,-82,-8,-160,-45,1,-1,-5,5,-1,0,0,4,0,0,-1,0,-115,-211,-96,9,1,0,8,3,-1,-5,-1
Carpi v Frosinone,0,-0.6999999999999993,-3,-3,-44,-4,-40,-44,-17,-52,4,-13,-3,3,-6,6,-1,-1,1,-9,-2,0,-1,0,-50,-35,15,2,0,0,4,4,-3,0,1
Carpi v Genoa,0,0.9000000000000021,-1,-1,-16,3,-20,-11,-15,4,-8,-23,-3,3,5,-5,-1,0,1,-6,-5,0,-3,0,13,-49,-62,-6,1,0,-2,-4,0,-2,1
Carpi v Inter,2,-0.1999999999999993,2,0,-234,0,-215,-159,-90,-77,-142,-30,-1,1,4,-4,2,0,0,-12,0,0,2,0,-141,-216,-75,7,1,0,-4,1,7,5,-1
Carpi v Juventus,2,-1.5,-5,-3,-209,-4,-203,-122,-94,-65,-127,-25,-2,2,1,-1,-4,-1,-1,-4,-2,0,-3,0,-142,-208,-66,11,0,0,0,-1,0,-1,-1
Carpi v Lazio,2,-1.2999999999999972,-3,-3,-24,2,-37,-18,-8,11,-26,-11,1,-1,-3,3,-4,-1,-1,3,-2,0,-1,0,-7,-39,-32,-4,0,0,-5,1,13,6,-2
Carpi v Napoli,1,-0.40000000000000213,-7,-9,-187,9,-187,-119,-80,-56,-135,-9,-2,2,0,0,-5,-4,0,-3,-1,0,2,0,-155,-167,-12,0,0,0,3,5,0,2,0
Carpi v Palermo,1,-0.10000000000000142,4,3,-11,0,-10,-13,6,51,-47,-12,3,-3,-5,5,2,-1,-1,5,-1,0,-2,0,40,2,-38,8,-1,0,8,9,1,1,-1
Carpi v Roma,2,-1.0999999999999979,-4,-3,-264,-9,-275,-141,-121,-42,-181,-42,0,0,-3,3,-5,-3,0,-3,-1,0,0,0,-153,-257,-104,2,2,0,11,11,-6,0,0
Carpi v Sampdoria,0,-1.0,0,0,-75,-5,-75,-21,-53,-3,-38,-30,-1,1,-3,3,-2,-4,-1,6,-3,0,-3,0,-46,-102,-56,4,1,0,1,-3,4,-4,0
Carpi v Sassuolo,2,0.8999999999999986,-1,-2,-140,8,-145,-91,-56,-52,-60,-36,3,-3,5,-5,-2,-1,-1,-1,2,0,-1,0,-61,-143,-82,2,1,0,5,3,-2,-2,-1
Carpi v Torino,0,-0.9000000000000021,-2,0,-64,-4,-63,-22,-34,0,-38,-22,1,-1,5,-5,0,0,0,-3,2,0,-1,0,-32,-64,-32,-5,0,0,-3,-2,4,1,0
Carpi v Udinese,0,-0.6999999999999993,8,4,-5,-8,-12,-4,0,24,-25,-2,3,-3,-1,1,5,4,1,2,4,0,-1,0,3,-13,-16,-1,0,0,13,6,-11,-7,1
Carpi v Verona,1,-1.0999999999999979,-5,-3,-74,4,-80,-43,-42,-22,-52,-11,-1,1,-6,6,-4,-3,0,-6,0,0,1,0,-60,-83,-23,-6,0,0,3,2,-5,-1,0
Chievo v AC Milan,1,3.6000000000000014,6,3,-94,-4,-78,-71,-15,10,-54,-43,4,-4,-3,3,5,4,0,4,0,0,1,0,0,-95,-95,0,0,0,3,-3,-4,-6,0
Chievo v Atalanta,0,2.6000000000000014,-1,0,-13,-14,4,4,-9,8,-16,3,1,-1,1,-1,1,-2,0,9,-4,0,3,0,-5,-6,-1,1,2,0,-8,-5,5,3,0
Chievo v Bologna,1,4.199999999999999,-4,-2,-9,4,-9,-14,7,-54,6,41,-1,1,-3,3,-1,1,0,-4,-1,0,2,0,-90,2,92,7,1,0,4,8,0,4,0
Chievo v Carpi,0,4.300000000000001,7,2,124,9,131,83,53,25,70,42,3,-3,-5,5,4,3,0,8,3,0,0,0,53,137,84,3,1,0,7,6,-6,-1,0
Chievo v Empoli,1,5.0,2,0,-133,12,-126,-63,-75,-34,-100,-4,-3,3,-4,4,1,1,1,-4,1,0,0,0,-91,-127,-36,3,-1,0,0,-4,-2,-4,1
Chievo v Fiorentina,1,2.799999999999997,-6,-3,-152,0,-158,-75,-80,-53,-91,-10,-2,2,-2,2,-5,0,0,-4,-1,0,0,0,-124,-164,-40,-5,1,0,8,5,-5,-3,0
Chievo v Frosinone,0,3.0,8,3,142,-1,145,98,64,61,94,7,0,0,1,-1,8,4,-1,14,10,0,-1,0,117,154,37,1,-2,-1,10,3,-12,-7,0
Chievo v Genoa,0,3.6000000000000014,-1,-1,14,-3,11,23,-3,18,-4,5,0,0,-2,2,-3,1,0,3,1,0,0,0,36,16,-20,3,0,0,6,-1,-9,-7,0
Chievo v Inter,2,4.400000000000002,3,2,-64,-6,-59,-37,-34,5,-49,-29,1,-1,1,-1,3,4,0,3,4,0,2,0,-2,-45,-43,11,1,0,18,10,-17,-8,-1
Chievo v Juventus,2,1.8999999999999986,-10,-2,-185,13,-183,-108,-90,-35,-87,-76,-1,1,-4,4,-8,-6,-2,-7,-3,0,1,0,-44,-180,-136,7,0,0,10,4,-11,-6,-2
Chievo v Lazio,0,3.6999999999999993,-1,-1,-47,-3,-56,-42,-22,-24,-9,-31,-3,3,5,-5,0,2,2,-6,0,0,1,0,-36,-58,-22,2,0,0,10,8,-10,-2,3
Chievo v Napoli,2,4.099999999999998,-6,-4,-252,1,-253,-161,-119,-113,-160,-7,-4,4,-5,5,-4,-1,0,-15,-1,0,0,0,-232,-264,-32,15,0,0,19,9,-16,-10,0
Chievo v Palermo,0,4.199999999999999,-1,0,4,11,-11,12,-15,-13,-24,35,-1,1,-1,1,-1,-1,-1,-6,-1,0,1,0,-25,-9,16,-1,-1,0,18,7,-11,-11,0
Chievo v Roma,1,5.0,0,0,93,-2,93,56,46,21,62,21,2,-2,-5,5,1,3,0,8,3,0,-1,0,54,85,31,-3,0,0,2,0,-2,-2,-1
Chievo v Sampdoria,1,3.6000000000000014,2,-2,0,-17,3,17,-8,11,10,-14,-1,1,-2,2,3,1,0,5,3,0,1,0,-3,2,5,-2,0,0,6,5,-5,-1,0
Chievo v Sassuolo,1,2.599999999999998,0,1,-45,6,-38,-54,-5,-59,14,-15,0,0,-4,4,-1,-1,0,-10,1,0,3,0,-45,-38,7,11,2,0,8,6,-2,-2,0
Chievo v Torino,0,2.8000000000000007,-1,0,-14,-14,-13,9,-19,32,26,-68,0,0,-1,1,0,1,0,1,0,0,-1,0,67,-33,-100,-9,0,0,12,4,-10,-8,0
Chievo v Udinese,2,3.6000000000000014,4,4,-57,-10,-59,-42,-30,-25,-42,-5,-2,2,-7,7,1,1,0,-7,-2,0,-2,0,-49,-59,-10,-2,2,0,6,3,-7,-3,2
Chievo v Verona,1,2.799999999999997,0,0,-2,-10,15,9,-7,8,18,-25,-1,1,-3,3,1,0,0,0,0,0,-1,0,44,-3,-47,-11,0,0,-3,-8,-2,-5,0
Empoli v AC Milan,1,-1.0999999999999979,-1,1,114,-11,118,68,47,38,74,3,0,0,4,-4,-4,-1,0,1,0,0,0,0,80,120,40,-2,1,0,-11,-9,6,2,0
Empoli v Atalanta,2,-3.5,-5,-1,-33,-29,-25,-17,-18,-4,-25,-6,-1,1,10,-10,-3,-2,-1,-2,-3,0,-1,0,27,-32,-59,-10,-2,0,-20,-13,9,7,-1
Empoli v Bologna,1,-1.8000000000000007,-6,-3,85,-20,88,43,54,26,120,-47,0,0,5,-5,-5,0,0,4,-1,0,2,0,95,89,-6,-4,0,0,-4,-2,3,2,0
Empoli v Carpi,0,-1.3999999999999986,3,2,166,-14,177,92,63,10,108,39,0,0,7,-7,2,0,0,-2,0,0,0,0,111,180,69,-1,0,0,-6,-3,3,3,0
Empoli v Chievo,2,-4.0,5,7,58,-25,75,23,35,39,14,4,5,-5,-1,1,8,3,1,11,2,0,0,0,59,67,8,-1,0,0,-5,-2,4,3,1
Empoli v Fiorentina,0,-1.9000000000000021,-6,-5,-91,-18,-89,-30,-67,-40,-19,-38,-3,3,0,0,-6,-4,0,-4,-2,0,-1,0,-52,-110,-58,-1,-1,0,3,-4,-5,-7,1
Empoli v Frosinone,2,-1.5,4,10,172,-16,163,120,61,86,86,10,7,-7,5,-5,4,1,-1,8,0,0,-1,0,159,151,-8,-10,-1,0,-7,-4,2,3,-1
Empoli v Genoa,0,-1.8999999999999986,1,0,7,-5,2,31,-26,2,11,-6,-1,1,8,-8,-2,0,0,-3,1,0,0,0,5,-1,-6,-6,-1,0,-3,-2,0,1,1
Empoli v Inter,2,-0.9000000000000021,-1,1,-35,-1,-33,-22,-15,-13,26,-50,0,0,0,0,-2,-1,-1,-4,-3,0,0,0,13,-39,-52,3,-1,0,-2,-4,1,-2,-1
Empoli v Juventus,2,-3.1999999999999993,5,6,-36,-12,-44,-14,-28,-13,8,-38,0,0,6,-6,4,-1,-2,-5,-2,0,-2,0,1,-42,-43,-4,0,0,3,5,-3,2,-1
Empoli v Lazio,0,-2.1000000000000014,-4,-5,-16,-7,-18,-4,-4,-16,-17,24,1,-1,0,0,0,1,1,-3,-1,0,-1,0,-57,-9,48,0,3,0,-11,-10,3,1,1
Empoli v Napoli,1,-1.3000000000000007,0,1,-27,7,-27,-4,-15,2,-21,1,1,-1,1,-1,3,3,2,2,1,0,-1,0,-22,-22,0,3,0,0,-7,-2,-2,5,1
Empoli v Palermo,1,-0.8999999999999986,-2,-3,102,-3,103,59,47,22,61,26,2,-2,0,0,0,0,0,7,1,0,0,0,41,98,57,2,0,0,-3,-3,1,0,0
Empoli v Roma,2,-2.599999999999998,-3,1,-52,-6,-56,-27,-30,-51,-10,3,0,0,3,-3,1,1,0,-2,1,0,-2,0,-70,-72,-2,-10,-1,0,2,-1,-6,-3,-3
Empoli v Sampdoria,1,-1.8000000000000007,-2,0,115,-6,113,76,54,38,69,23,0,0,2,-2,1,3,0,8,0,0,-2,0,62,101,39,0,-1,0,10,4,-8,-6,-1
Empoli v Sassuolo,0,-2.3000000000000007,7,4,61,-35,70,35,25,17,64,-22,-1,1,3,-3,5,3,0,0,4,0,1,0,75,73,-2,1,0,0,-7,-4,4,3,0
Empoli v Torino,0,-2.400000000000002,0,1,22,-5,20,17,-6,30,32,-51,-1,1,-2,2,0,1,1,-5,-3,0,-4,0,71,3,-68,-3,1,0,6,1,-6,-5,1
Empoli v Udinese,1,-0.7000000000000028,5,5,172,-2,176,108,74,57,104,22,2,-2,7,-7,3,-2,-1,3,-2,0,-2,0,140,154,14,-12,-1,0,-11,-3,8,8,-1
Empoli v Verona,0,-2.0,-1,3,113,2,118,68,35,-3,62,47,2,-2,4,-4,0,-3,0,-5,-7,0,1,0,21,106,85,-4,-2,0,-11,-6,7,5,0
Fiorentina v AC Milan,0,-0.3000000000000007,5,3,9,0,6,1,3,15,2,-11,0,0,-3,3,4,1,0,1,1,0,-1,0,7,10,3,-2,0,0,-3,-2,1,1,1
Fiorentina v Atalanta,0,-0.8000000000000007,10,2,167,-13,178,96,75,73,94,4,1,-1,1,-1,8,4,1,4,-2,0,0,0,164,173,9,-3,-1,-1,-13,-4,9,9,2
Fiorentina v Bologna,0,0.5,4,4,180,2,175,113,78,65,93,33,3,-3,0,0,1,-1,0,10,1,0,-3,0,121,164,43,-7,-1,0,1,1,0,0,0
Fiorentina v Carpi,0,1.6000000000000014,0,2,197,-9,195,91,108,52,107,41,3,-3,6,-6,2,2,1,2,-3,0,-5,0,110,185,75,-4,-1,0,-10,-4,4,6,1
Fiorentina v Chievo,0,-3.6000000000000014,10,4,228,8,226,102,124,36,145,46,3,-3,-4,4,9,3,1,0,1,0,-6,0,138,235,97,5,0,0,-5,-3,4,2,2
Fiorentina v Empoli,1,2.3999999999999986,-7,-2,113,9,110,52,68,38,53,29,1,-1,-3,3,-4,-2,-1,5,1,0,0,0,55,103,48,3,2,0,0,-4,2,-4,-2
Fiorentina v Frosinone,0,0.8000000000000007,17,9,199,-19,212,85,121,134,66,8,6,-6,-1,1,14,8,1,11,3,0,-1,0,201,204,3,0,-1,0,3,4,-2,1,4
Fiorentina v Genoa,0,0.3000000000000007,4,1,92,-13,96,50,47,22,45,30,1,-1,0,0,0,0,0,-1,-2,0,-3,0,58,102,44,-3,0,0,-3,-2,0,1,0
Fiorentina v Inter,0,1.6000000000000014,2,4,143,8,129,71,76,55,67,25,1,-1,1,-1,2,1,-1,1,1,0,-1,0,83,135,52,-4,-3,0,-11,-5,5,6,-1
Fiorentina v Juventus,2,0.0,3,2,39,-3,35,10,22,20,56,-42,0,0,0,0,3,0,-1,-3,0,0,-2,0,74,13,-61,2,0,0,7,-3,-12,-10,-1
Fiorentina v Lazio,2,0.29999999999999716,2,3,121,0,113,39,62,-7,82,28,-1,1,5,-5,0,-3,-1,-6,-1,0,-2,0,35,116,81,2,1,0,0,1,-1,1,-1
Fiorentina v Napoli,1,1.2000000000000028,3,1,9,17,13,-13,26,53,-16,-22,4,-4,1,-1,5,1,1,6,2,0,-1,0,59,6,-53,6,0,0,-9,-7,5,2,0
Fiorentina v Palermo,1,1.3999999999999986,7,5,176,-7,181,105,72,37,101,41,1,-1,3,-3,5,2,0,4,4,0,0,0,93,176,83,2,0,0,-2,-1,-1,1,0
Fiorentina v Roma,2,1.8000000000000007,3,1,171,-2,178,94,74,48,118,7,4,-4,3,-3,4,1,-1,5,0,0,3,0,110,178,68,1,-3,0,-2,-2,-2,0,-2
Fiorentina v Sampdoria,1,-0.10000000000000142,-1,-2,83,1,92,7,68,-17,79,16,1,-1,4,-4,2,-1,1,-2,-3,0,-1,0,28,78,50,5,-1,0,1,0,3,-1,0
Fiorentina v Sassuolo,0,1.9000000000000021,7,5,66,-9,67,24,48,41,35,-4,3,-3,3,-3,4,3,1,10,6,0,2,0,58,75,17,2,-2,0,5,3,-6,-2,1
Fiorentina v Torino,0,0.6999999999999993,2,0,155,-9,153,92,60,9,138,6,-2,2,5,-5,0,-1,0,0,-2,0,0,0,81,138,57,-5,0,0,6,1,-9,-5,1
Fiorentina v Udinese,0,0.0,5,3,135,1,126,52,73,24,56,47,3,-3,0,0,3,0,0,-3,0,0,-2,0,49,132,83,-1,0,0,7,7,-5,0,1
Fiorentina v Verona,1,1.0999999999999979,4,1,123,1,123,69,63,26,123,-16,5,-5,-2,2,5,4,1,5,1,0,-1,0,85,117,32,-3,-1,0,-6,-2,5,4,1
Frosinone v AC Milan,2,0.6000000000000014,-1,-3,-235,2,-222,-136,-104,-130,-104,-6,-7,7,-1,1,-1,2,1,-10,-1,0,0,0,-203,-214,-11,3,1,0,-2,2,4,4,1
Frosinone v Atalanta,1,-0.8000000000000007,2,2,10,7,8,11,-2,1,0,9,3,-3,-1,1,0,3,0,7,2,0,2,0,-1,-3,-2,-4,1,0,17,7,-15,-10,0
Frosinone v Bologna,0,0.40000000000000213,2,2,-18,9,-21,-15,7,-27,15,5,4,-4,2,-2,4,2,0,5,-1,0,1,0,-24,-34,-10,5,-2,0,13,3,-13,-10,0
Frosinone v Carpi,0,0.0,-2,0,-4,11,-15,-2,-3,-20,3,14,-3,3,1,-1,-2,-2,0,-2,-2,0,1,0,-5,-15,-10,2,0,0,0,-6,-4,-6,0
Frosinone v Chievo,2,-4.699999999999996,2,1,24,0,20,14,18,45,-3,-9,4,-4,6,-6,3,2,0,11,2,0,2,0,52,15,-37,0,0,0,5,1,0,-4,0
Frosinone v Empoli,0,1.8999999999999986,0,-2,-64,15,-67,-41,-19,-3,-44,-14,1,-1,-6,6,2,3,0,10,6,0,1,0,-37,-50,-13,7,1,0,4,3,4,-1,0
Frosinone v Fiorentina,1,-0.5,-4,-1,-167,-1,-162,-83,-91,-59,-98,-20,0,0,-8,8,-3,-2,0,-7,-4,0,1,0,-137,-183,-46,6,0,0,6,4,-1,-2,0
Frosinone v Genoa,1,0.3999999999999986,6,1,-58,9,-61,-23,-28,24,-62,-12,3,-3,1,-1,-1,1,-1,3,-1,0,2,0,-5,-61,-56,-3,-3,0,1,-1,0,-2,1
Frosinone v Inter,2,0.6999999999999993,-2,0,-86,10,-86,-58,-38,-29,-70,1,-1,1,1,-1,-1,0,0,-8,-1,0,3,0,-96,-96,0,2,2,0,5,2,-5,-3,0
Frosinone v Juventus,2,-0.3000000000000007,-4,-4,-129,2,-139,-86,-55,-69,-67,-6,0,0,2,-2,-4,0,0,-10,0,0,-1,0,-123,-135,-12,2,0,0,12,3,-10,-9,0
Frosinone v Lazio,1,-1.1999999999999993,-1,1,-95,-7,-104,-44,-52,-50,-51,7,-1,1,2,-2,0,1,0,-8,0,0,1,0,-90,-103,-13,-5,0,0,-3,-5,-2,-2,0
Frosinone v Napoli,2,0.5,-8,-5,-277,13,-275,-173,-111,-69,-158,-58,-2,2,0,0,-3,1,-1,-4,-1,0,3,0,-173,-251,-78,7,2,0,3,4,1,1,-2
Frosinone v Palermo,2,2.0,3,-1,-11,1,-19,-18,3,-10,-7,2,2,-2,0,0,2,3,0,0,0,0,1,0,-14,-9,5,0,0,0,16,12,-3,-4,0
Frosinone v Roma,2,-0.5,-1,-3,-86,-15,-82,-59,-47,-41,-35,-29,-4,4,-3,3,-3,-5,-1,-11,-2,0,2,0,-48,-87,-39,3,-1,0,0,2,2,2,-1
Frosinone v Sampdoria,0,0.5,2,-1,-65,-3,-65,-31,-34,-12,-40,-13,0,0,4,-4,-2,-5,0,3,-1,0,-1,0,-17,-75,-58,3,-1,0,-4,-2,5,2,0
Frosinone v Sassuolo,2,1.5,-2,-2,-86,-1,-89,-53,-39,-15,-45,-32,-2,2,2,-2,1,0,0,-4,4,0,3,0,-30,-72,-42,1,1,0,-2,-2,0,0,0
Frosinone v Torino,2,-0.6999999999999993,-5,-4,-69,8,-75,-44,-43,-50,-20,-17,-7,7,2,-2,-6,-6,1,-11,-5,0,-1,0,-86,-78,8,3,-1,0,3,2,-6,-1,1
Frosinone v Udinese,0,-0.5,3,-1,-132,-13,-126,-89,-51,-28,-100,-12,-2,2,-9,9,2,3,0,-4,0,0,2,0,-80,-117,-37,3,1,0,2,3,6,1,1
Frosinone v Verona,0,-0.29999999999999716,2,-3,6,-9,8,16,-6,15,25,-30,0,0,-3,3,-1,2,1,-1,1,0,-1,0,26,10,-16,1,-1,-1,5,1,-2,-4,2
Genoa v AC Milan,0,-1.5999999999999979,3,2,-50,-3,-38,-30,-33,-26,-26,-11,2,-2,4,-4,0,0,0,-5,-1,0,1,0,-25,-37,-12,4,-2,0,3,5,1,2,1
Genoa v Atalanta,2,-0.3999999999999986,-2,-3,20,-7,25,11,8,9,23,-12,2,-2,-6,6,0,2,0,-5,0,0,2,0,35,34,-1,-1,1,0,-8,-4,9,4,0
Genoa v Bologna,2,0.8000000000000007,7,6,155,0,147,114,54,65,90,15,3,-3,4,-4,4,3,0,11,4,0,-4,0,139,155,16,-5,-1,0,-6,-5,3,1,0
Genoa v Carpi,2,0.5,-1,-1,-3,12,-11,-2,0,-31,9,19,1,-1,4,-4,-2,-1,0,-3,0,0,0,0,-33,-2,31,1,-2,1,2,-2,-3,-4,1
Genoa v Chievo,0,-3.099999999999998,1,1,18,14,23,-12,28,-18,34,2,3,-3,2,-2,0,0,-1,3,-3,0,-1,0,-13,13,26,-5,-1,0,2,2,-3,0,1
Genoa v Empoli,0,0.5999999999999979,8,7,39,7,46,27,32,97,3,-42,3,-3,1,-1,7,3,0,18,2,0,2,0,122,45,-77,5,-2,0,1,2,4,1,0
Genoa v Fiorentina,1,-0.6999999999999993,2,1,-85,-4,-72,-50,-32,42,-49,-76,1,-1,-1,1,1,2,0,11,2,0,1,0,45,-70,-115,11,0,0,-2,0,-1,2,0
Genoa v Frosinone,0,-0.7999999999999972,3,4,36,-19,40,24,27,13,47,-8,5,-5,0,0,4,2,0,11,2,0,0,0,36,55,19,0,-3,0,1,3,-1,2,1
Genoa v Inter,0,-2.1000000000000014,0,0,-151,-8,-150,-71,-73,5,-71,-88,-1,1,-2,2,1,0,0,-2,0,0,1,0,-43,-157,-114,3,0,0,-8,-6,6,2,0
Genoa v Juventus,2,-0.3000000000000007,-3,-3,7,6,7,-12,20,-4,46,-31,1,-1,0,0,-4,-3,0,-1,-2,0,0,0,34,19,-15,2,0,0,-7,-4,7,3,1
Genoa v Lazio,1,-0.8999999999999986,-1,-2,24,-5,20,7,8,-25,18,23,-5,5,1,-1,-1,0,0,-10,-2,0,1,0,-20,22,42,-10,-1,0,-2,1,1,3,0
Genoa v Napoli,1,0.1999999999999993,-1,-2,-43,18,-44,-32,-17,-6,10,-51,-4,4,2,-2,-1,0,0,-3,2,0,0,0,4,-30,-34,16,1,0,5,2,-4,-3,0
Genoa v Palermo,0,0.8999999999999986,5,3,106,-8,111,61,38,0,41,59,0,0,2,-2,6,4,1,-2,4,0,3,0,39,142,103,11,-2,0,-5,2,9,7,1
Genoa v Roma,2,-1.3000000000000007,-1,-1,-94,9,-93,-42,-41,-56,-22,-6,1,-1,4,-4,-1,-2,0,1,1,0,-3,0,-88,-83,5,1,0,0,-2,-3,1,-1,0
Genoa v Sampdoria,2,-1.0,-1,1,74,-5,82,53,40,55,54,-13,0,0,1,-1,0,0,0,10,2,0,0,0,119,87,-32,-1,0,0,-13,-7,10,6,-2
Genoa v Sassuolo,0,-0.29999999999999716,1,-3,-2,7,-6,-4,10,13,23,-29,1,-1,3,-3,-1,-2,0,3,-1,0,-3,0,35,8,-27,2,2,0,5,3,-1,-2,0
Genoa v Torino,0,-0.8000000000000007,0,-1,39,-17,51,39,12,37,41,-26,7,-7,6,-6,-3,-4,-2,17,1,0,0,0,89,39,-50,0,-1,0,-8,-7,6,1,0
Genoa v Udinese,0,0.0,6,7,148,8,145,82,73,45,89,24,1,-1,1,-1,5,4,0,0,1,0,2,0,112,140,28,-10,1,0,-2,-1,1,1,-1
Genoa v Verona,0,-0.6999999999999993,4,1,135,-15,138,92,44,50,70,16,-1,1,-2,2,5,0,0,0,-1,0,0,0,112,147,35,-1,-1,0,0,2,3,2,0
Inter v AC Milan,0,-1.4000000000000021,1,2,55,-9,47,45,16,27,18,16,4,-4,3,-3,1,2,0,7,1,0,3,0,33,42,9,-3,-1,0,11,8,-7,-3,0
Inter v Atalanta,0,-2.8999999999999986,5,2,155,-19,176,98,69,57,81,30,3,-3,-3,3,4,-2,0,6,1,0,2,0,129,168,39,-1,1,0,-15,-8,10,7,0
Inter v Bologna,0,-0.9000000000000021,9,6,122,-13,114,84,65,81,51,17,7,-7,0,0,6,2,0,21,4,0,1,0,118,134,16,1,0,0,-1,5,7,6,0
Inter v Carpi,1,0.1999999999999993,2,-2,247,-1,248,142,120,102,127,35,2,-2,5,-5,1,2,0,13,4,0,0,0,173,256,83,-10,-1,0,-5,-1,8,4,1
Inter v Chievo,0,-3.0,15,7,188,-8,192,118,93,84,77,52,6,-6,4,-4,13,5,0,20,7,0,-1,0,131,212,81,-2,-2,0,-10,-3,8,7,0
Inter v Empoli,0,1.8000000000000007,4,4,-57,9,-61,-37,-24,-9,-55,3,-1,1,2,-2,3,1,0,-5,-3,0,2,0,-47,-57,-10,-1,-1,0,-5,-4,2,1,1
Inter v Fiorentina,2,-1.0999999999999979,-4,-1,-50,12,-56,-38,-13,13,-46,-18,1,-1,0,0,-3,-1,-1,0,-1,0,3,0,-11,-62,-51,-3,3,1,1,-1,0,-2,-3
Inter v Frosinone,0,0.1999999999999993,4,3,132,-8,140,89,58,56,74,19,0,0,1,-1,3,-3,0,9,-2,0,-2,0,76,143,67,0,-1,0,-6,1,1,7,1
Inter v Genoa,0,0.5,11,8,168,4,168,86,92,85,45,49,2,-2,0,0,11,4,0,5,2,0,2,0,126,173,47,3,-1,0,-1,3,-2,4,0
Inter v Juventus,1,-0.6999999999999993,-1,1,1,3,-2,-4,15,20,0,-8,0,0,-1,1,-3,-2,0,1,-1,0,0,0,8,-11,-19,-4,-2,0,4,4,0,0,0
Inter v Lazio,2,0.8000000000000007,-1,1,130,13,108,69,67,33,62,42,0,0,2,-2,-2,-1,-1,-1,-1,0,1,0,43,111,68,-13,0,0,2,1,1,-1,-1
Inter v Napoli,0,0.5999999999999979,0,-2,-180,9,-176,-108,-79,-58,-108,-19,-2,2,-6,6,1,4,2,-4,2,0,-2,0,-124,-177,-53,-2,2,0,-3,-1,3,2,2
Inter v Palermo,0,0.5,0,-2,138,-1,133,79,60,8,66,67,1,-1,-5,5,1,-2,0,2,0,0,-1,0,34,117,83,-14,0,0,5,5,5,0,1
Inter v Roma,0,0.10000000000000142,-2,-2,-76,-3,-85,-53,-32,-13,-36,-37,-3,3,4,-4,0,-4,0,-9,-2,0,1,0,-44,-78,-34,-3,-1,0,11,9,-4,-2,1
Inter v Sampdoria,0,-1.4000000000000021,-7,-6,-55,0,-56,0,-39,2,-43,2,0,0,0,0,-5,-2,1,3,-2,0,0,0,-42,-67,-25,1,-1,0,8,1,-9,-7,1
Inter v Sassuolo,2,-1.3999999999999986,0,-5,51,3,42,10,48,3,23,31,-2,2,2,-2,3,3,0,-7,0,0,1,0,9,65,56,-3,1,0,2,5,3,3,0
Inter v Torino,2,-0.8999999999999986,6,2,190,9,199,124,78,101,116,-11,3,-3,0,0,2,1,0,11,3,0,-1,0,226,203,-23,2,0,0,0,-4,-4,-4,1
Inter v Udinese,0,0.0,4,5,175,9,174,104,92,97,72,29,2,-2,4,-4,4,2,0,13,2,0,0,0,154,164,10,-10,1,0,-3,0,2,3,0
Inter v Verona,0,-0.1999999999999993,11,10,98,0,102,49,60,67,49,-6,6,-6,-2,2,9,4,0,12,3,0,-2,0,127,101,-26,1,1,0,-1,3,2,4,0
Juventus v AC Milan,0,0.7999999999999972,3,2,109,-8,117,66,55,61,76,-14,2,-2,-6,6,0,-1,0,8,0,0,0,0,122,112,-10,2,0,0,-16,-9,8,7,0
Juventus v Atalanta,0,-1.8000000000000007,7,6,153,-2,150,77,76,22,77,54,0,0,2,-2,7,4,0,3,2,0,1,0,90,154,64,3,-1,0,-7,-6,-3,1,1
Juventus v Bologna,0,-0.1999999999999993,10,5,137,-16,140,85,64,65,62,23,4,-4,0,0,7,3,-1,8,3,0,2,0,128,147,19,-4,-3,0,-17,-9,13,8,0
Juventus v Carpi,0,1.3999999999999986,9,4,240,17,242,139,106,93,114,41,1,-1,4,-4,9,3,1,7,4,0,0,0,198,265,67,-1,-1,0,-22,-11,15,11,1
Juventus v Chievo,1,-3.3000000000000007,10,6,188,5,201,123,80,76,91,38,-1,1,1,-1,8,3,0,9,5,0,0,0,150,202,52,-6,0,0,-13,-9,11,4,-1
Juventus v Empoli,0,2.3000000000000007,5,5,-137,-2,-129,-70,-59,24,-146,-8,1,-1,-3,3,4,2,1,8,3,0,6,0,-46,-124,-78,2,1,0,-6,-2,7,4,1
Juventus v Fiorentina,0,0.5,3,1,-109,-3,-108,-50,-48,30,-72,-57,-1,1,4,-4,3,3,1,8,3,0,1,0,20,-110,-130,-5,-1,0,-6,0,4,6,0
Juventus v Frosinone,1,0.0,9,2,113,-14,120,73,59,71,38,24,3,-3,-3,3,9,3,0,15,7,0,0,0,88,134,46,-2,-2,0,-11,-2,5,9,0
Juventus v Genoa,0,1.0,4,3,91,-17,97,24,55,-3,62,20,2,-2,6,-6,3,-1,0,-3,-3,0,3,0,21,92,71,-4,0,0,0,1,3,1,-1
Juventus v Inter,0,1.0999999999999979,4,3,3,-17,14,3,-3,5,8,-12,0,0,-3,3,2,1,0,-1,0,0,3,0,9,11,2,-8,2,0,-12,-7,8,5,0
Juventus v Lazio,0,2.1999999999999993,6,2,-63,-21,-71,-14,-33,32,-45,-36,6,-6,5,-5,2,4,0,10,2,0,0,0,5,-71,-76,-2,-1,0,0,2,-4,2,1
Juventus v Napoli,0,0.8000000000000007,7,4,-55,-1,-46,-27,-27,15,-55,-14,1,-1,4,-4,5,2,0,3,0,0,1,0,-14,-52,-38,4,0,0,-10,-6,4,4,0
Juventus v Palermo,0,2.400000000000002,2,-1,174,-2,179,83,93,39,100,39,4,-4,3,-3,2,4,1,9,7,0,0,0,86,197,111,1,-1,0,-9,-5,8,4,1
Juventus v Roma,0,-0.1999999999999993,7,4,61,-8,67,42,23,50,45,-31,1,-1,3,-3,4,2,0,6,1,0,1,0,92,61,-31,0,-2,0,0,2,3,2,0
Juventus v Sampdoria,0,1.8000000000000007,7,2,107,20,112,59,57,87,44,-14,5,-5,-7,7,9,4,1,11,3,0,1,0,136,112,-24,0,1,-1,-2,0,2,2,3
Juventus v Sassuolo,0,1.8000000000000007,5,5,50,5,51,20,40,30,41,-12,3,-3,4,-4,6,2,0,7,4,0,0,0,45,60,15,1,-2,0,-7,1,10,8,1
Juventus v Torino,0,-1.0,0,1,69,-14,66,56,20,42,52,-18,3,-3,-3,3,-1,-1,0,4,0,0,0,0,61,66,5,-5,-2,0,-2,-1,1,1,1
Juventus v Udinese,2,0.6000000000000014,10,6,130,-12,147,71,74,72,66,6,3,-3,2,-2,6,5,0,15,7,0,1,0,173,154,-19,5,-1,0,-2,0,6,2,0
Juventus v Verona,0,0.6000000000000014,6,1,-4,-9,-2,16,-29,-6,-16,9,0,0,-3,3,4,3,1,-4,1,0,0,0,-39,9,48,7,0,0,-2,-3,2,-1,2
Lazio v AC Milan,2,0.5999999999999979,-2,0,93,-3,84,62,49,25,69,18,3,-3,-4,4,-1,-1,0,11,2,0,0,0,39,78,39,-5,0,0,2,-1,-2,-3,-1
Lazio v Atalanta,0,-1.5,-2,-1,59,-9,75,33,28,16,33,11,0,0,8,-8,-3,0,0,3,1,0,0,0,45,66,21,-7,-1,0,-4,-1,0,3,0
Lazio v Bologna,0,-0.6000000000000014,3,1,118,23,135,78,50,47,69,12,5,-5,-4,4,4,-1,-1,10,0,0,0,0,97,124,27,4,0,0,-1,-4,-5,-3,1
Lazio v Carpi,1,-0.40000000000000213,4,-1,107,5,117,64,50,34,73,6,-1,1,-1,1,2,3,0,7,4,0,1,0,106,118,12,5,0,0,-12,-10,5,2,0
Lazio v Chievo,0,-3.200000000000003,9,3,56,-9,60,52,29,82,15,-15,6,-6,-4,4,8,2,-1,21,3,0,-2,0,140,68,-72,-2,0,0,-13,-6,9,7,-1
Lazio v Empoli,0,0.3000000000000007,6,0,-21,19,-17,-13,9,26,-41,10,0,0,-3,3,5,5,1,11,3,0,0,0,15,-9,-24,-5,2,0,1,6,2,5,2
Lazio v Fiorentina,2,0.9000000000000021,-10,-4,-81,9,-79,-41,-38,-15,-67,1,0,0,1,-1,-9,-6,-2,5,2,0,0,0,-72,-83,-11,8,0,0,0,-3,-8,-3,-2
Lazio v Frosinone,0,0.6000000000000014,11,6,136,0,139,104,49,58,76,19,1,-1,3,-3,8,4,0,12,4,0,-1,0,136,151,15,-1,0,0,-6,-3,9,3,0
Lazio v Genoa,0,-0.20000000000000284,0,-1,-22,6,-6,-1,-6,46,-47,-7,4,-4,-3,3,-1,2,1,15,5,0,-2,0,60,-16,-76,5,1,0,-2,-3,-2,-1,1
Lazio v Inter,0,0.6999999999999993,0,-2,-60,5,-64,-52,-21,-21,-81,28,0,0,-4,4,0,0,1,-7,0,0,2,0,-59,-46,13,5,1,0,1,3,6,2,1
Lazio v Juventus,2,-0.1999999999999993,2,2,107,0,119,67,54,23,62,34,2,-2,-1,1,0,1,0,14,3,0,0,0,70,119,49,15,2,0,-1,-3,0,-2,0
Lazio v Napoli,2,1.1000000000000014,-2,-2,-108,9,-109,-64,-53,7,-99,-21,-2,2,-2,2,0,-1,-1,-1,0,0,-3,0,-31,-101,-70,7,1,0,-3,0,6,3,-2
Lazio v Palermo,1,1.2000000000000028,5,2,108,-5,104,79,48,66,34,28,7,-7,3,-3,5,4,0,15,3,0,0,0,87,109,22,-4,0,0,-10,-5,11,5,-1
Lazio v Roma,2,-0.5,-5,0,-125,4,-121,-74,-60,-54,-65,-14,-3,3,0,0,-6,-3,-1,-7,-4,0,3,0,-104,-117,-13,15,2,0,0,-1,6,-1,-1
Lazio v Sampdoria,1,0.40000000000000213,3,1,79,6,93,43,53,52,49,-6,1,-1,-3,3,3,4,0,17,6,0,1,0,110,87,-23,1,0,0,-6,-3,2,3,0
Lazio v Sassuolo,2,0.1999999999999993,1,-1,69,-1,69,44,24,23,48,-2,-1,1,0,0,3,3,0,-1,3,0,2,0,78,79,1,1,0,0,-1,0,-4,1,-1
Lazio v Torino,0,-0.1999999999999993,2,-1,22,-26,11,18,5,20,19,-15,-3,3,5,-5,1,0,1,-1,-1,0,1,0,27,10,-17,5,-1,0,5,2,-9,-3,1
Lazio v Udinese,0,-0.8000000000000007,4,2,107,3,107,70,54,45,53,26,0,0,-2,2,4,1,0,7,0,0,-1,0,70,110,40,-2,0,0,6,3,-5,-3,0
Lazio v Verona,0,0.09999999999999787,5,2,115,-11,119,91,35,83,43,0,5,-5,1,-1,5,2,1,14,1,0,3,0,126,120,-6,9,0,0,-5,-5,-1,0,1
Napoli v AC Milan,1,0.3999999999999986,7,2,179,1,181,103,85,83,88,19,4,-4,2,-2,9,4,0,10,1,0,-1,0,166,168,2,-6,0,0,-1,-5,-1,-4,0
Napoli v Atalanta,0,-0.9000000000000021,6,4,41,-18,51,51,-21,5,30,-7,2,-2,2,-2,4,2,1,-3,-1,0,0,0,32,24,-8,-8,0,0,1,-1,0,-2,1
Napoli v Bologna,0,-0.5999999999999979,10,6,139,-23,142,74,79,53,114,-15,5,-5,4,-4,6,5,1,9,2,0,1,0,111,134,23,-2,-1,0,11,8,-8,-3,2
Napoli v Carpi,0,0.1999999999999993,11,4,282,9,283,164,129,117,153,27,4,-4,3,-3,11,6,0,11,3,0,1,0,231,273,42,-10,-1,0,-16,-11,8,5,0
Napoli v Chievo,0,-4.600000000000001,12,6,268,-11,264,147,136,75,152,56,5,-5,3,-3,9,8,2,11,5,0,1,0,184,271,87,-8,-1,0,0,0,1,0,1
Napoli v Empoli,0,1.0,13,4,106,13,117,44,73,63,55,0,3,-3,0,0,9,6,1,11,2,0,1,0,105,113,8,1,2,0,4,4,-4,0,1
Napoli v Fiorentina,0,-1.0,-3,-2,2,-12,2,15,1,39,-16,-9,2,-2,-1,1,-2,-1,0,5,0,0,0,0,28,-1,-29,-9,-1,0,-3,-2,-3,1,0
Napoli v Frosinone,0,-1.1000000000000014,16,10,263,-3,260,172,135,207,88,13,9,-9,1,-1,10,6,0,23,2,0,3,0,278,259,-19,3,0,-1,-3,-2,0,1,1
Napoli v Genoa,0,-0.10000000000000142,4,6,214,-12,212,147,91,81,135,24,7,-7,0,0,2,2,0,22,3,0,4,0,164,201,37,-7,2,0,0,3,0,3,-1
Napoli v Inter,0,-0.3000000000000007,2,2,117,-6,127,60,71,37,96,-3,1,-1,-3,3,2,0,0,9,0,0,1,0,85,114,29,-2,1,0,-1,-2,-2,-1,1
Napoli v Juventus,0,-0.1999999999999993,5,0,55,5,34,24,24,38,14,-2,0,0,1,-1,4,0,1,1,-2,0,-3,0,52,31,-21,-1,0,0,15,10,-9,-5,1
Napoli v Lazio,0,-0.09999999999999787,9,6,152,-17,166,92,71,62,140,-37,7,-7,0,0,6,3,1,13,1,0,0,0,200,158,-42,-5,-1,0,-9,-4,12,5,2
Napoli v Palermo,0,0.20000000000000284,7,5,295,2,294,155,154,126,160,23,5,-5,-6,6,6,3,0,12,5,0,0,0,248,281,33,-4,0,0,2,-2,-4,-4,1
Napoli v Roma,1,0.7000000000000028,1,1,119,-19,123,77,58,56,94,-10,2,-2,0,0,0,-1,0,11,-1,0,1,0,131,118,-13,-4,0,0,1,5,3,4,0
Napoli v Sampdoria,1,-0.20000000000000284,7,2,56,-25,64,34,15,24,35,-8,2,-2,-3,3,7,3,2,2,2,0,-3,0,72,48,-24,-6,-1,0,8,3,-6,-5,2
Napoli v Sassuolo,0,-0.5999999999999979,3,2,226,-10,218,115,111,60,144,24,1,-1,4,-4,3,0,2,-1,-2,0,2,0,164,211,47,-4,0,0,6,4,-8,-2,1
Napoli v Torino,0,-1.5,4,1,116,-10,108,71,55,57,119,-49,2,-2,3,-3,6,5,1,0,-1,0,0,0,143,98,-45,-7,0,0,1,-4,-6,-5,1
Napoli v Udinese,0,0.40000000000000213,3,2,92,-5,99,60,46,33,58,18,3,-3,-2,2,2,2,0,8,1,0,-2,0,61,91,30,2,-1,0,-10,-9,5,1,0
Napoli v Verona,0,-1.0999999999999979,9,6,122,-7,123,87,41,32,107,-9,2,-2,9,-9,6,4,0,2,0,0,2,0,108,126,18,-1,-2,-1,1,0,0,-1,2
Palermo v AC Milan,2,-0.8999999999999986,-5,-5,-156,-1,-158,-82,-83,-67,-64,-35,-3,3,-1,1,2,3,-1,-4,2,0,-2,0,-140,-147,-7,1,1,0,2,6,-5,4,-2
Palermo v Atalanta,1,-2.3000000000000007,-3,0,-21,-7,-13,1,-11,21,-8,-21,0,0,0,0,-3,-1,0,3,-1,0,-2,0,18,-30,-48,6,-1,0,-11,-12,1,-1,0
Palermo v Bologna,1,-1.8999999999999986,-5,-1,-32,-4,-41,-8,-5,3,-26,12,-1,1,0,0,-5,-1,0,4,0,0,3,0,-24,-44,-20,-15,1,0,-4,-6,-1,-2,0
Palermo v Carpi,1,-0.3000000000000007,3,1,96,1,86,70,34,23,72,9,-1,1,4,-4,1,-1,0,5,1,0,-3,0,64,97,33,-13,-1,0,8,9,-2,1,2
Palermo v Chievo,0,-4.700000000000003,-5,-3,44,1,38,13,18,10,17,4,0,0,4,-4,-5,-4,0,-9,-4,0,0,0,4,20,16,-1,-1,0,-5,-2,8,3,0
Palermo v Empoli,2,1.1000000000000014,-2,-2,-6,13,-8,-12,16,1,-11,13,1,-1,-5,5,-3,-5,0,8,1,0,1,0,4,-9,-13,-1,2,0,-1,-4,0,-3,0
Palermo v Fiorentina,2,-3.1999999999999993,-7,-1,-132,-8,-139,-62,-69,-36,-60,-38,0,0,-1,1,-4,-2,0,-3,-2,0,2,0,-94,-152,-58,-2,0,0,6,1,-1,-5,-2
Palermo v Frosinone,0,-2.400000000000002,0,-1,31,16,27,14,10,7,19,-2,4,-4,3,-3,3,4,2,-2,3,0,-2,0,17,36,19,0,-2,0,2,5,0,3,1
Palermo v Genoa,0,0.5,-5,-1,-23,8,-17,-27,-8,-15,-10,-9,-4,4,3,-3,-3,1,0,-8,-3,0,-1,0,-16,-26,-10,-1,1,0,0,-6,-8,-6,0
Palermo v Inter,1,-0.3000000000000007,-1,-1,-60,7,-70,-17,-40,-14,-43,-3,-1,1,-2,2,-2,0,0,-6,1,0,-1,0,-43,-67,-24,-7,-1,0,-7,-7,0,0,0
Palermo v Juventus,2,-1.6000000000000014,-3,-1,-149,13,-172,-84,-82,-47,-72,-46,-4,4,1,-1,-5,-3,0,-13,-5,0,-3,0,-112,-169,-57,-1,-1,0,18,10,-10,-8,0
Palermo v Lazio,2,0.0,-9,-6,-267,-8,-272,-134,-151,-57,-140,-88,-3,3,-1,1,-6,-3,0,-12,-5,0,2,0,-123,-288,-165,4,0,0,-2,-5,-3,-3,-2
Palermo v Napoli,2,-0.5999999999999979,-4,-1,-317,9,-303,-186,-150,-106,-186,-44,-5,5,-1,1,-2,2,0,-9,-1,0,-3,0,-206,-301,-95,7,0,0,3,3,3,0,-1
Palermo v Roma,2,1.1999999999999993,-4,-2,-95,1,-95,-26,-60,12,-42,-55,-1,1,-2,2,-3,1,-1,7,2,0,-2,0,7,-111,-118,0,-1,0,6,-1,-13,-7,-3
Palermo v Sampdoria,0,-1.2999999999999972,-3,-3,-113,-13,-110,-47,-58,-17,-77,-13,-3,3,2,-2,-4,-2,0,4,-3,0,2,0,-62,-113,-51,1,-1,0,8,6,-5,-2,1
Palermo v Sassuolo,2,-2.1000000000000014,-4,-1,-38,6,-47,-18,-19,-12,-9,-17,-1,1,-4,4,-2,0,0,7,1,0,-1,0,-14,-43,-29,-5,0,1,6,6,-2,0,-1
Palermo v Torino,2,-2.099999999999998,5,4,-54,0,-44,-35,-16,7,-3,-57,5,-5,8,-8,2,2,1,3,1,0,1,0,25,-49,-74,7,-2,0,-4,-10,-7,-6,1
Palermo v Udinese,0,0.3999999999999986,4,3,-35,-5,-30,-25,-4,7,-22,-16,2,-2,0,0,1,1,1,3,-2,0,-1,0,-6,-32,-26,0,-1,0,0,-1,0,-1,1
Palermo v Verona,0,-0.1999999999999993,-5,-6,-102,-4,-99,-52,-59,-20,-70,-20,-1,1,1,-1,-3,-2,0,4,1,0,2,0,-45,-87,-42,7,0,0,3,3,0,0,1
Roma v AC Milan,1,0.5999999999999979,0,-2,-128,14,-116,-86,-39,-33,-74,-21,-1,1,4,-4,0,4,1,-4,0,0,5,0,-79,-118,-39,-5,0,0,5,1,-3,-4,1
Roma v Atalanta,2,-1.7999999999999972,6,4,58,-19,74,54,14,46,34,-12,1,-1,2,-2,6,4,0,7,4,0,0,0,89,63,-26,0,-1,0,-13,-10,7,3,-1
Roma v Bologna,1,1.5,4,2,161,-9,158,86,87,53,109,12,2,-2,-7,7,2,4,-1,6,0,0,0,0,137,160,23,-3,-1,0,-10,-5,8,5,-1
Roma v Carpi,0,1.6999999999999993,8,3,180,6,183,98,95,117,96,-21,1,-1,2,-2,3,1,-1,3,0,0,-1,0,204,183,-21,-4,-1,0,-9,-5,7,4,2
Roma v Chievo,0,-2.8000000000000007,9,3,164,-13,163,79,93,112,58,4,1,-1,-5,5,9,2,1,2,0,0,2,0,169,161,-8,-6,-1,0,-7,-3,7,4,2
Roma v Empoli,0,0.6999999999999993,-1,1,48,15,48,43,22,53,-14,26,4,-4,-3,3,0,-1,0,10,1,0,1,0,61,47,-14,-3,0,0,-13,-10,10,3,0
Roma v Fiorentina,0,0.5999999999999979,1,0,10,-14,7,14,-3,17,15,-19,2,-2,-6,6,2,3,2,5,2,0,-1,0,52,23,-29,-5,1,0,-14,-7,12,7,2
Roma v Frosinone,0,0.8000000000000007,7,4,157,2,154,91,72,24,94,45,4,-4,-1,1,5,6,0,4,3,0,-1,0,68,152,84,-4,0,0,1,0,1,-1,0
Roma v Genoa,0,0.9000000000000021,-3,-3,105,8,99,59,47,13,43,50,-2,2,-5,5,-3,-1,0,0,-1,0,0,0,35,99,64,4,2,0,-7,-6,4,1,1
Roma v Inter,1,1.1000000000000014,1,1,63,-3,61,51,22,19,41,12,3,-3,2,-2,-1,0,0,7,1,0,2,0,62,60,-2,-7,1,0,1,-1,-4,-2,0
Roma v Juventus,0,-1.2000000000000028,6,3,179,2,180,116,70,66,103,18,3,-3,2,-2,5,2,0,8,0,0,1,0,152,183,31,-2,-2,0,-3,3,7,6,0
Roma v Lazio,0,-1.8000000000000007,6,3,35,1,39,20,18,11,27,0,1,-1,0,0,-1,-1,0,2,1,0,-1,0,51,38,-13,-3,-2,0,-4,-5,2,-1,1
Roma v Napoli,0,1.7000000000000028,1,0,18,10,10,12,14,51,-33,7,2,-2,4,-4,0,0,0,8,0,0,-2,0,33,10,-23,-2,-1,0,-5,-3,5,2,0
Roma v Palermo,0,1.3000000000000007,8,-1,150,-14,141,105,62,82,65,20,2,-2,-5,5,7,4,1,12,2,0,0,0,150,138,-12,-10,0,0,-4,-2,5,2,1
Roma v Sampdoria,0,-0.3000000000000007,7,3,164,-20,169,111,65,58,128,-9,2,-2,0,0,7,5,0,7,5,0,-2,0,152,178,26,-3,-1,0,-1,0,0,1,1
Roma v Sassuolo,1,0.1999999999999993,5,-1,146,6,149,87,61,40,75,31,-2,2,1,-1,5,2,0,0,2,0,1,0,100,150,50,1,-1,0,-6,-6,-2,0,-1
Roma v Torino,0,1.0,4,3,-11,-21,0,13,-20,63,-6,-62,3,-3,2,-2,0,1,0,9,2,0,0,0,114,-2,-116,2,0,0,-5,-4,2,1,-1
Roma v Udinese,0,-1.0999999999999979,7,3,120,4,134,66,47,20,65,29,-2,2,0,0,6,4,1,1,2,0,-1,0,49,120,71,-11,-1,0,-1,1,3,2,2
Roma v Verona,1,0.10000000000000142,5,-2,211,-12,207,121,103,71,122,32,3,-3,2,-2,3,5,1,10,4,0,1,0,137,207,70,-3,0,0,0,-1,-1,-1,1
Sampdoria v AC Milan,2,0.3000000000000007,0,-2,-102,-1,-92,-73,-42,-20,-59,-37,-3,3,1,-1,5,1,0,-4,1,0,2,0,-41,-103,-62,-4,1,0,2,2,0,0,0
Sampdoria v Atalanta,1,-1.1999999999999993,-1,0,73,-3,70,36,31,14,44,8,1,-1,1,-1,0,-2,0,0,1,0,-1,0,46,68,22,-4,1,0,1,0,0,-1,0
Sampdoria v Bologna,0,-0.5,0,-2,66,6,59,33,31,22,42,3,-3,3,4,-4,0,1,0,-6,-1,0,1,0,33,58,25,0,-1,0,3,3,1,0,0
Sampdoria v Carpi,0,0.3999999999999986,2,0,130,9,134,53,71,1,70,53,1,-1,2,-2,-1,1,2,1,-2,0,0,0,45,149,104,4,-2,1,1,3,-1,2,4
Sampdoria v Chievo,2,-3.1999999999999993,-5,-4,128,12,124,68,62,28,63,40,-2,2,1,-1,-2,-2,-1,-1,0,0,-1,0,38,116,78,-11,0,0,-2,-2,0,0,-1
Sampdoria v Empoli,1,1.8000000000000007,-4,-4,16,24,7,-15,28,-8,-23,45,0,0,-1,1,-6,0,0,-1,0,0,5,0,-45,22,67,-5,0,0,8,7,-1,-1,0
Sampdoria v Fiorentina,2,-0.20000000000000284,-7,-1,-46,-11,-55,-18,-29,-43,-6,0,-4,4,-7,7,-5,0,0,-1,2,0,0,0,-58,-60,-2,-4,-1,0,2,0,-2,-2,-1
Sampdoria v Frosinone,0,1.3999999999999986,9,7,47,-9,55,30,36,59,26,-20,4,-4,3,-3,7,2,1,17,5,0,1,0,107,65,-42,-9,0,0,0,4,6,4,1
Sampdoria v Genoa,2,0.9000000000000021,-5,-5,40,5,26,16,11,9,40,-20,2,-2,4,-4,-3,0,-1,-1,0,0,0,0,29,20,-9,0,-1,0,10,2,-11,-8,-2
Sampdoria v Inter,1,0.1999999999999993,4,4,-134,6,-134,-103,-46,-49,-78,-22,1,-1,2,-2,2,3,0,-10,-2,0,2,0,-74,-135,-61,-3,0,0,5,3,3,-2,0
Sampdoria v Juventus,2,0.5,-3,-2,-23,-4,-20,-19,-14,-10,-30,7,-4,4,-1,1,-3,-2,-1,-6,0,0,-1,0,-9,-25,-16,-3,-1,0,5,2,-2,-3,-1
Sampdoria v Lazio,0,0.6000000000000014,-3,-2,-56,-10,-63,-28,-28,-18,-4,-32,-3,3,-2,2,-5,-3,-1,-2,-1,0,0,0,-25,-62,-37,-3,-2,0,1,5,6,4,0
Sampdoria v Napoli,2,1.0,-6,-1,-32,16,-30,-25,3,14,-40,3,4,-4,1,-1,-2,-1,1,6,1,0,3,0,18,-24,-42,3,1,0,-2,1,1,3,-1
Sampdoria v Palermo,0,2.0,5,4,152,3,142,78,73,71,72,8,3,-3,2,-2,6,5,0,8,0,0,-2,0,134,130,-4,-4,-1,0,12,8,-12,-4,0
Sampdoria v Roma,0,-0.9000000000000021,-4,-2,-111,7,-118,-93,-37,-75,-57,1,-9,9,2,-2,-3,0,0,-22,-4,0,0,0,-126,-111,15,2,-1,0,5,3,-3,-2,0
Sampdoria v Sassuolo,2,0.0,-7,-5,63,-3,60,33,38,15,35,21,2,-2,0,0,-7,-4,-2,5,0,0,4,0,24,69,45,-9,-3,0,2,3,0,1,-3
Sampdoria v Torino,1,-0.1999999999999993,-4,-1,26,-2,18,16,-3,17,33,-35,-2,2,6,-6,-5,-1,0,-10,-3,0,2,0,41,17,-24,-5,1,0,-2,-3,1,-1,0
Sampdoria v Udinese,0,0.6999999999999993,1,0,49,-10,54,16,26,11,18,13,0,0,2,-2,2,0,0,-1,-1,0,-2,0,27,39,12,1,0,0,-4,-3,0,1,0
Sampdoria v Verona,0,-2.299999999999997,4,2,-40,1,-38,-29,-16,-22,-18,-5,-2,2,0,0,3,1,2,-5,-2,0,1,0,-19,-24,-5,1,-1,0,-2,3,4,5,3
Sassuolo v AC Milan,0,1.1999999999999993,-1,-3,-9,12,-9,-4,-8,-33,17,4,-2,2,-3,3,-2,1,1,3,4,0,-1,0,-20,-1,19,-2,0,0,3,0,-2,-3,1
Sassuolo v Atalanta,1,-0.6999999999999993,0,2,45,4,47,28,29,20,-2,40,1,-1,1,-1,-1,-1,-1,0,1,0,-1,0,21,39,18,-1,-3,0,-14,-11,8,3,0
Sassuolo v Bologna,2,-0.3999999999999986,-2,-3,36,-8,26,38,-2,33,11,-8,-1,1,8,-8,-2,-2,0,-3,-1,0,1,0,28,21,-7,-13,0,0,0,1,-5,1,0
Sassuolo v Carpi,0,0.5999999999999979,-2,-3,141,0,139,82,49,0,59,73,-4,4,1,-1,-2,0,1,-11,-3,0,-3,0,1,141,140,-4,0,0,1,-4,-3,-5,1
Sassuolo v Chievo,1,-3.0,-3,-3,31,0,29,18,2,-11,4,27,0,0,4,-4,0,-1,0,-4,-3,0,1,0,8,43,35,-5,0,0,-4,-1,8,3,0
Sassuolo v Empoli,0,1.2999999999999972,-1,-1,-60,13,-46,-39,-21,-14,-35,-11,0,0,1,-1,-3,0,0,4,4,0,3,0,-36,-48,-12,3,0,0,1,0,3,-1,0
Sassuolo v Fiorentina,1,0.40000000000000213,-4,-5,-3,3,-8,18,-7,37,-20,-8,2,-2,-1,1,-3,-1,1,5,0,0,-1,0,43,-7,-50,-2,0,0,4,2,-1,-2,0
Sassuolo v Frosinone,1,0.1999999999999993,6,4,119,-6,134,86,43,61,47,20,0,0,-2,2,3,2,-1,11,3,0,1,0,117,127,10,-5,2,0,-11,-6,8,5,-3
Sassuolo v Genoa,2,-1.0,1,-2,57,6,59,39,26,53,-12,23,4,-4,6,-6,4,0,0,13,3,0,1,0,69,46,-23,-4,0,0,9,7,-8,-2,-1
Sassuolo v Inter,0,3.8000000000000007,-4,-4,-105,-7,-99,-51,-58,-31,-43,-39,-4,4,0,0,0,0,2,-8,0,0,-4,0,-52,-104,-52,4,0,0,-10,-13,3,-3,2
Sassuolo v Juventus,0,0.6999999999999993,-1,-2,-52,3,-54,-21,-34,-5,-38,-15,-4,4,8,-8,-2,0,0,-2,0,0,-4,0,-24,-52,-28,4,-1,0,0,1,1,1,1
Sassuolo v Lazio,0,1.0,-1,0,-72,9,-66,-49,-38,-29,-56,-4,-3,3,3,-3,-1,-1,0,-11,-2,0,0,0,-83,-71,12,8,-1,0,2,-1,-6,-3,1
Sassuolo v Napoli,0,1.1000000000000014,4,4,-6,15,0,7,-2,7,-14,11,4,-4,10,-10,4,2,1,9,2,0,-2,0,-3,-6,-3,8,0,0,-6,-2,8,4,0
Sassuolo v Palermo,1,2.6000000000000014,4,2,74,-10,85,48,24,31,42,0,0,0,3,-3,3,0,-1,7,2,0,1,0,92,72,-20,-6,0,0,2,2,1,0,0
Sassuolo v Roma,2,-0.5999999999999979,-2,-1,-135,-6,-124,-71,-73,-47,-78,-24,-3,3,3,-3,0,-2,0,-6,-1,0,0,0,-98,-140,-42,4,-1,0,8,4,-4,-4,-1
Sassuolo v Sampdoria,1,-1.8000000000000007,5,1,121,-9,127,100,39,63,57,20,4,-4,4,-4,0,0,0,16,-1,0,0,0,109,127,18,2,-1,0,-2,-2,1,0,0
Sassuolo v Torino,1,-1.5,0,-2,120,-6,109,87,36,49,89,-15,1,-1,3,-3,-2,0,-1,-1,0,0,-3,0,132,105,-27,2,0,0,-3,-3,6,0,0
Sassuolo v Udinese,1,-1.8000000000000007,2,2,72,-2,73,49,19,-20,42,46,-1,1,1,-1,3,1,-1,-5,0,0,-1,0,3,59,56,-8,-1,0,-4,-6,-3,-2,-1
Sassuolo v Verona,0,-1.8000000000000007,-7,-3,81,-3,83,51,20,24,30,19,-2,2,3,-3,-7,-2,0,-6,-1,0,3,0,64,86,22,8,-1,0,0,-1,-5,-1,0
Torino v AC Milan,1,0.6000000000000014,-4,-1,-78,11,-76,-57,-20,-26,-49,-2,0,0,-10,10,-1,0,0,1,3,0,-1,0,-76,-70,6,4,1,0,-5,-3,10,2,0
Torino v Atalanta,0,-0.40000000000000213,-2,-2,-15,7,-26,-2,-13,13,-30,-1,0,0,3,-3,0,-1,1,0,1,0,1,0,35,-19,-54,-2,-2,0,1,1,0,0,1
Torino v Bologna,0,1.5,5,6,121,1,121,51,79,11,89,31,2,-2,-1,1,4,3,0,10,3,0,1,0,70,125,55,-3,0,0,-6,-3,8,3,0
Torino v Carpi,1,1.0,1,2,40,15,35,20,18,-6,26,18,0,0,-3,3,0,-1,0,4,2,0,-1,0,6,44,38,0,1,0,-9,-2,6,7,0
Torino v Chievo,2,-2.5,5,4,-49,-1,-48,-37,-9,-10,-66,29,1,-1,0,0,2,2,1,-1,0,0,0,0,-41,-36,5,4,0,0,-2,-2,2,0,2
Torino v Empoli,2,2.6000000000000014,4,3,-3,29,-9,-8,-3,-19,-46,55,1,-1,3,-3,3,1,0,-2,0,0,3,0,-77,2,79,0,-1,0,-1,3,8,4,0
Torino v Fiorentina,0,1.1999999999999993,0,1,-239,7,-238,-110,-121,-44,-198,5,1,-1,-1,1,0,-1,0,3,0,0,1,0,-132,-245,-113,-3,-2,0,8,8,-3,0,-1
Torino v Frosinone,0,0.3999999999999986,2,-2,74,0,72,32,39,0,30,42,0,0,-1,1,1,1,0,0,-1,0,0,0,19,76,57,2,-1,0,4,3,-5,-1,2
Torino v Genoa,1,1.5999999999999979,6,2,-35,3,-22,-32,13,2,-60,37,2,-2,10,-10,4,2,0,7,2,0,2,0,-1,-19,-18,2,0,0,-4,-1,4,3,1
Torino v Inter,2,1.5999999999999979,0,0,-76,7,-65,-48,-32,-32,-91,41,0,0,-3,3,-1,-3,-1,-1,-1,0,3,0,-94,-69,25,-1,1,0,2,0,-2,-2,-1
Torino v Juventus,2,0.0,-5,-2,-63,11,-70,-57,-12,-30,-58,19,-2,2,-4,4,0,2,0,-3,1,0,-1,0,-91,-62,29,1,1,0,13,7,-7,-6,-2
Torino v Lazio,1,0.0,4,2,-99,11,-110,-73,-28,-17,-79,-5,1,-1,1,-1,-1,1,0,1,0,0,1,0,-66,-99,-33,1,1,0,1,3,2,2,1
Torino v Napoli,2,1.3000000000000007,-8,-3,-256,11,-258,-145,-117,-92,-206,36,-2,2,-4,4,-9,-7,-2,-3,-1,0,1,0,-280,-236,44,10,0,0,-7,0,7,7,-2
Torino v Palermo,0,2.0,1,1,85,-5,77,41,45,6,17,62,2,-2,3,-3,2,1,0,4,0,0,2,0,-27,76,103,2,0,0,5,6,-5,1,-1
Torino v Roma,1,1.5,5,4,-145,-15,-145,-96,-43,-50,-145,54,1,-1,-2,2,3,1,0,3,1,0,0,0,-142,-142,0,1,0,0,4,1,0,-3,0
Torino v Sampdoria,0,1.1999999999999993,10,4,52,4,68,17,39,22,30,6,2,-2,2,-2,7,1,1,11,0,0,0,0,55,69,14,6,0,0,2,5,4,3,2
Torino v Sassuolo,2,2.8999999999999986,2,-1,-64,-6,-71,-40,-26,-38,-57,29,2,-2,-6,6,3,2,0,-4,1,0,-1,0,-98,-62,36,-1,-1,0,-4,0,6,4,0
Torino v Udinese,2,1.1999999999999993,0,-2,-97,14,-101,-67,-32,-24,-72,-5,-4,4,2,-2,-2,0,0,-5,0,0,-1,0,-64,-93,-29,2,-1,0,6,2,-6,-4,-1
Torino v Verona,1,0.3999999999999986,5,4,36,-13,47,17,30,15,27,4,3,-3,3,-3,1,2,0,11,4,0,1,0,65,55,-10,2,-1,0,-8,-3,4,5,0
Udinese v AC Milan,2,0.8999999999999986,-3,0,-48,-11,-49,-11,-30,8,-39,-12,-1,1,-2,2,-2,-2,-2,3,0,0,0,0,-12,-56,-44,1,0,0,-3,-1,9,2,-3
Udinese v Atalanta,0,-0.3000000000000007,3,-1,-42,0,-36,-23,-15,17,-44,-13,-1,1,5,-5,2,3,1,-1,1,0,1,0,-12,-40,-28,-1,-1,0,-2,-2,2,0,2
Udinese v Bologna,2,-0.5,1,-2,53,7,52,27,29,38,1,17,0,0,-1,1,2,1,0,2,1,0,4,0,41,61,20,-4,0,0,-13,-7,11,6,0
Udinese v Carpi,2,1.6999999999999993,4,4,109,16,120,71,52,-1,88,35,3,-3,3,-3,1,1,0,10,1,0,-1,0,43,110,67,1,-2,1,-5,-3,4,2,-2
Udinese v Chievo,1,-3.6999999999999993,4,2,-77,-4,-75,-63,-19,34,-72,-45,2,-2,-2,2,3,2,0,5,0,0,-1,0,7,-92,-99,-4,1,0,0,1,4,1,0
Udinese v Empoli,2,2.599999999999998,3,0,-34,25,-41,-37,-4,-8,-31,-1,0,0,-4,4,3,4,1,-1,1,0,4,0,-43,-37,6,-3,1,0,15,11,-5,-4,1
Udinese v Fiorentina,0,-1.1999999999999993,-1,-2,-184,2,-185,-100,-82,-58,-109,-16,1,-1,-3,3,0,1,1,2,2,0,0,0,-133,-177,-44,3,-1,0,6,5,-3,-1,0
Udinese v Frosinone,0,-0.3000000000000007,3,1,67,1,66,60,20,76,21,-19,3,-3,3,-3,2,1,0,12,0,0,2,0,94,60,-34,-4,1,0,-5,0,6,5,1
Udinese v Genoa,1,0.5,-6,-5,-143,-2,-152,-89,-59,-76,-73,-1,-4,4,1,-1,-5,-2,0,-13,-3,0,0,0,-136,-143,-7,8,1,0,3,3,-2,0,0
Udinese v Inter,2,-0.1999999999999993,8,10,35,-14,24,37,9,33,6,6,6,-6,0,0,4,3,0,11,2,0,0,0,60,27,-33,-2,-3,0,-5,1,10,6,-2
Udinese v Juventus,2,-1.0,-4,-1,-40,1,-31,-34,-6,1,-11,-28,-3,3,0,0,-4,-2,-1,6,0,0,0,0,-4,-41,-37,1,0,1,-1,1,2,2,-4
Udinese v Lazio,1,-1.0,0,-2,-62,-2,-62,-47,-15,-29,-39,5,1,-1,5,-5,1,0,0,-1,2,0,4,0,-65,-61,4,-5,2,0,-2,-4,2,-2,0
Udinese v Napoli,0,-0.1999999999999993,3,2,-126,-1,-114,-68,-57,-18,-74,-35,-3,3,-4,4,1,1,1,1,3,0,0,0,-61,-103,-42,14,0,-1,-4,-1,3,3,1
Udinese v Palermo,2,1.0999999999999979,6,0,67,-14,65,50,24,11,42,22,5,-5,-2,2,1,1,-1,9,0,0,0,0,51,58,7,3,-1,0,12,11,-4,-1,-1
Udinese v Roma,2,-0.6999999999999993,-6,-6,-118,5,-122,-78,-45,-51,-53,-18,-4,4,3,-3,-6,-5,-1,-1,-4,0,0,0,-107,-117,-10,10,-3,0,-6,-5,2,1,-1
Udinese v Sampdoria,0,0.40000000000000213,1,1,-135,-15,-123,-60,-68,-1,-85,-42,3,-3,-4,4,0,0,1,8,1,0,0,0,-16,-128,-112,5,1,0,4,2,-1,-2,1
Udinese v Sassuolo,1,-0.5,5,1,-60,1,-53,-45,-12,7,-52,-13,4,-4,1,-1,3,2,0,5,1,0,1,0,-18,-64,-46,3,-1,0,4,4,-2,0,0
Udinese v Torino,2,-0.8000000000000007,-5,-3,-69,-3,-74,-23,-48,24,-25,-70,-1,1,-2,2,-2,-2,-1,5,0,0,-3,0,42,-95,-137,-5,0,0,7,5,-4,-2,-2
Udinese v Verona,0,0.1999999999999993,3,0,89,9,100,46,29,-7,77,3,0,0,0,0,2,0,1,-5,-2,0,2,0,36,101,65,4,-1,0,-4,-1,3,3,1
Verona v AC Milan,0,0.3999999999999986,7,8,-134,2,-133,-61,-48,27,-81,-55,6,-6,-2,2,6,3,0,19,4,0,-5,0,-15,-149,-134,-1,0,0,-3,-4,-1,-1,-1
Verona v Atalanta,0,-0.3999999999999986,-5,-2,-27,-6,-28,-17,-4,-1,-33,13,4,-4,2,-2,-2,0,0,0,3,0,-2,0,-12,-21,-9,-1,0,0,-10,-7,9,3,0
Verona v Bologna,2,0.6000000000000014,2,4,26,-13,20,41,13,82,-5,-21,3,-3,-4,4,0,0,-1,17,1,0,0,0,87,17,-70,1,0,0,9,6,-2,-3,-2
Verona v Carpi,2,0.6999999999999993,-4,-2,67,-2,64,56,18,23,35,16,-1,1,-4,4,-2,-2,0,4,3,0,-2,0,31,58,27,0,1,0,-8,-11,-2,-3,-1
Verona v Chievo,0,-3.0,11,4,-55,-9,-48,-25,-16,40,-60,-21,6,-6,8,-8,6,8,0,17,5,0,0,0,10,-50,-60,-1,-3,0,-4,-3,7,1,1
Verona v Empoli,2,1.0,1,0,29,16,27,24,33,65,-11,4,7,-7,-5,5,0,1,0,25,8,0,0,0,72,44,-28,0,-3,0,0,3,2,3,0
Verona v Fiorentina,2,-1.5,-4,-3,-159,9,-156,-85,-68,-16,-125,-14,3,-3,-5,5,-3,-2,0,9,0,0,1,0,-86,-167,-81,-2,2,0,2,0,0,-2,1
Verona v Frosinone,2,0.5999999999999979,1,-3,59,-14,66,37,21,29,15,14,-1,1,-1,1,2,0,0,5,2,0,0,0,47,59,12,1,0,0,7,6,-4,-1,-1
Verona v Genoa,1,0.29999999999999716,3,2,-115,8,-128,-71,-44,-7,-96,-13,-1,1,-1,1,3,3,1,0,3,0,-3,0,-68,-153,-85,-3,0,0,12,-1,-13,-13,2
Verona v Inter,1,1.1999999999999993,-5,-2,-180,7,-179,-110,-90,-52,-129,-19,-1,1,-6,6,-2,-1,1,-14,0,0,0,0,-120,-183,-63,6,0,0,-8,-6,3,2,1
Verona v Juventus,0,0.9000000000000021,0,1,-74,0,-78,-29,-39,13,-48,-33,-1,1,4,-4,0,1,0,3,1,0,-1,0,-3,-81,-78,3,0,0,2,0,-1,-2,1
Verona v Lazio,2,1.3000000000000007,-2,0,-111,10,-116,-89,-39,-65,-73,10,-2,2,-3,3,-1,-1,0,-13,-2,0,-3,0,-144,-110,34,-4,0,0,2,1,-1,-1,1
Verona v Napoli,2,1.0999999999999979,-8,-4,-285,26,-295,-171,-113,-110,-176,1,0,0,-3,3,-8,-2,0,0,-2,0,0,0,-267,-266,1,9,1,0,1,4,-2,3,0
Verona v Palermo,2,2.3999999999999986,10,5,33,-5,24,27,28,51,-13,17,3,-3,4,-4,7,6,0,14,6,0,-1,0,68,32,-36,-3,-1,0,-3,-1,0,2,-1
Verona v Roma,1,0.20000000000000284,-2,1,-152,8,-148,-85,-63,-16,-109,-26,1,-1,-3,3,-1,3,0,1,0,0,2,0,-101,-153,-52,-4,1,0,7,7,1,0,0
Verona v Sampdoria,2,-1.1000000000000014,-6,-2,-140,-24,-144,-55,-74,25,-122,-30,0,0,2,-2,-3,-3,-1,7,3,0,-2,0,-29,-151,-122,-2,0,0,1,1,1,0,-3
Verona v Sassuolo,1,-0.1999999999999993,-4,-2,-63,-3,-57,-43,-18,4,-41,-27,-4,4,-1,1,-4,0,0,1,-4,0,-2,0,-10,-57,-47,-4,0,0,1,1,0,0,0
Verona v Torino,1,0.6999999999999993,5,1,67,-10,62,63,30,66,37,-10,1,-1,2,-2,4,4,0,11,7,0,0,0,100,74,-26,-2,-1,0,-15,-11,8,4,0
Verona v Udinese,1,1.6999999999999993,-2,-3,4,-6,12,17,6,12,6,4,-2,2,3,-3,-4,0,0,8,2,0,1,0,22,29,7,-6,-1,0,-13,-3,13,10,1
