_description,_OUTPUT,averageAgeDiff,shotTotalDiff,shotOnGoalDiff,passTotalDiff,passLongDiff,passSuccessDiff,passForwardDiff,passBackwardDiff,passTargetFinalThirdDiff,passTargetMiddleThirdDiff,passTargetDefensiveThirdDiff,cornerFavourDiff,cornerAgainstDiff,foulReceivedDiff,foulCommitedDiff,assistShotDiff,assistShotIntentionalDiff,assistShotIntentionalGoalDiff,crossFavourTotalDiff,crossFavourSuccessDiff,crossAgainstTotalDiff,offsideCommittedDiff,offsideReceivedDiff,possessionAttackDiff,possessionTotalDiff,possessionDefenceDiff,interceptionDiff,cardYellowDiff,cardRedDiff,tackleTotalDiff,tackleSuccessDiff,dribbleTotalDiff,dribbleSuccessDiff,goalDiff
Augsburg v Bayern,2,-0.5999999999999979,-7,-5,-173,-3,-182,-102,-70,-53,-114,-7,-2,2,4,-4,-6,-6,-1,-2,-2,0,1,0,-111,-183,-72,0,-1,0,5,3,-9,-2,-2
Augsburg v Borussia Dortmund,1,2.400000000000002,-8,-3,-70,-6,-71,-39,-30,-24,-24,-20,-1,1,0,0,-4,-3,0,-5,-3,0,0,0,-9,-63,-54,6,0,0,-13,-12,3,1,0
Augsburg v Mönchengladb.,0,-0.20000000000000284,-1,0,-30,10,-15,-24,0,0,-16,-8,0,0,-5,5,-2,-3,0,7,3,0,8,0,-13,-16,-3,3,-1,0,2,3,1,1,0
Augsburg v FC Cologne,0,1.0,5,3,82,1,100,48,52,69,26,4,5,-5,10,-10,3,3,1,14,2,0,1,0,107,94,-13,-5,-1,0,-16,-6,11,10,1
Augsburg v Freiburg,1,1.2999999999999972,2,0,-81,3,-86,-49,-27,-13,-52,-13,0,0,6,-6,1,1,0,3,-2,0,0,0,-49,-81,-32,4,1,0,5,4,-4,-1,0
Augsburg v Hamburg,0,2.3000000000000007,4,1,-64,-15,-66,-39,-30,9,-9,-71,-4,4,-3,3,3,4,1,-2,0,0,0,0,25,-57,-82,5,0,0,13,13,-1,0,1
Augsburg v Hannover,1,-0.3000000000000007,2,1,-58,5,-55,-44,-12,15,-74,3,0,0,-1,1,2,3,0,4,1,0,2,0,-24,-57,-33,5,0,0,7,6,2,-1,0
Augsburg v Hertha Berlin,0,1.3999999999999986,0,-2,10,-9,21,21,-8,15,-27,26,-3,3,-1,1,0,0,0,2,-1,0,1,0,-6,10,16,-1,-1,0,2,2,3,0,0
Augsburg v Hoffenheim,2,3.5,-5,-1,-45,-9,-51,-24,-16,-9,-35,3,1,-1,-2,2,-1,-1,-1,6,1,0,-1,0,-42,-61,-19,4,0,0,10,0,-5,-10,-1
Augsburg v Kaiserslautern,1,2.599999999999998,-1,-4,-59,-1,-63,-38,-26,-34,-30,-2,-1,1,-3,3,2,2,1,-5,0,0,0,0,-41,-50,-9,9,-1,0,1,9,6,8,0
Augsburg v Leverkusen,2,2.5000000000000036,1,-2,-140,-22,-143,-70,-63,-2,-69,-61,-1,1,0,0,-1,-2,-2,6,3,0,-1,0,-25,-139,-114,-3,-2,0,11,6,-10,-5,-1
Augsburg v Mainz,0,0.0,-1,-1,43,-1,40,22,26,15,25,9,1,-1,7,-7,-1,-1,1,5,3,0,0,0,0,26,26,-8,0,0,11,5,-9,-6,0
Augsburg v Nuernberg,1,0.3999999999999986,2,1,69,-4,66,50,28,78,18,-16,5,-5,-1,1,1,1,0,13,1,0,-2,0,101,61,-40,-7,-2,0,-14,-9,12,5,0
Augsburg v Schalke,1,1.8999999999999986,7,6,-78,-12,-73,-60,-17,-1,-66,-11,4,-4,2,-2,4,2,0,4,0,0,1,0,13,-69,-82,10,0,0,0,2,3,2,0
Augsburg v Stuttgart,2,0.40000000000000213,-2,-3,-69,4,-72,-49,-20,7,-59,-17,1,-1,-1,1,-2,-2,-2,5,0,0,-1,0,-25,-61,-36,8,-2,0,2,2,5,0,-1
Augsburg v Werder Bremen,1,2.099999999999998,0,-1,-105,9,-116,-68,-45,-32,-52,-31,-1,1,-3,3,3,2,0,-6,2,0,0,0,-94,-125,-31,-8,0,0,16,6,-17,-10,0
Augsburg v Wolfsburg,0,-1.7000000000000028,4,3,0,11,5,-7,5,-20,-28,44,2,-2,5,-5,2,1,0,-3,-1,0,3,0,-54,-1,53,3,-1,0,0,4,3,4,0
Bayern v Augsburg,0,-0.5,6,0,129,7,131,71,51,26,47,50,0,0,-1,1,4,1,-1,1,-1,0,-1,0,89,131,42,-4,1,0,-3,-2,2,1,0
Bayern v Borussia Dortmund,2,1.8000000000000007,1,0,169,45,162,75,96,50,64,57,-3,3,2,-2,1,2,0,-4,-3,0,0,0,86,158,72,1,1,0,-2,0,10,2,0
Bayern v Mönchengladb.,2,0.40000000000000213,4,1,114,24,129,71,64,75,83,-23,4,-4,-2,2,2,3,0,20,4,0,1,0,165,127,-38,-1,0,0,2,0,4,-2,0
Bayern v FC Cologne,0,1.7999999999999972,8,5,218,30,229,138,104,114,122,8,6,-6,1,-1,9,9,0,21,4,0,0,0,234,234,0,2,0,0,-11,-1,8,10,0
Bayern v Freiburg,0,-0.6999999999999993,8,5,125,-7,122,99,48,90,76,-18,6,-6,1,-1,6,6,2,16,6,0,0,0,158,126,-32,-3,0,0,-5,1,2,6,3
Bayern v Hamburg,0,1.9000000000000021,10,6,117,1,125,86,43,47,41,42,0,0,5,-5,11,9,1,7,5,0,0,0,86,130,44,3,-3,0,-5,-3,4,2,3
Bayern v Hannover,0,-1.4999999999999964,3,1,151,28,154,70,65,13,78,48,2,-2,0,0,5,5,1,4,3,0,0,0,69,177,108,3,0,0,-10,-4,14,6,1
Bayern v Hertha Berlin,0,0.1999999999999993,10,5,249,38,251,139,114,82,142,36,1,-1,5,-5,8,6,2,8,3,0,0,0,196,269,73,2,-1,0,-4,9,7,13,3
Bayern v Hoffenheim,0,2.8000000000000007,8,2,142,14,149,69,80,52,71,29,1,-1,1,-1,4,3,3,7,4,0,-1,0,102,149,47,-5,0,0,-10,-3,14,7,5
Bayern v Kaiserslautern,0,2.3999999999999986,6,1,207,15,205,89,120,15,189,6,3,-3,8,-8,5,4,2,7,4,0,1,0,75,207,132,-9,0,0,-4,0,3,4,2
Bayern v Leverkusen,0,1.5999999999999979,7,2,145,35,148,83,66,33,93,26,3,-3,1,-1,5,6,2,8,4,0,2,0,75,155,80,-6,-1,0,-9,-4,2,5,2
Bayern v Mainz,1,-1.2000000000000028,2,1,280,50,269,148,147,74,143,77,4,-4,1,-1,4,4,0,12,3,0,-1,0,137,258,121,-7,1,0,3,0,0,-3,0
Bayern v Nuernberg,0,3.6999999999999993,5,-1,291,24,293,156,139,56,191,54,2,-2,2,-2,6,6,3,9,3,0,1,0,169,308,139,-3,-1,0,-10,-5,6,5,3
Bayern v Schalke,0,0.6000000000000014,8,4,112,22,101,60,53,23,30,61,2,-2,2,-2,3,2,1,-4,-4,0,0,0,33,105,72,-13,-1,0,-2,8,6,10,1
Bayern v Stuttgart,0,-1.1000000000000014,0,-1,1,-9,6,6,-14,-8,5,-5,1,-1,0,0,0,0,1,5,-2,0,-1,0,20,17,-3,3,-1,0,-8,2,6,10,1
Bayern v Werder Bremen,0,0.9000000000000021,4,0,137,24,141,86,62,65,94,-9,2,-2,-6,6,2,2,1,8,2,0,0,0,128,132,4,5,0,0,3,-2,-3,-5,1
Bayern v Wolfsburg,0,0.6999999999999993,1,2,193,25,196,112,91,51,93,59,1,-1,4,-4,3,3,0,4,2,0,3,0,111,201,90,1,0,0,-18,-10,17,8,0
Borussia Dortmund v Augsburg,0,-2.3000000000000043,9,5,155,-5,172,96,71,59,88,21,0,0,4,-4,6,5,0,8,2,0,0,0,134,165,31,5,-1,0,-13,-7,16,6,2
Borussia Dortmund v Bayern,0,-1.6000000000000014,2,2,-29,-22,-33,-14,-17,23,-32,-22,-1,1,1,-1,2,0,0,2,3,0,1,0,8,-41,-49,-3,0,0,19,12,-9,-7,0
Borussia Dortmund v Mönchengladb.,0,0.5,11,6,2,5,-1,-11,28,97,-17,-62,3,-3,-6,6,8,8,1,13,4,0,-3,0,150,-3,-153,-9,0,0,4,5,-3,1,1
Borussia Dortmund v FC Cologne,0,-0.8000000000000007,12,3,83,-7,91,42,54,56,35,6,1,-1,-2,2,11,11,3,12,6,0,2,0,106,102,-4,1,1,0,-5,-3,4,2,3
Borussia Dortmund v Freiburg,0,-0.1999999999999993,6,0,136,20,131,73,69,49,58,34,2,-2,1,-1,5,5,3,3,2,0,1,0,76,124,48,-9,-1,0,1,2,2,1,4
Borussia Dortmund v Hamburg,0,-0.5999999999999979,7,2,87,-18,95,58,32,18,28,43,2,-2,2,-2,7,6,2,2,2,0,1,0,40,84,44,-2,-1,0,-4,-1,1,3,2
Borussia Dortmund v Hannover,0,-2.5,5,1,10,6,0,17,2,46,-15,-12,2,-2,0,0,4,3,1,6,2,0,-1,0,22,-25,-47,-10,-2,0,-1,-4,0,-3,1
Borussia Dortmund v Hertha Berlin,2,-2.099999999999998,8,5,79,-6,77,48,37,52,59,-27,2,-2,-2,2,2,1,0,7,1,0,-1,0,127,78,-49,-3,0,0,-3,-1,2,2,0
Borussia Dortmund v Hoffenheim,0,1.1000000000000014,9,6,43,6,57,38,14,63,-7,-4,2,-2,6,-6,8,9,1,8,4,0,-1,0,78,45,-33,-9,-1,0,7,8,0,1,2
Borussia Dortmund v Kaiserslautern,1,-0.6999999999999993,0,1,0,-3,5,-6,13,11,7,-11,1,-1,6,-6,1,2,1,7,1,0,-1,0,40,-6,-46,8,-1,0,2,-3,-5,-5,1
Borussia Dortmund v Leverkusen,0,0.5999999999999979,8,3,73,8,62,32,37,37,20,13,-3,3,-1,1,6,4,0,1,1,0,-3,0,38,57,19,-5,0,0,4,8,2,4,1
Borussia Dortmund v Mainz,0,-1.5,7,3,157,18,150,85,76,55,75,30,-1,1,2,-2,3,3,0,2,1,0,2,0,100,147,47,-4,0,0,13,12,-7,-1,1
Borussia Dortmund v Nuernberg,0,1.1000000000000014,-1,-1,79,-2,69,44,41,19,54,11,1,-1,3,-3,-1,-2,0,3,-2,0,0,0,42,55,13,-15,-2,0,1,2,-4,1,0
Borussia Dortmund v Schalke,0,-0.40000000000000213,8,2,-13,-18,-7,-21,15,20,-8,-18,0,0,4,-4,7,6,1,0,2,0,1,0,39,-15,-54,-4,-2,0,3,3,-2,0,1
Borussia Dortmund v Stuttgart,1,-1.4000000000000021,13,10,29,5,40,6,36,45,11,-13,6,-6,2,-2,9,10,1,10,4,0,4,0,68,19,-49,-6,0,0,-6,-6,4,0,1
Borussia Dortmund v Werder Bremen,0,1.1999999999999993,6,6,104,15,98,55,63,91,72,-46,2,-2,-1,1,6,5,1,6,0,0,4,0,164,76,-88,-12,0,0,11,8,-7,-3,1
Borussia Dortmund v Wolfsburg,0,-3.900000000000002,6,2,79,15,88,39,57,28,63,7,2,-2,1,-1,4,4,2,8,1,0,2,0,55,70,15,-6,-2,0,9,8,0,-1,2
Mönchengladb. v Augsburg,1,-2.3000000000000043,2,-1,181,-9,177,113,74,21,85,80,-1,1,8,-8,2,3,0,0,0,0,0,0,33,170,137,-8,-1,0,-9,-5,6,4,0
Mönchengladb. v Bayern,0,-1.1999999999999993,-3,-7,-152,0,-160,-80,-82,-65,-110,12,1,-1,3,-3,-6,-4,1,-6,-4,0,-5,0,-163,-161,2,-4,0,0,3,6,0,3,2
Mönchengladb. v Borussia Dortmund,1,0.20000000000000284,2,-1,63,7,50,54,0,-14,12,58,-5,5,5,-5,2,2,-1,-12,-2,0,-4,0,-38,50,88,-7,-1,0,-1,1,-4,2,-1
Mönchengladb. v FC Cologne,0,-0.8999999999999986,3,5,204,48,194,139,72,36,93,83,2,-2,1,-1,3,4,0,3,1,0,-4,0,51,191,140,-4,0,0,-8,-3,11,5,1
Mönchengladb. v Freiburg,1,1.8999999999999986,3,2,207,18,194,128,86,13,103,98,0,0,-2,2,1,0,0,0,0,0,-1,0,75,196,121,-5,0,0,-11,-3,8,8,0
Mönchengladb. v Hamburg,1,0.9000000000000021,3,2,34,-4,28,32,-7,-22,16,31,-2,2,3,-3,3,2,1,-4,3,0,-2,0,-39,25,64,-5,1,0,3,3,-3,0,1
Mönchengladb. v Hannover,0,-0.09999999999999787,6,6,192,20,181,114,80,19,136,37,4,-4,-1,1,3,3,0,3,1,0,-2,0,95,177,82,0,-1,0,5,6,-1,1,0
Mönchengladb. v Hertha Berlin,1,0.3999999999999986,5,2,245,18,237,160,86,78,125,43,1,-1,4,-4,4,4,0,6,2,0,-3,0,115,230,115,-4,0,0,4,2,0,-2,0
Mönchengladb. v Hoffenheim,2,1.0,1,1,78,21,74,73,5,41,-2,40,0,0,0,0,4,5,1,2,2,0,-2,0,22,72,50,2,0,0,0,-3,7,-3,1
Mönchengladb. v Kaiserslautern,0,0.8000000000000007,7,4,75,12,74,67,12,12,57,10,1,-1,-2,2,4,3,0,4,0,0,-2,0,43,68,25,-8,-1,0,4,5,0,1,0
Mönchengladb. v Leverkusen,1,0.5,2,2,54,19,65,40,0,-19,14,45,-1,1,8,-8,2,2,0,-6,-2,0,2,0,-10,56,66,4,-1,0,-5,-3,5,2,-1
Mönchengladb. v Mainz,0,-0.1999999999999993,-1,0,-2,8,-8,8,-19,-49,-12,50,-2,2,-6,6,-2,-2,1,-7,-1,0,0,0,-86,-8,78,-3,1,0,8,5,-7,-3,1
Mönchengladb. v Nuernberg,0,1.3000000000000007,8,2,104,5,92,60,50,22,45,42,2,-2,4,-4,6,4,0,6,1,0,-2,0,42,114,72,1,0,0,0,5,-1,5,0
Mönchengladb. v Schalke,0,1.1000000000000014,4,1,1,-1,-2,-6,-1,-51,16,28,2,-2,0,0,6,6,3,0,3,0,0,0,-83,23,106,11,-2,0,11,8,-10,-3,3
Mönchengladb. v Stuttgart,1,-1.6000000000000014,-1,-5,75,15,66,40,34,4,1,70,0,0,1,-1,-2,-2,0,0,-2,0,-4,0,-31,50,81,-7,1,0,1,0,-3,-1,0
Mönchengladb. v Werder Bremen,0,0.8000000000000007,4,0,1,12,4,-8,3,1,-22,16,2,-2,0,0,4,3,2,4,0,0,0,0,-47,8,55,1,-1,0,9,8,-1,-1,3
Mönchengladb. v Wolfsburg,0,-2.299999999999997,6,3,120,-1,117,67,60,36,50,42,4,-4,3,-3,4,3,0,6,0,0,-1,0,75,116,41,-10,-1,0,-7,-4,4,3,2
FC Cologne v Augsburg,0,-2.4999999999999964,-1,-2,79,4,65,44,36,46,31,4,0,0,0,0,-1,-2,0,-6,-3,0,-3,0,51,61,10,-4,0,0,-3,3,7,6,2
FC Cologne v Bayern,2,-0.7999999999999972,-1,-1,-118,-3,-118,-68,-59,-54,-66,-9,-1,1,2,-2,-1,0,-1,-7,-1,0,1,0,-106,-115,-9,5,0,0,5,2,-4,-3,-1
FC Cologne v Borussia Dortmund,2,1.1999999999999993,-4,-2,-117,-6,-109,-73,-57,-54,-32,-47,-1,1,-4,4,-5,-4,0,-11,-4,0,-2,0,-84,-104,-20,0,0,0,-1,1,1,2,0
FC Cologne v Mönchengladb.,2,-1.0,-3,0,-160,-22,-152,-104,-53,-1,-71,-86,0,0,-1,1,-2,0,0,3,-2,0,5,0,-14,-151,-137,5,1,0,6,4,-4,-2,-2
FC Cologne v Freiburg,0,-0.6999999999999993,2,-2,-32,4,-26,-49,13,-35,-23,21,1,-1,2,-2,1,1,1,-9,-2,0,1,0,-83,-16,67,7,0,0,-3,-4,-2,-1,1
FC Cologne v Hamburg,2,0.0,-6,-2,-177,-19,-173,-88,-103,-62,-102,-30,-1,1,-4,4,-4,-3,0,-8,-2,0,0,0,-136,-189,-53,-2,1,0,6,5,-4,-1,0
FC Cologne v Hannover,0,-2.0000000000000036,-1,-4,-30,1,-38,-40,-11,-3,-30,-18,-3,3,-4,4,-3,-3,0,-16,-4,0,1,0,-10,-31,-21,0,-1,0,-3,0,1,3,1
FC Cologne v Hertha Berlin,0,0.8999999999999986,6,0,102,-10,112,64,49,18,63,33,3,-3,3,-3,4,3,1,5,3,0,-2,0,57,129,72,3,0,0,-11,-4,11,7,1
FC Cologne v Hoffenheim,0,2.1000000000000014,2,0,-1,-5,-9,2,0,-7,5,0,0,0,8,-8,3,3,1,-1,2,0,-1,0,-1,9,10,3,0,0,6,7,7,1,1
FC Cologne v Kaiserslautern,1,0.29999999999999716,2,1,-39,-11,-34,-11,-28,-2,6,-46,-1,1,4,-4,0,0,-1,-2,-2,0,0,0,22,-22,-44,12,-1,0,-3,0,3,3,0
FC Cologne v Leverkusen,2,-0.20000000000000284,-5,-3,-86,-7,-78,-46,-56,-39,-62,0,-4,4,-2,2,-1,-1,0,-9,-2,0,1,0,-94,-97,-3,-1,1,0,6,2,-3,-4,-1
FC Cologne v Mainz,1,-0.8999999999999986,-4,-1,22,-5,28,12,-3,-17,33,-8,-2,2,10,-10,-2,-2,0,-16,-5,0,-2,0,-2,15,17,1,-1,0,3,6,5,3,0
FC Cologne v Nuernberg,2,2.1999999999999993,0,0,24,-18,8,28,-5,16,24,-17,-2,2,2,-2,-1,-1,0,-1,2,0,-3,0,41,28,-13,2,-1,0,1,2,-6,1,-1
FC Cologne v Schalke,2,2.099999999999998,0,-1,-89,8,-98,-62,-40,-46,-76,20,1,-1,2,-2,0,-1,0,-8,2,0,2,0,-119,-87,32,-4,0,0,5,3,-5,-2,1
FC Cologne v Stuttgart,1,-1.0,5,3,-156,-9,-136,-87,-66,-31,-100,-22,2,-2,0,0,3,3,0,3,1,0,1,0,-70,-120,-50,13,0,0,0,8,4,8,0
FC Cologne v Werder Bremen,1,1.0,3,4,42,5,58,33,13,47,12,-11,0,0,-1,1,5,3,0,5,2,0,-1,0,79,64,-15,11,-1,0,-8,-6,2,2,0
FC Cologne v Wolfsburg,2,-1.6999999999999993,-6,-4,75,-15,66,46,26,3,54,16,4,-4,1,-1,-4,-4,0,0,-1,0,-1,0,35,71,36,-2,-1,0,-6,0,12,6,-1
Freiburg v Augsburg,0,-2.599999999999998,2,4,124,-12,134,93,39,34,116,-20,1,-1,2,-2,2,0,0,4,1,0,0,0,130,135,5,-1,0,0,-24,-17,17,7,0
Freiburg v Bayern,1,-1.8999999999999986,4,3,-116,-5,-113,-42,-77,10,-59,-69,1,-1,1,-1,1,1,0,2,1,0,-5,0,14,-97,-111,2,1,0,-7,-1,10,6,0
Freiburg v Borussia Dortmund,2,-0.6000000000000014,-2,-4,22,-2,17,20,3,-5,13,15,0,0,-7,7,0,0,-1,0,-4,0,-3,0,-18,26,44,0,1,0,-12,-5,8,7,-1
Freiburg v Mönchengladb.,0,0.7000000000000028,-2,-1,-111,-14,-104,-51,-61,5,-37,-81,0,0,-6,6,-3,-3,1,0,1,0,5,0,6,-106,-112,4,2,0,-2,-5,-3,-3,1
Freiburg v FC Cologne,0,-1.0999999999999979,3,2,20,14,20,17,2,-12,1,27,0,0,-3,3,2,-1,1,-5,-1,0,2,0,-19,24,43,1,0,0,-7,-7,3,0,1
Freiburg v Hamburg,2,2.3000000000000043,5,4,131,11,120,80,60,30,76,34,4,-4,4,-4,2,2,0,8,5,0,0,0,58,122,64,-13,-1,0,-7,-5,13,2,-1
Freiburg v Hannover,1,-1.7000000000000028,0,0,8,-9,4,19,-3,33,-6,-10,2,-2,2,-2,0,2,0,9,1,0,1,0,41,3,-38,3,0,0,4,2,-1,-2,1
Freiburg v Hertha Berlin,1,-1.0999999999999979,-4,-1,59,-8,46,61,7,41,33,-7,2,-2,0,0,-3,-3,-1,2,-2,0,0,0,58,15,-43,-10,0,0,-3,-9,-2,-6,-2
Freiburg v Hoffenheim,1,-0.3999999999999986,4,3,-13,1,6,8,-22,-47,20,12,-1,1,-6,6,1,2,0,0,-1,0,1,0,10,9,-1,10,1,0,2,5,6,3,0
Freiburg v Kaiserslautern,0,1.0,1,-2,-75,-14,-74,-56,-25,-25,-23,-32,1,-1,-4,4,0,0,1,-7,0,0,3,0,-49,-65,-16,9,1,0,-3,-2,3,1,2
Freiburg v Leverkusen,2,1.1999999999999993,6,3,-18,-2,-13,29,-41,15,-33,8,0,0,-3,3,5,4,-1,5,5,0,1,0,-19,-14,5,-8,0,0,1,-2,-4,-3,-1
Freiburg v Mainz,2,0.40000000000000213,2,1,6,-7,0,10,-3,21,10,-23,-1,1,8,-8,2,2,0,-2,2,0,-2,0,40,13,-27,-3,0,0,-3,0,1,3,0
Freiburg v Nuernberg,1,-1.2999999999999972,-4,-1,49,19,60,19,35,34,19,3,-2,2,-3,3,-2,-2,0,-4,-4,0,-2,0,34,30,-4,-7,1,0,2,-4,-2,-6,-2
Freiburg v Schalke,0,-0.8000000000000007,-5,-5,-73,-3,-72,-36,-34,22,-45,-45,1,-1,0,0,-3,-3,1,3,0,0,0,0,17,-64,-81,3,-1,0,-2,2,4,4,1
Freiburg v Stuttgart,2,-0.6999999999999993,1,-1,21,4,23,14,15,56,-20,-7,1,-1,3,-3,2,1,0,8,3,0,1,0,38,19,-19,0,1,0,4,4,0,0,-1
Freiburg v Werder Bremen,1,-0.09999999999999787,1,2,-15,11,-8,-11,13,21,-24,4,3,-3,-6,6,-1,1,0,7,1,0,1,0,31,-1,-32,3,-1,0,-19,-9,17,10,0
Freiburg v Wolfsburg,0,-1.0000000000000036,0,-3,77,2,97,48,55,17,25,61,2,-2,6,-6,0,1,2,16,-4,0,0,0,5,89,84,7,0,0,-10,-12,6,-2,2
Hamburg v Augsburg,1,-0.5,8,4,38,-2,49,4,39,44,-19,18,5,-5,4,-4,5,7,0,10,3,0,1,0,46,50,4,0,0,0,5,5,-3,0,0
Hamburg v Bayern,1,-0.3000000000000007,-5,-9,-99,11,-97,-77,-31,-49,-59,-2,-5,5,1,-1,-2,0,1,-9,1,0,0,0,-95,-76,19,12,1,0,4,4,-6,0,1
Hamburg v Borussia Dortmund,2,0.1999999999999993,-5,-3,45,23,46,13,35,-17,8,57,-2,2,-3,3,-6,-4,-1,2,-2,0,-1,0,-39,53,92,2,1,0,-3,-3,3,0,-2
Hamburg v Mönchengladb.,2,-1.1000000000000014,-1,0,98,14,112,46,55,27,91,-17,-1,1,-2,2,-1,-2,0,6,-1,0,1,0,82,106,24,-1,0,0,-4,-2,1,2,0
Hamburg v FC Cologne,2,-0.5999999999999979,5,2,132,17,147,56,92,37,79,34,3,-3,0,0,4,2,-1,15,7,0,2,0,98,164,66,8,-1,0,-7,-3,10,4,0
Hamburg v Freiburg,2,0.6000000000000014,-2,1,112,25,113,43,52,18,11,67,2,-2,0,0,-2,-2,-1,-3,-3,0,1,0,-19,118,137,-3,0,0,-10,-2,12,8,-2
Hamburg v Hannover,0,-2.200000000000003,7,2,0,14,10,-14,12,24,-27,3,5,-5,0,0,7,7,0,8,7,0,1,0,42,16,-26,3,0,0,-2,-2,4,0,1
Hamburg v Hertha Berlin,1,-0.7000000000000028,-12,-6,3,6,4,9,-6,-8,17,-8,2,-2,-4,4,-4,-5,0,1,-2,0,-1,0,-2,3,5,-1,-2,0,-18,-14,9,4,0
Hamburg v Hoffenheim,0,0.20000000000000284,0,1,0,12,4,-5,6,3,-13,11,4,-4,-2,2,0,0,0,5,2,0,2,0,30,34,4,15,-2,0,-12,-11,7,1,1
Hamburg v Kaiserslautern,1,-1.1000000000000014,-2,-1,55,7,56,21,42,53,29,-19,0,0,-3,3,3,0,-1,10,3,0,0,0,108,65,-43,-3,0,1,-5,-2,1,3,-1
Hamburg v Leverkusen,1,0.5999999999999979,1,-4,46,18,51,20,33,18,-8,44,1,-1,-3,3,0,0,0,6,0,0,-2,0,4,49,45,-5,-1,0,1,2,6,1,1
Hamburg v Mainz,1,-2.6000000000000014,2,0,-1,-2,-7,13,5,23,-8,4,3,-3,7,-7,0,2,0,9,4,0,3,0,17,-1,-18,0,-1,0,-4,-1,4,3,0
Hamburg v Nuernberg,0,0.0,-4,-3,87,10,87,40,41,-4,78,8,-1,1,2,-2,-3,-2,0,0,-2,0,1,0,53,105,52,5,2,0,-12,-4,7,8,1
Hamburg v Schalke,2,-0.1999999999999993,6,5,3,-10,6,-13,13,-6,-24,30,2,-2,-3,3,5,3,0,1,0,0,3,0,8,2,-6,3,2,0,-1,-7,-3,-6,0
Hamburg v Stuttgart,2,-0.5999999999999979,-2,1,45,5,42,22,18,7,20,13,-1,1,5,-5,-3,-3,-1,1,0,0,1,0,8,36,28,-3,-2,0,-1,3,2,4,-2
Hamburg v Werder Bremen,2,1.3999999999999986,-2,-3,214,30,215,111,98,30,146,33,-2,2,7,-7,-3,-3,-2,-2,-2,0,0,0,113,206,93,-7,-1,0,-10,-7,7,3,-2
Hamburg v Wolfsburg,1,-2.4999999999999964,8,4,130,24,131,56,69,23,75,28,2,-2,-1,1,5,3,-1,5,0,0,1,0,65,137,72,-3,2,0,-6,-6,8,0,-1
Hannover v Augsburg,1,0.0,-3,1,-32,-15,-39,-8,-19,-30,-24,26,2,-2,-1,1,-1,0,0,-3,2,0,0,0,-55,-39,16,-7,0,0,10,2,-5,-8,0
Hannover v Bayern,0,1.0000000000000036,0,-3,-102,-24,-106,-44,-63,-34,-29,-44,0,0,0,0,-3,-2,0,-2,-4,0,-1,0,-64,-104,-40,3,3,-1,18,14,-11,-4,1
Hannover v Borussia Dortmund,0,2.3000000000000007,-4,-4,-109,-17,-115,-56,-66,-39,-79,-4,-2,2,-1,1,-3,-3,0,-11,-2,0,-2,0,-98,-103,-5,6,0,0,-6,-7,-3,-1,0
Hannover v Mönchengladb.,0,1.8999999999999986,1,0,-158,-24,-153,-89,-56,-11,-21,-113,1,-1,1,-1,-1,-3,0,4,-2,0,-2,0,-5,-154,-149,10,0,0,3,1,-3,-2,0
Hannover v FC Cologne,0,1.5,3,3,72,17,73,54,34,96,-3,-6,3,-3,0,0,2,2,-1,6,-1,0,3,0,113,63,-50,-5,0,0,-4,-4,2,0,0
Hannover v Freiburg,1,3.0,1,0,64,9,55,48,24,-23,50,46,-1,1,1,-1,1,1,0,2,0,0,0,0,-32,52,84,-7,0,0,9,1,-11,-8,0
Hannover v Hamburg,1,2.1999999999999993,-4,2,-88,0,-84,-59,-42,-53,-25,-26,-4,4,2,-2,-3,-3,0,-10,-2,0,-1,0,-80,-104,-24,-1,1,0,10,5,-4,-5,0
Hannover v Hertha Berlin,1,0.9999999999999964,4,0,25,-2,19,28,0,7,19,3,0,0,4,-4,2,1,0,-5,0,0,-4,0,18,15,-3,-6,-2,0,-13,-6,7,7,1
Hannover v Hoffenheim,0,2.799999999999997,0,-1,-3,-3,-18,4,-3,3,-6,4,0,0,-3,3,-3,-3,0,-1,-1,0,-4,0,-18,-17,1,3,1,0,1,-1,-4,-2,1
Hannover v Kaiserslautern,0,3.299999999999997,4,6,95,-11,100,80,33,66,42,5,8,-8,1,-1,7,7,0,17,4,0,1,0,109,101,-8,-3,-1,0,-6,-2,3,4,-2
Hannover v Leverkusen,1,1.5,3,2,82,7,77,66,30,35,33,27,2,-2,-2,2,4,4,0,6,1,0,-2,0,37,64,27,-12,-1,0,1,2,3,1,0
Hannover v Mainz,1,0.5999999999999979,2,4,41,6,42,49,7,24,20,9,-2,2,6,-6,-1,-1,0,1,-4,0,0,0,34,11,-23,-11,0,0,-6,-9,-3,-3,0
Hannover v Nuernberg,0,0.6999999999999993,6,4,105,1,102,69,48,53,30,34,6,-6,0,0,6,5,1,8,5,0,1,0,64,102,38,-1,0,0,-8,-8,3,0,1
Hannover v Schalke,1,2.200000000000003,2,0,123,0,117,80,48,4,78,47,-1,1,2,-2,1,1,-1,2,0,0,0,0,27,131,104,-9,-1,0,2,2,1,0,-2
Hannover v Stuttgart,0,-0.29999999999999716,4,-1,-18,6,-18,-1,-20,-4,-21,5,3,-3,5,-5,5,6,2,0,6,0,-3,0,-32,-21,11,-13,0,0,8,10,3,2,2
Hannover v Werder Bremen,0,2.099999999999998,-4,-3,-74,1,-74,-62,-12,2,-75,-1,2,-2,-5,5,-6,-6,0,-3,-2,0,1,0,-16,-77,-61,2,-2,0,1,-1,1,-2,1
Hannover v Wolfsburg,0,1.9000000000000021,-1,-1,165,-8,153,87,70,-34,103,89,0,0,0,0,2,1,1,-8,-3,0,3,0,-13,174,187,3,0,0,-2,-3,4,-1,1
Hertha Berlin v Augsburg,1,-0.8000000000000043,4,3,13,-9,18,-6,15,-11,22,-2,0,0,3,-3,3,4,-1,-3,1,0,1,0,-1,15,16,2,0,0,11,5,-11,-6,-1
Hertha Berlin v Bayern,2,-1.7000000000000028,-3,-2,-196,-12,-197,-91,-110,-37,-100,-63,-2,2,-3,3,-4,-4,-2,-5,-2,0,-1,0,-89,-201,-112,1,1,0,2,2,2,0,-3
Hertha Berlin v Borussia Dortmund,2,0.7000000000000028,-9,-7,-142,-4,-133,-72,-73,-16,-94,-34,-2,2,-1,1,-7,-6,0,-1,-2,0,2,0,-57,-128,-71,5,0,0,0,0,3,0,0
Hertha Berlin v Mönchengladb.,2,1.0,3,0,-126,-7,-134,-74,-40,29,-67,-75,3,-3,3,-3,1,0,0,10,4,0,1,0,-2,-133,-131,2,-2,0,4,1,-9,-3,0
Hertha Berlin v FC Cologne,0,-1.0999999999999979,2,0,-6,6,-1,-16,9,-13,-2,7,0,0,0,0,2,2,3,3,4,0,1,0,-30,14,44,8,0,0,5,1,-7,-4,3
Hertha Berlin v Freiburg,2,0.3000000000000007,1,-1,107,18,105,62,51,4,59,50,5,-5,-3,3,-1,-1,0,9,1,0,1,0,19,113,94,0,0,0,0,6,6,6,1
Hertha Berlin v Hamburg,2,0.7999999999999972,-5,-1,-61,-13,-61,-8,-61,-23,4,-51,-2,2,4,-4,-5,-5,-2,-5,-5,0,0,0,-22,-83,-61,-2,1,0,2,0,-4,-2,-2
Hertha Berlin v Hannover,2,-1.8999999999999986,3,1,-54,8,-54,-24,-21,23,-34,-38,-1,1,3,-3,4,6,0,4,2,0,2,0,25,-56,-81,-7,1,0,-2,-1,2,1,0
Hertha Berlin v Hoffenheim,0,0.3000000000000007,-1,-1,-44,7,-45,-25,-21,17,-52,-13,-4,4,-8,8,-4,-5,0,-7,-6,0,-2,0,1,-49,-50,5,1,0,1,-7,-6,-8,1
Hertha Berlin v Kaiserslautern,2,-0.8000000000000007,-4,1,79,11,65,60,21,21,67,-8,2,-2,-2,2,-3,-2,-1,-3,-2,0,0,0,59,70,11,3,0,0,-6,-3,3,3,-2
Hertha Berlin v Leverkusen,1,1.8999999999999986,0,1,-165,8,-166,-85,-82,-22,-108,-39,-3,3,-1,1,-2,-2,0,-4,-1,0,2,0,-100,-172,-72,0,-1,0,12,8,-12,-4,-1
Hertha Berlin v Mainz,1,0.09999999999999787,-5,-1,-62,3,-60,-27,-35,-33,-31,3,-2,2,5,-5,-5,-3,0,-7,-1,0,-1,0,-85,-58,27,5,0,0,0,0,4,0,0
Hertha Berlin v Nuernberg,2,0.9000000000000021,-4,-2,-14,14,-20,-25,13,-16,-2,6,-3,3,4,-4,-4,-3,0,-7,-2,0,1,0,-21,-12,9,1,0,0,-1,-2,-4,-1,0
Hertha Berlin v Schalke,2,0.9000000000000021,0,2,91,14,93,53,42,25,30,38,5,-5,5,-5,2,3,0,6,3,0,1,0,49,94,45,-2,0,0,-10,-2,9,8,-1
Hertha Berlin v Stuttgart,0,0.0,-4,0,-10,2,-25,0,-11,-13,-17,19,0,0,2,-2,-3,0,0,0,-1,0,1,0,-49,-22,27,-1,0,0,9,5,-6,-4,0
Hertha Berlin v Werder Bremen,0,1.6000000000000014,-3,-1,60,20,46,43,19,43,7,13,-2,2,1,-1,-1,-1,0,-2,1,0,1,0,59,57,-2,0,0,0,1,2,0,1,0
Hertha Berlin v Wolfsburg,2,-0.29999999999999716,1,0,-72,0,-70,-45,-19,-26,-54,13,3,-3,1,-1,-3,-2,-1,1,-4,0,6,0,-63,-79,-16,4,0,0,-1,0,1,1,1
Hoffenheim v Augsburg,1,-1.8000000000000007,1,-1,75,11,83,39,44,25,45,13,-2,2,-2,2,-1,0,0,2,0,0,2,0,56,95,39,-1,0,0,-14,-8,12,6,0
Hoffenheim v Bayern,1,-1.3999999999999986,7,5,-50,-15,-31,-14,-25,-5,-51,17,4,-4,2,-2,5,3,0,9,2,0,1,0,-14,-33,-19,3,-1,0,-1,-3,0,-2,0
Hoffenheim v Borussia Dortmund,0,0.3999999999999986,1,0,-153,-6,-146,-81,-84,-33,-82,-50,-2,2,3,-3,0,-2,0,-4,-2,0,0,0,-86,-162,-76,-4,0,0,15,7,-12,-8,1
Hoffenheim v Mönchengladb.,0,-1.0,3,2,-8,10,0,-18,14,31,-41,10,3,-3,4,-4,1,1,0,12,2,0,3,0,28,-18,-46,-12,0,0,-8,-3,4,5,0
Hoffenheim v FC Cologne,1,-0.6999999999999993,8,5,78,8,84,42,43,30,61,-4,4,-4,4,-4,2,1,1,11,3,0,2,0,85,100,15,1,-1,0,0,1,2,1,1
Hoffenheim v Freiburg,1,-2.3000000000000007,7,2,95,6,94,55,51,33,43,32,4,-4,2,-2,7,5,1,7,1,0,0,0,66,103,37,-8,-1,0,-5,1,5,6,1
Hoffenheim v Hamburg,0,-1.1000000000000014,0,-1,-117,-20,-95,-73,-45,-23,-68,-27,-3,3,3,-3,0,1,1,0,0,0,0,0,-58,-112,-54,9,0,0,18,6,-17,-12,2
Hoffenheim v Hannover,1,-1.1999999999999993,0,-1,85,13,94,41,46,10,43,35,-2,2,4,-4,2,1,0,2,3,0,7,0,35,104,69,1,0,0,-2,8,4,10,0
Hoffenheim v Hertha Berlin,1,-2.099999999999998,6,2,85,7,95,62,28,5,54,28,2,-2,-5,5,5,4,1,3,4,0,0,0,62,92,30,5,2,-1,3,-2,-6,-5,1
Hoffenheim v Kaiserslautern,1,-0.9000000000000021,-3,0,-17,11,-14,-22,-2,-19,-14,11,1,-1,3,-3,-2,-2,1,1,0,0,-1,0,-34,-18,16,1,0,0,0,0,-2,0,1
Hoffenheim v Leverkusen,2,0.3000000000000007,2,0,7,-10,15,-2,25,21,0,3,3,-3,1,-1,2,2,0,13,1,0,0,0,19,-1,-20,-10,0,0,0,1,-3,1,0
Hoffenheim v Mainz,1,-2.6000000000000014,1,-1,-27,-12,-25,-8,-15,-4,0,-18,-2,2,-1,1,3,0,-1,1,-1,0,0,0,21,-20,-41,-2,0,0,-7,-2,3,5,-2
Hoffenheim v Nuernberg,2,-0.8999999999999986,8,5,-21,-12,-26,-7,1,31,-27,-9,6,-6,0,0,5,3,-1,9,0,0,0,0,34,-29,-63,-4,0,0,6,3,-9,-3,-1
Hoffenheim v Schalke,1,-0.8000000000000007,6,3,58,2,48,43,20,42,25,-4,1,-1,0,0,5,5,0,1,1,0,1,0,64,34,-30,-15,-3,0,5,0,4,-5,1
Hoffenheim v Stuttgart,2,-2.799999999999997,0,0,59,7,70,19,41,-7,60,7,0,0,0,0,-2,-1,-2,-3,1,0,1,0,66,88,22,10,-1,0,-13,-4,9,9,-2
Hoffenheim v Werder Bremen,2,-0.6000000000000014,3,1,46,40,51,31,26,52,18,-12,-2,2,-3,3,3,2,0,6,1,0,0,0,77,60,-17,4,0,0,-24,-7,20,17,0
Hoffenheim v Wolfsburg,0,-3.1999999999999993,1,-1,122,4,128,75,42,-3,77,45,-4,4,3,-3,2,1,0,-3,0,0,0,0,2,137,135,3,2,0,-5,-1,5,4,2
Kaiserslautern v Augsburg,1,-2.1999999999999957,-1,1,158,11,157,96,57,36,74,45,2,-2,-2,2,2,2,-1,0,1,0,0,0,88,180,92,-3,2,0,-22,-6,23,16,-1
Kaiserslautern v Bayern,2,-1.6999999999999993,-7,-4,-139,-27,-140,-71,-67,-40,-102,1,-2,2,6,-6,-5,-5,0,-5,-2,0,-2,0,-92,-135,-43,3,0,0,-1,0,2,1,-1
Kaiserslautern v Borussia Dortmund,2,0.0,-4,1,-166,0,-174,-92,-86,-58,-134,17,-1,1,1,-1,-5,-4,-3,-5,-2,0,2,0,-172,-192,-20,-9,-1,0,9,5,-11,-4,-4
Kaiserslautern v Mönchengladb.,2,-0.1999999999999993,0,2,-25,-13,-6,13,-17,65,-24,-42,0,0,4,-4,2,1,-2,17,6,0,2,0,78,-30,-108,-7,1,0,-5,-2,3,3,-2
Kaiserslautern v FC Cologne,2,-0.5,-6,0,27,3,25,16,10,38,-20,9,-4,4,-6,6,-4,-3,0,-2,-1,0,1,0,25,20,-5,3,2,0,6,4,-4,-2,0
Kaiserslautern v Freiburg,0,-1.9000000000000021,-2,1,-62,-16,-65,-11,-46,-8,-37,-10,-1,1,-6,6,-1,-1,0,-2,2,0,0,0,-61,-79,-18,-5,-1,0,4,0,-4,-4,0
Kaiserslautern v Hamburg,2,-0.5999999999999979,1,1,-31,-12,-27,-2,-14,11,4,-33,4,-4,-4,4,-1,-1,0,6,-2,0,-1,0,16,-49,-65,0,2,0,3,0,-8,-3,-1
Kaiserslautern v Hannover,1,-1.7999999999999972,5,4,81,15,79,44,46,42,21,26,4,-4,-6,6,7,7,0,11,5,0,-1,0,82,94,12,0,0,0,-6,-1,9,5,-1
Kaiserslautern v Hertha Berlin,1,-0.3999999999999986,6,1,169,0,181,98,71,26,85,59,0,0,1,-1,5,5,-1,6,3,0,1,0,78,183,105,1,0,0,-4,-3,1,1,-2
Kaiserslautern v Hoffenheim,2,-0.20000000000000284,1,1,-12,11,-10,-8,-3,10,-19,-3,1,-1,2,-2,3,2,0,2,-1,0,0,0,8,-21,-29,-9,-1,0,-3,-1,1,2,-1
Kaiserslautern v Leverkusen,2,0.5999999999999979,0,-2,-102,8,-96,-67,-36,-34,-57,-13,3,-3,3,-3,0,-1,0,5,3,0,3,0,-63,-74,-11,17,0,0,5,0,-3,-5,0
Kaiserslautern v Mainz,0,-1.5,-1,1,-19,-3,-31,-21,-4,0,-38,14,1,-1,3,-3,1,3,-1,-1,1,0,0,0,-28,-40,-12,-5,0,0,7,9,1,2,-2
Kaiserslautern v Nuernberg,2,-1.5,0,3,11,8,9,2,8,9,-15,18,3,-3,1,-1,1,-1,-1,1,0,0,-1,0,4,12,8,6,1,0,-9,-10,1,-1,-1
Kaiserslautern v Schalke,2,-1.2000000000000028,-7,-2,-85,6,-104,-54,-44,11,-106,-4,-1,1,3,-3,-1,-1,0,-10,-3,0,0,0,-75,-115,-40,-9,0,0,15,12,-1,-3,-1
Kaiserslautern v Stuttgart,2,-1.1999999999999993,3,2,17,5,10,17,-3,-16,-2,33,0,0,1,-1,6,6,0,0,2,0,-1,0,-30,22,52,0,1,0,5,6,-2,1,0
Kaiserslautern v Werder Bremen,1,-0.09999999999999787,0,3,62,24,52,34,36,33,8,30,1,-1,0,0,-2,-1,0,9,2,0,1,0,69,57,-12,-11,-1,0,4,7,3,3,0
Kaiserslautern v Wolfsburg,1,-2.0,1,-1,-35,2,-24,-23,-27,-44,-19,15,-3,3,6,-6,-1,-2,0,-3,-2,0,1,0,-54,-29,25,0,0,0,3,2,-1,-1,0
Leverkusen v Augsburg,0,-2.3999999999999986,3,2,181,3,171,98,74,4,121,49,-1,1,3,-3,5,5,1,-6,-1,0,-1,0,59,190,131,-3,-1,0,3,5,-1,2,1
Leverkusen v Bayern,0,-2.6000000000000014,-5,-5,-65,-19,-58,-30,-47,-52,-22,-2,-1,1,-1,1,-3,1,0,-8,-2,0,-1,0,-79,-59,20,3,0,0,-3,-6,-1,-3,0
Leverkusen v Borussia Dortmund,1,1.1000000000000014,6,4,-24,0,-23,-29,1,-5,-27,3,2,-2,-2,2,6,6,0,-1,3,0,2,0,-8,8,16,15,2,0,-2,0,-3,2,0
Leverkusen v Mönchengladb.,2,-1.3999999999999986,5,2,-37,-13,-22,-26,-10,60,-49,-49,2,-2,1,-1,4,4,0,8,0,0,-1,0,80,-22,-102,8,0,0,-3,-3,3,0,-1
Leverkusen v FC Cologne,2,-1.1000000000000014,6,5,134,-9,137,66,71,34,89,13,3,-3,1,-1,4,3,-1,8,4,0,2,0,83,135,52,-8,0,0,1,3,2,2,-1
Leverkusen v Freiburg,2,-0.5,4,1,106,11,96,60,49,23,34,52,2,-2,4,-4,5,4,0,5,3,0,0,0,30,119,89,-1,-1,0,-10,-7,3,3,-1
Leverkusen v Hamburg,1,1.0,0,1,-26,-14,-24,-7,-10,0,34,-52,1,-1,-1,1,0,0,0,-2,-2,0,-2,0,10,-51,-61,-3,0,0,-5,-14,-4,-9,1
Leverkusen v Hannover,0,-3.0,3,3,11,3,14,-2,11,24,-15,0,0,0,2,-2,4,7,0,2,5,0,-2,0,20,8,-12,2,1,0,3,1,-3,-2,0
Leverkusen v Hertha Berlin,1,-0.3000000000000007,0,-1,97,-6,102,57,39,36,43,16,0,0,-1,1,1,0,0,0,-1,0,-1,0,70,92,22,-7,-1,0,-6,-5,6,1,1
Leverkusen v Hoffenheim,0,1.0999999999999979,2,3,57,25,56,27,23,8,-4,47,1,-1,7,-7,0,0,0,1,2,0,-2,0,17,65,48,7,-1,0,-2,-3,4,-1,1
Leverkusen v Kaiserslautern,0,-0.1999999999999993,-3,1,53,-3,52,30,17,22,50,-25,0,0,1,-1,1,1,0,-7,-1,0,1,0,70,57,-13,3,0,0,-7,-4,10,3,0
Leverkusen v Mainz,0,-1.3000000000000007,1,0,97,-18,95,69,36,8,64,36,0,0,4,-4,0,0,1,6,-1,0,-1,0,38,85,47,-7,1,0,1,-4,6,-5,0
Leverkusen v Nuernberg,2,1.1000000000000014,2,4,235,-10,215,140,103,37,132,75,3,-3,-2,2,0,0,-2,6,-1,0,-2,0,94,213,119,-7,0,0,-12,-10,4,2,-2
Leverkusen v Schalke,2,-0.5,-6,-2,84,-1,82,58,13,13,16,41,-2,2,1,-1,-5,-5,0,-10,-7,0,3,0,48,76,28,6,-1,0,-6,-3,8,3,0
Leverkusen v Stuttgart,1,-1.6000000000000014,3,4,117,-3,121,62,62,20,97,7,1,-1,-1,1,1,1,-1,3,-1,0,0,0,69,132,63,1,0,0,-13,-10,14,3,0
Leverkusen v Werder Bremen,0,0.8000000000000007,4,4,41,23,55,12,37,17,47,-17,3,-3,-4,4,1,1,0,7,2,0,1,0,46,49,3,-3,1,0,-1,-1,2,0,0
Leverkusen v Wolfsburg,0,-1.9000000000000021,6,3,97,-3,99,36,59,10,65,21,2,-2,3,-3,5,6,1,2,4,0,1,0,27,88,61,-5,-1,0,3,0,-3,-3,1
Mainz v Augsburg,2,-0.19999999999999574,2,1,170,10,165,93,76,27,83,59,0,0,-2,2,2,0,0,3,0,0,1,0,71,180,109,-2,0,0,0,1,3,1,0
Mainz v Bayern,0,0.1999999999999993,3,0,-204,-41,-203,-105,-94,3,-102,-101,1,-1,-4,4,3,3,1,2,2,0,-1,0,-27,-190,-163,4,1,0,-3,0,-2,3,1
Mainz v Borussia Dortmund,2,2.400000000000002,-5,-4,-212,-8,-220,-128,-100,-83,-113,-35,-5,5,-1,1,-7,-4,0,-14,-4,0,1,0,-177,-215,-38,5,0,0,15,7,-14,-8,1
Mainz v Mönchengladb.,2,1.8000000000000007,-2,0,-30,-2,-21,-27,11,8,-23,-2,1,-1,1,-1,-1,-1,-1,6,4,0,3,0,-10,-35,-25,-2,0,0,1,0,1,-1,-1
Mainz v FC Cologne,0,2.8000000000000043,5,0,-35,11,-36,-27,-3,23,-54,-3,-1,1,4,-4,4,4,2,-2,3,0,5,0,13,-32,-45,-9,0,0,4,2,-8,-2,3
Mainz v Freiburg,0,1.8999999999999986,7,3,123,21,115,70,60,60,117,-45,0,0,2,-2,7,7,2,3,0,0,2,0,138,116,-22,-6,0,-1,3,5,1,2,3
Mainz v Hamburg,1,0.7999999999999972,5,0,-56,-17,-52,-32,-28,20,-46,-35,0,0,0,0,4,3,0,0,1,0,2,0,11,-49,-60,-7,1,0,5,5,-4,0,0
Mainz v Hannover,1,1.6000000000000014,-2,-3,2,3,13,-45,23,-22,14,-15,-5,5,-3,3,1,1,1,-17,-2,0,1,0,-3,32,35,8,1,0,12,9,-6,-3,1
Mainz v Hertha Berlin,2,1.5,0,0,90,12,106,43,52,40,34,22,4,-4,-4,4,0,0,-1,10,2,0,1,0,83,86,3,-7,0,0,-6,-9,-3,-3,-1
Mainz v Hoffenheim,2,2.900000000000002,3,2,95,9,85,65,35,24,38,40,0,0,2,-2,4,1,0,2,0,0,0,0,50,92,42,1,0,0,-7,-6,6,1,-2
Mainz v Kaiserslautern,0,2.0,1,0,50,10,59,6,47,5,39,10,0,0,1,-1,1,1,3,-2,-2,0,6,0,37,58,21,1,-1,0,-1,-3,-2,-2,3
Mainz v Leverkusen,0,1.1999999999999993,5,0,-36,-5,-33,-21,-10,-3,-29,1,0,0,0,0,5,4,0,-1,1,0,0,0,8,-26,-34,6,0,0,3,4,0,1,1
Mainz v Nuernberg,0,1.2000000000000028,0,-2,-21,-12,-22,-24,4,21,-12,-30,-1,1,2,-2,-2,0,0,-8,-4,0,3,0,40,-25,-65,1,-1,0,1,-2,-2,-3,2
Mainz v Schalke,2,2.599999999999998,7,5,-16,-3,-12,-8,-2,4,-42,26,2,-2,2,-2,5,4,1,0,1,0,-1,0,-49,-23,26,-9,-1,0,0,2,-1,2,2
Mainz v Stuttgart,0,-0.10000000000000142,0,3,-38,-11,-33,-21,-7,9,-24,-14,1,-1,1,-1,-2,-3,0,3,-2,0,0,0,-13,-53,-40,-5,-1,0,-2,-2,3,0,0
Mainz v Werder Bremen,2,1.1000000000000014,2,3,47,15,51,25,36,51,-5,17,5,-5,-4,4,1,2,1,13,6,0,1,0,26,33,7,-4,1,0,11,6,-5,-5,0
Mainz v Wolfsburg,1,1.3999999999999986,2,4,48,11,48,13,22,-6,18,20,-2,2,3,-3,1,0,0,-8,-1,0,0,0,9,36,27,-3,-1,0,0,-2,1,-2,0
Nuernberg v Augsburg,0,-3.8999999999999986,2,3,69,-11,68,63,17,19,42,20,1,-1,3,-3,3,4,0,6,0,0,-1,0,54,58,4,-3,1,0,-12,-7,9,5,0
Nuernberg v Bayern,2,-0.3999999999999986,0,2,-59,-1,-60,-38,-23,-22,-31,-7,2,-2,-8,8,1,1,0,-3,2,0,-3,0,-43,-71,-28,-4,0,0,2,3,-5,1,0
Nuernberg v Borussia Dortmund,2,0.0,2,1,-144,-6,-149,-60,-75,-16,-84,-35,4,-4,5,-5,0,0,0,7,3,0,-2,0,-48,-161,-113,-6,0,0,7,10,2,3,0
Nuernberg v Mönchengladb.,0,-0.7999999999999972,1,-2,-252,-18,-250,-128,-117,-50,-139,-60,1,-1,-5,5,1,2,0,5,3,0,1,0,-119,-246,-127,3,0,0,5,3,-3,-2,0
Nuernberg v FC Cologne,0,-0.09999999999999787,6,2,-10,-5,-9,-4,3,16,-22,5,2,-2,1,-1,3,1,0,8,2,0,1,0,25,11,-14,4,-1,0,-10,-7,9,3,1
Nuernberg v Freiburg,2,-1.9000000000000021,1,2,6,0,8,28,-8,24,-15,12,1,-1,4,-4,0,-1,-1,13,2,0,-1,0,37,11,-26,2,1,0,-12,-8,4,4,0
Nuernberg v Hamburg,1,0.3000000000000007,2,1,-30,-15,-30,-11,-16,-19,-3,-6,-2,2,3,-3,2,2,0,0,3,0,-1,0,-25,-24,1,3,-1,0,-1,1,2,2,0
Nuernberg v Hannover,2,-2.6999999999999957,1,0,76,17,90,28,43,9,29,31,-1,1,-2,2,2,3,-1,3,2,0,5,0,13,76,63,-8,1,0,-2,0,4,2,-2
Nuernberg v Hertha Berlin,0,-0.5,2,3,-102,-4,-96,-68,-37,-30,-53,-23,0,0,-1,1,3,1,1,-2,1,0,1,0,-43,-97,-54,-3,1,0,1,2,-1,1,1
Nuernberg v Hoffenheim,2,0.6999999999999993,-1,2,-112,-25,-103,-45,-51,-14,-55,-31,-2,2,-2,2,-1,-1,-1,0,2,0,-1,0,-37,-103,-66,9,1,1,-3,-4,8,-1,-1
Nuernberg v Kaiserslautern,0,-0.9000000000000021,-2,0,-49,-7,-41,-28,-22,-3,-18,-29,2,-2,1,-1,-1,1,0,9,3,0,3,0,-9,-40,-31,3,-1,0,1,0,0,-1,1
Nuernberg v Leverkusen,2,1.1000000000000014,2,2,50,-8,59,39,16,3,23,33,1,-1,1,-1,2,1,-2,11,2,0,1,0,-2,67,69,4,-2,0,-4,2,7,6,-2
Nuernberg v Mainz,1,-2.6999999999999993,-7,-4,-2,5,4,2,-2,-22,15,7,-3,3,4,-4,-8,-8,-1,-2,-3,0,-2,0,-58,-5,53,0,1,0,-6,-2,4,4,0
Nuernberg v Schalke,0,0.6000000000000014,3,-1,-154,2,-145,-84,-56,-4,-96,-43,2,-2,4,-4,4,3,2,7,3,0,-1,0,-47,-144,-97,6,-2,0,5,2,-3,-3,3
Nuernberg v Stuttgart,1,-2.1999999999999993,7,6,-62,0,-46,-42,-19,20,-55,-27,0,0,2,-2,3,2,0,0,-2,0,0,0,13,-61,-74,4,0,0,-5,-5,4,0,1
Nuernberg v Werder Bremen,1,-0.9000000000000021,5,2,79,18,90,62,43,62,52,-8,3,-3,-4,4,0,-1,-1,17,1,0,1,0,133,74,-59,-7,1,-1,-5,-6,-1,-1,-1
Nuernberg v Wolfsburg,2,0.6999999999999993,-2,-1,94,19,95,45,38,-39,72,51,-5,5,4,-4,-3,-3,-1,-8,-4,0,1,0,-13,78,91,-4,-1,0,-6,-6,3,0,-1
Schalke v Augsburg,0,-0.5,6,4,123,-5,127,60,69,48,66,16,2,-2,5,-5,5,4,1,6,1,0,3,0,94,130,36,0,-1,0,-7,-1,4,6,1
Schalke v Bayern,2,-1.3999999999999986,-5,-5,-115,-27,-109,-57,-54,-26,-56,-31,-3,3,-2,2,-6,-5,0,2,-1,0,0,0,-60,-110,-50,6,0,0,10,7,-8,-3,-1
Schalke v Borussia Dortmund,2,0.3000000000000007,6,3,-38,3,-30,-11,-9,-14,2,-7,8,-8,0,0,4,4,0,14,5,0,1,0,14,-16,-30,14,2,0,5,-1,-7,-6,0
Schalke v Mönchengladb.,0,-1.1999999999999993,1,0,-146,1,-137,-79,-59,-1,-83,-52,1,-1,1,-1,0,0,0,11,4,0,2,0,-14,-126,-112,18,0,0,19,9,-11,-10,0
Schalke v FC Cologne,0,-1.3999999999999986,3,0,184,12,184,116,88,88,93,23,3,-3,3,-3,4,4,-1,20,5,0,1,0,159,193,34,-1,-2,0,-6,-5,7,1,0
Schalke v Freiburg,0,-1.0,3,0,-22,5,-33,16,-22,4,-10,0,4,-4,4,-4,0,3,-1,2,0,0,-5,0,-35,-24,11,5,0,0,-4,-1,3,3,0
Schalke v Hamburg,0,1.1999999999999993,-5,-3,-27,9,-33,-17,-25,-35,0,-7,-2,2,-3,3,-3,-3,2,-6,1,0,1,0,-55,-32,23,4,-1,0,12,5,-15,-7,2
Schalke v Hannover,0,-2.200000000000003,2,3,93,4,81,47,51,28,81,-11,0,0,3,-3,1,1,1,1,1,0,4,0,78,91,13,-3,0,0,4,4,-4,0,1
Schalke v Hertha Berlin,0,0.8999999999999986,3,0,191,21,191,132,71,54,124,25,-1,1,-3,3,4,5,1,7,3,0,-1,0,124,188,64,-8,0,0,-3,-1,1,2,1
Schalke v Hoffenheim,0,0.5,0,2,-72,-5,-74,-57,-16,-11,-20,-41,0,0,-2,2,2,1,1,-4,1,0,1,0,3,-68,-71,8,-1,0,1,-5,3,-6,1
Schalke v Kaiserslautern,2,-0.8000000000000007,-3,3,53,0,52,34,3,-3,64,-22,-3,3,3,-3,0,0,0,-13,-3,0,-4,0,43,67,24,8,-2,1,-12,-1,16,11,-1
Schalke v Leverkusen,0,1.0,8,3,43,9,43,17,37,32,25,-4,3,-3,-5,5,6,6,1,8,3,0,2,0,69,62,-7,14,-1,0,8,10,-5,2,1
Schalke v Mainz,1,-2.3000000000000007,-6,-4,93,15,90,74,42,37,77,4,5,-5,4,-4,-5,-3,-1,19,3,0,-1,0,90,86,-4,2,0,0,-1,-5,-3,-4,-1
Schalke v Nuernberg,0,0.0,1,1,-74,-5,-72,-40,-40,-8,-68,-3,-1,1,1,-1,-2,2,0,-5,-2,0,-2,0,-51,-67,-16,7,2,0,4,3,-7,-1,2
Schalke v Stuttgart,0,-0.8999999999999986,5,1,-85,-11,-73,-35,-35,-2,-60,-10,0,0,0,0,1,1,0,1,0,0,2,0,-44,-73,-29,3,0,0,-2,-1,4,1,1
Schalke v Werder Bremen,0,0.3000000000000007,4,2,12,10,25,7,4,11,-9,9,-1,1,-3,3,5,4,1,1,0,0,0,0,11,37,26,12,0,0,-1,1,6,2,2
Schalke v Wolfsburg,0,-0.5,2,1,88,19,93,44,50,10,37,47,1,-1,7,-7,1,1,2,2,4,0,3,0,21,100,79,7,-1,0,3,6,1,3,2
Stuttgart v Augsburg,0,-0.10000000000000142,-4,-1,97,15,90,50,40,7,28,56,-2,2,-2,2,-4,-3,0,-2,0,0,-1,0,11,90,79,5,-1,0,2,3,1,1,1
Stuttgart v Bayern,2,-0.7999999999999972,-5,-4,-232,-25,-239,-119,-113,-86,-121,-27,-2,2,-9,9,-7,-7,0,-2,-1,0,-2,0,-196,-241,-45,-5,2,0,9,6,-9,-3,0
Stuttgart v Borussia Dortmund,1,2.1000000000000014,-5,-2,-54,2,-61,-15,-33,-2,-49,2,-1,1,2,-2,-3,1,0,4,1,0,1,0,-45,-65,-20,-6,0,0,3,2,-2,-1,0
Stuttgart v Mönchengladb.,2,1.1999999999999993,2,3,16,-11,14,5,20,7,-2,19,2,-2,0,0,1,0,-1,7,1,0,0,0,18,26,8,5,0,0,-6,-1,11,5,-1
Stuttgart v FC Cologne,1,0.6999999999999993,3,2,86,14,86,49,47,20,69,8,4,-4,3,-3,3,4,1,12,3,0,1,0,76,81,5,3,0,0,6,-2,-5,-8,1
Stuttgart v Freiburg,0,1.6999999999999993,2,-2,-59,6,-54,-32,-36,-32,-49,13,-2,2,0,0,3,4,1,-3,0,0,3,0,-97,-40,57,12,0,0,14,8,-15,-6,1
Stuttgart v Hamburg,2,1.3999999999999986,3,0,44,-8,41,34,5,-17,39,19,-4,4,-1,1,0,0,0,-2,0,0,-1,0,-4,43,47,1,0,0,6,3,-3,-3,1
Stuttgart v Hannover,0,-0.7000000000000028,6,3,0,14,11,-14,19,3,-35,37,1,-1,4,-4,4,3,0,7,4,0,3,0,-1,18,19,8,0,0,5,4,-2,-1,1
Stuttgart v Hertha Berlin,0,0.5999999999999979,6,2,135,7,129,82,71,41,89,23,-1,1,3,-3,4,3,4,12,1,0,0,0,112,135,23,0,-1,-1,-2,-3,6,-1,4
Stuttgart v Hoffenheim,0,2.400000000000002,3,2,-51,-4,-61,-32,-22,-25,-19,-10,-1,1,-1,1,3,1,0,-1,3,0,0,0,-65,-62,3,1,1,0,17,8,-16,-9,0
Stuttgart v Kaiserslautern,1,2.3000000000000007,10,4,186,15,185,108,88,36,133,28,5,-5,5,-5,9,6,0,9,5,0,1,0,172,196,24,2,0,0,-3,1,0,4,0
Stuttgart v Leverkusen,2,1.1000000000000014,-3,-3,-69,6,-59,-8,-55,-4,-31,-27,1,-1,9,-9,-1,-1,0,5,1,0,2,0,-36,-71,-35,-1,0,0,11,4,-6,-7,-1
Stuttgart v Mainz,0,-0.9000000000000021,-2,-2,89,11,83,62,37,50,50,0,8,-8,2,-2,-3,-3,1,18,1,0,4,0,84,113,29,10,0,0,-1,4,7,5,0
Stuttgart v Nuernberg,0,0.1999999999999993,-5,-3,-7,-15,-8,-1,-24,-21,26,-30,-7,7,-1,1,-2,-3,0,-12,-5,0,2,0,-13,-2,11,5,1,0,3,1,-5,-2,0
Stuttgart v Schalke,0,1.8000000000000007,1,1,61,-5,53,28,36,-20,28,56,1,-1,4,-4,2,3,0,-1,-1,0,3,0,-16,66,82,-2,1,0,2,1,3,-1,1
Stuttgart v Werder Bremen,0,1.8000000000000007,9,1,126,9,129,70,67,69,52,17,1,-1,2,-2,4,5,0,7,1,0,1,0,128,121,-7,-1,0,0,-9,-4,10,5,1
Stuttgart v Wolfsburg,0,1.0999999999999979,3,2,169,7,166,98,69,24,103,40,3,-3,2,-2,1,1,-1,-3,2,0,0,0,89,163,74,-10,1,0,-11,-8,8,3,-1
Werder Bremen v Augsburg,1,-3.400000000000002,-3,1,18,-10,21,34,-7,-18,24,19,-1,1,-4,4,-5,-7,0,3,-2,0,-1,0,-12,24,36,4,1,0,-5,-2,3,3,0
Werder Bremen v Bayern,2,-1.5,1,-1,-53,-33,-43,-33,-38,-37,-45,13,0,0,3,-3,-1,-1,0,1,1,0,3,0,-55,-40,15,2,0,0,4,5,-5,1,0
Werder Bremen v Borussia Dortmund,2,0.9000000000000021,3,1,-13,-7,-1,2,-7,42,-15,-30,3,-3,2,-2,2,2,-1,7,2,0,-2,0,76,-17,-93,-1,-1,0,-1,-3,4,-2,-1
Werder Bremen v Mönchengladb.,1,-0.5,-2,-2,-75,-14,-69,-52,-27,-27,-29,-24,-3,3,3,-3,-2,-4,1,-1,0,0,0,0,-32,-72,-40,4,-2,1,-1,1,1,2,1
Werder Bremen v FC Cologne,0,0.0,5,2,99,-10,110,68,38,32,69,7,0,0,-1,1,5,4,-2,5,3,0,-1,0,66,117,51,3,1,0,-8,-6,2,2,-2
Werder Bremen v Freiburg,0,-1.0999999999999979,10,4,18,-16,34,20,4,13,14,-3,4,-4,8,-8,7,7,1,8,5,0,1,0,67,43,-24,-2,0,0,-7,-1,13,6,1
Werder Bremen v Hamburg,0,-0.09999999999999787,7,4,6,-9,11,15,-2,6,4,5,3,-3,-2,2,3,3,0,6,5,0,2,0,26,12,-14,4,-1,0,7,0,-7,-7,0
Werder Bremen v Hannover,0,-2.8999999999999986,-5,-3,26,-14,22,18,5,-12,33,2,-1,1,8,-8,-5,-5,1,-1,-1,0,3,0,-1,30,31,3,0,0,11,9,-6,-2,1
Werder Bremen v Hertha Berlin,0,-1.5999999999999979,4,1,61,-17,67,57,13,44,24,1,-1,1,-2,2,6,5,0,7,3,0,0,0,103,87,-16,4,-2,0,-5,4,5,9,0
Werder Bremen v Hoffenheim,1,-0.09999999999999787,0,1,95,-7,96,47,49,-2,60,39,2,-2,2,-2,-3,0,-1,5,0,0,1,0,42,85,43,0,0,0,8,2,-9,-6,-1
Werder Bremen v Kaiserslautern,0,0.0,5,3,78,-10,76,49,30,14,48,17,0,0,9,-9,2,0,0,7,1,0,-1,0,71,85,14,-5,-1,0,-9,-4,8,5,0
Werder Bremen v Leverkusen,1,-0.3999999999999986,4,-1,-64,-9,-49,-40,-25,-37,-48,19,-1,1,1,-1,2,2,1,-2,0,0,1,0,-60,-57,3,-1,-2,0,-2,-2,0,0,1
Werder Bremen v Mainz,2,-2.900000000000002,10,7,255,6,243,163,109,105,142,27,4,-4,1,-1,10,8,-1,18,6,0,-2,0,223,263,40,-7,0,0,-5,-3,5,2,-1
Werder Bremen v Nuernberg,2,-0.3999999999999986,4,3,137,-9,145,79,56,28,97,12,-2,2,5,-5,1,1,0,-4,-6,0,1,0,119,141,22,-4,0,0,-7,-9,7,-2,0
Werder Bremen v Schalke,2,0.6999999999999993,4,3,-10,-11,-18,7,-18,15,-51,27,1,-1,5,-5,2,2,-1,3,2,0,0,0,14,-15,-29,0,0,0,5,4,1,-1,0
Werder Bremen v Stuttgart,0,-1.8999999999999986,0,-1,16,-23,13,-2,26,36,13,-25,0,0,4,-4,1,1,0,7,0,0,-1,0,82,18,-64,3,-1,0,1,3,-1,2,0
Werder Bremen v Wolfsburg,0,-2.599999999999998,3,1,32,1,36,0,40,0,2,40,-1,1,4,-4,2,4,1,-1,-4,0,7,0,-6,31,37,4,-2,0,0,-5,-2,-5,2
Wolfsburg v Augsburg,2,-0.9000000000000021,11,8,-11,-2,-9,-8,6,35,-38,0,3,-3,-5,5,10,10,1,5,2,0,-4,0,23,-9,-32,-4,-1,0,-9,-5,-2,4,0
Wolfsburg v Bayern,2,0.5000000000000036,-4,-1,-96,-8,-99,-44,-55,16,-99,-13,1,-1,-2,2,-4,-1,0,5,2,0,-2,0,-31,-98,-67,-2,-1,0,3,5,-1,2,0
Wolfsburg v Borussia Dortmund,2,1.1999999999999993,1,1,-108,0,-109,-55,-60,-31,-70,-14,-3,3,-5,5,-1,-1,-1,-5,1,0,-2,0,-49,-104,-55,-4,1,0,4,1,-7,-3,-1
Wolfsburg v Mönchengladb.,1,-0.09999999999999787,3,3,-190,-8,-173,-102,-82,42,-103,-124,3,-3,-5,5,3,1,0,9,2,0,-4,0,30,-177,-207,5,1,0,-5,-3,3,2,0
Wolfsburg v FC Cologne,0,2.099999999999998,5,1,-56,-3,-52,-30,-14,51,-12,-82,5,-5,-4,4,4,0,0,13,2,0,-3,0,86,-49,-135,8,1,0,3,0,-5,-3,0
Wolfsburg v Freiburg,0,1.5999999999999979,3,2,62,2,64,58,8,-14,46,35,2,-2,-7,7,3,4,0,-2,2,0,0,0,15,68,53,1,0,0,-7,-7,7,0,0
Wolfsburg v Hamburg,0,0.40000000000000213,7,4,-60,-11,-55,-5,-34,45,-57,-29,3,-3,-7,7,4,3,0,15,4,0,-6,0,48,-53,-101,1,1,0,-11,-9,2,2,0
Wolfsburg v Hannover,0,1.1999999999999993,5,1,10,3,14,1,20,51,-4,-25,4,-4,-3,3,5,4,1,9,2,0,-1,0,65,16,-49,1,0,0,3,3,-1,0,1
Wolfsburg v Hertha Berlin,2,2.5000000000000036,7,4,9,-5,19,16,-2,38,-13,-8,2,-2,-9,9,5,6,-1,5,2,0,-2,0,75,11,-64,-5,0,0,-2,-8,2,-6,-1
Wolfsburg v Hoffenheim,2,0.1999999999999993,3,3,79,1,81,68,19,41,-1,46,2,-2,-6,6,1,-2,0,12,2,0,-5,0,39,84,45,-4,-1,0,-6,1,9,7,-1
Wolfsburg v Kaiserslautern,0,2.299999999999997,-2,1,-135,-21,-132,-80,-51,43,-77,-97,1,-1,2,-2,-1,-2,0,7,0,0,-2,0,26,-130,-156,3,0,1,4,6,1,2,0
Wolfsburg v Leverkusen,0,1.4000000000000021,3,-1,-38,5,-36,0,-38,-6,-14,-16,0,0,-4,4,3,2,1,4,4,0,-5,0,-20,-51,-31,-10,1,0,2,5,-3,3,1
Wolfsburg v Mainz,1,0.8999999999999986,1,2,-57,-28,-60,-9,-38,42,-57,-31,3,-3,3,-3,3,4,0,12,2,0,-5,0,-6,-51,-45,-4,-1,0,6,11,5,5,0
Wolfsburg v Nuernberg,0,3.1999999999999957,4,0,22,-9,28,16,10,15,-4,15,0,0,4,-4,5,4,1,-1,-1,0,0,0,34,26,-8,0,0,0,-1,-2,-6,-1,1
Wolfsburg v Schalke,0,3.599999999999998,5,3,-49,-18,-56,-14,-12,22,-37,-10,3,-3,-1,1,5,5,0,9,7,0,0,0,9,-63,-72,-9,1,0,-2,-4,-2,-2,0
Wolfsburg v Stuttgart,0,2.0,7,7,-2,4,-6,17,1,52,8,-43,1,-1,-5,5,4,0,0,11,2,0,-3,0,78,-9,-87,-4,0,0,0,0,-1,0,0
Wolfsburg v Werder Bremen,0,1.9000000000000021,-5,-1,-165,-2,-164,-93,-78,-11,-103,-55,-2,2,-7,7,-6,-6,0,1,0,0,0,0,-78,-164,-86,-1,-1,0,-5,-3,2,2,0
